<svg xmlns="http://www.w3.org/2000/svg" width="49.139" height="11.414" viewBox="0 0 49.139 11.414">
    <g data-name="그룹 12277" transform="translate(-1256 -1843.293)">
        <g data-name="그룹 12276">
            <path data-name="패스 17873" d="M12813 10647.022h43.225" transform="translate(-11552.998 -8798.023)" style="fill:none;stroke:#ff5d5d;stroke-width:2px"/>
            <path data-name="패스 17875" d="m13058.671 10644.194 5 5-5 5" transform="translate(-11759.946 -8800.194)" style="fill:none;stroke:#ff5d5d;stroke-width:2px"/>
        </g>
        <circle data-name="타원 969" cx="4" cy="4" r="4" transform="translate(1256 1845)" style="fill:#ff5d5d"/>
    </g>
</svg>
