<svg xmlns="http://www.w3.org/2000/svg" width="21.999" height="21.998" viewBox="0 0 21.999 21.998">
    <path data-name="합치기 271" d="M2108.112 20811.4a4.107 4.107 0 0 1-4.11-4.109v-11.773a4.109 4.109 0 0 1 4.11-4.115h.888v-1.045a.956.956 0 0 1 1.912 0v1.045H2114v-1.045a.956.956 0 0 1 1.912 0v1.045H2119v-1.045a.953.953 0 1 1 1.906 0v1.045h.982a4.109 4.109 0 0 1 4.111 4.115v11.773a4.108 4.108 0 0 1-4.111 4.109zm-2.23-4.109a2.233 2.233 0 0 0 2.23 2.23h13.778a2.233 2.233 0 0 0 2.23-2.23v-11.773a2.238 2.238 0 0 0-2.23-2.24h-.982v1.064a.953.953 0 1 1-1.906 0v-1.064h-3.092v1.064a.956.956 0 1 1-1.912 0v-1.064h-3.087v1.064a.956.956 0 1 1-1.912 0v-1.064h-.888a2.238 2.238 0 0 0-2.23 2.24v1.869h15.413v1.912h-15.413z" transform="translate(-2104.002 -20789.398)" style="fill:#272733"/>
</svg>
