<svg xmlns="http://www.w3.org/2000/svg" width="14" height="13" viewBox="0 0 14 13">
    <path data-name="합치기 1" d="M1 13a1 1 0 0 1-1-1V2a1 1 0 0 1 1-1h2V.6a.6.6 0 0 1 1.2 0V1h2.2V.6a.6.6 0 1 1 1.2 0V1h2.2V.6a.6.6 0 1 1 1.2 0V1h2a1 1 0 0 1 1 1v10a1 1 0 0 1-1 1zm.2-1.2h11.6V6.2H1.2zM12.8 5V2.2H11v.4a.6.6 0 1 1-1.2 0v-.4H7.6v.4a.6.6 0 1 1-1.2 0v-.4H4.2v.4a.6.6 0 0 1-1.2 0v-.4H1.2V5z" style="fill:#3c66db"/>
</svg>
