<svg xmlns="http://www.w3.org/2000/svg" width="38" height="38" viewBox="0 0 38 38">
    <g data-name="그룹 19299" transform="translate(-579 -1518)">
        <circle data-name="타원 11735" cx="19" cy="19" r="19" transform="translate(579 1518)" style="fill:#3c66db"/>
        <path data-name="합치기 572" d="M3.052 19.617v-3.834a5.439 5.439 0 0 0-1.281-3.531A7.435 7.435 0 0 1 7.438 0h.07a7.435 7.435 0 0 1 5.586 12.258 5.423 5.423 0 0 0-1.277 3.525v3.835a4.383 4.383 0 0 1-8.766 0zm4.383 2.727a2.714 2.714 0 0 0 2.155-1.062H5.281a2.718 2.718 0 0 0 2.154 1.062zm-2.727-2.727v.009h5.457v-.692H4.708zm0-2.338h5.457v-.672H4.708zM1.659 7.2a5.773 5.773 0 0 0 1.374 3.977 7.089 7.089 0 0 1 1.629 3.777h5.55a7.021 7.021 0 0 1 1.623-3.77 5.777 5.777 0 0 0-4.343-9.528.318.318 0 0 0-.054 0A5.825 5.825 0 0 0 1.659 7.2zM6.477 12a.958.958 0 1 1 .958.958.957.957 0 0 1-.958-.958zm.13-2.791V5.393a.828.828 0 0 1 1.656 0v3.814a.828.828 0 1 1-1.656 0z" transform="translate(590.564 1525.125)" style="fill:#fff"/>
    </g>
</svg>
