<svg xmlns="http://www.w3.org/2000/svg" width="21.889" height="21.889" viewBox="0 0 21.889 21.889">
    <path data-name="합치기 90" d="M14.212 16.333a9.008 9.008 0 1 1 2.121-2.121l5.556 5.556-2.121 2.121zM2 9a7 7 0 1 0 7-7 7.008 7.008 0 0 0-7 7z" style="fill:#272733"/>
</svg>
