<svg id="mileage_normal" xmlns="http://www.w3.org/2000/svg" width="26" height="26" viewBox="0 0 26 26">
  <path id="합치기_430" data-name="합치기 430" d="M1.807,20.192a13,13,0,0,1,0-18.385,13,13,0,0,1,18.385,0,13,13,0,0,1,0,18.385,13,13,0,0,1-18.385,0ZM0,11A11,11,0,1,0,11,0,11.013,11.013,0,0,0,0,11Zm13.124,3.5V11.007l-1.178,2.041a.994.994,0,0,1-.436.515.981.981,0,0,1-.5.137H11a1,1,0,0,1-.935-.634L8.877,11.012V14.5a1,1,0,0,1-2,0v-7a1,1,0,0,1,1-1l.081,0a.994.994,0,0,1,.913.5L11,10.685,13.127,7a1,1,0,0,1,.867-.5h.044c.029,0,.057,0,.086,0a1,1,0,0,1,1,1v7a1,1,0,0,1-2,0Z" transform="translate(2 2)" fill="#272733" opacity="0.7"/>
  <rect id="사각형_6885" data-name="사각형 6885" width="26" height="26" fill="none"/>
</svg>
