<svg xmlns="http://www.w3.org/2000/svg" width="24" height="24" viewBox="0 0 24 24">
    <g data-name="그룹 15600">
        <g data-name="사각형 6274" style="stroke:#c35ece;stroke-width:3px;fill:none">
            <rect width="24" height="24" rx="12" style="stroke:none"/>
            <rect x="1.5" y="1.5" width="21" height="21" rx="10.5" style="fill:none"/>
        </g>
        <path data-name="합치기 407" d="M0 8.32 4 7.1a8.933 8.933 0 0 0 .326-2.422 10.133 10.133 0 0 0-.35-2.613L0 .922.555-1 5.167.322A19.706 19.706 0 0 1 10.148-.8a19.666 19.666 0 0 1 5 1.128L19.791-1l.552 1.923-4.03 1.154a10.131 10.131 0 0 0-.346 2.6 8.941 8.941 0 0 0 .321 2.4l4.057 1.24-.585 1.913-5.319-1.63a20.605 20.605 0 0 1-4.292.584 20.523 20.523 0 0 1-4.26-.577l-5.3 1.621z" transform="translate(1.827 8.768)" style="fill:#c35ece"/>
    </g>
</svg>
