<svg xmlns="http://www.w3.org/2000/svg" width="54.79" height="31.273" viewBox="0 0 54.79 31.273">
    <path data-name="합치기 104" d="M38.1 28.266H16.687a4.612 4.612 0 0 1-8.647 0H0V0h42.8a10.621 10.621 0 0 1 10.318 8.04l1.672 6.649v13.577h-8.041a4.612 4.612 0 0 1-8.647 0zm2.922-1.605a1.4 1.4 0 1 0 1.4-1.4 1.4 1.4 0 0 0-1.398 1.4zm-30.062 0a1.4 1.4 0 1 0 1.4-1.4 1.4 1.4 0 0 0-1.397 1.4zm35.786-1.605h4.83v-2.677h-2.1v-3.21h2.1v-2.676h-4.804l-4.644-2.738H3.211v5.414h2.1v3.211h-2.1v2.676h4.83a4.612 4.612 0 0 1 8.647 0H38.1a4.612 4.612 0 0 1 8.647 0zm-2.575-13.823 3.477 2.05h3.478L50 8.823a7.413 7.413 0 0 0-5.833-5.485zm-10.24-.688h7.029V3.211h-7.029zm-10.24 0h7.03V3.211h-7.03zm-10.24 0h7.029V3.211h-7.029zm-10.24 0h7.029V3.211H3.211zm17.013 10.443v-3.211h14.342v3.211z" style="fill:#65a8ff;opacity:.8"/>
</svg>
