<svg xmlns="http://www.w3.org/2000/svg" width="235.052" height="178.266" viewBox="0 0 235.052 178.266">
    <g data-name="그룹 12560">
        <path data-name="패스 26245" d="M532.578 85.6a91.008 91.008 0 0 0-23.714-2.415c-19.5.576-33.846 7.094-49.48 18.379-9.275 6.695-22.3 4.486-32.84 8.939-12.458 5.267-19.355 19.164-20.753 32.617-.6 5.808-.342 11.882 2.137 17.169 3.248 6.928 9.843 11.65 14.177 17.955a31.943 31.943 0 0 1 5.577 18.3c-.066 6.237-1.967 12.366-1.824 18.6.261 11.359 7.43 21.707 16.629 28.377 19.99 14.494 47.016 19.506 71.263 16.965 24.2-2.536 44.707-22.161 57.957-41.248 11.125-16.025 19.466-34.383 21.4-53.8 4.067-40.77-24.322-71.238-60.529-79.838z" transform="translate(-385.419 -83.148)" style="opacity:.1;fill:#3c66db"/>
        <g data-name="그룹 12479">
            <path data-name="패스 26162" d="M30.2 46.448a13.87 13.87 0 1 1 26.27 2.728h30.661a1.967 1.967 0 0 0 .015-.207L87.123 38.8a3.2 3.2 0 0 0-2.464-2.367l-9.273-1.467a32.633 32.633 0 0 0-2.806-7l5.765-8.766a2.5 2.5 0 0 0-.368-2.871l-7.456-6.922a3.2 3.2 0 0 0-3.412.188l-7.091 5.544a32.8 32.8 0 0 0-7.33-3.079l-1.7-10.189A2.5 2.5 0 0 0 48.774.013L38.6 0a3.193 3.193 0 0 0-2.375 2.455l-1.566 9.67a32.644 32.644 0 0 0-6.988 2.92l-8.366-6a2.5 2.5 0 0 0-2.884.251l-7.213 7.169a3.2 3.2 0 0 0 .051 3.417l5.758 8.018a32.755 32.755 0 0 0-2.717 6.577L1.89 36.193a2.5 2.5 0 0 0-1.861 2.218L0 48.582a2.51 2.51 0 0 0 .2.594h30.876a13.853 13.853 0 0 1-.876-2.728z" transform="rotate(-90 86.907 86.62)" style="opacity:.25;fill:#3c66db"/>
            <path data-name="패스 26163" d="M87.419 49.756H56.31l.18-.409a13.483 13.483 0 0 0 .86-8.258A13.561 13.561 0 0 0 41.27 30.6a13.578 13.578 0 0 0-10.494 16.077 13.672 13.672 0 0 0 .855 2.67l.179.409H.3l-.079-.168A2.8 2.8 0 0 1 0 48.917L.025 38.7A2.74 2.74 0 0 1 2.1 36.2l10.253-1.692a33.206 33.206 0 0 1 2.606-6.3l-5.65-7.867a3.484 3.484 0 0 1-.05-3.759l7.246-7.2a2.353 2.353 0 0 1 1.7-.7 3.366 3.366 0 0 1 1.533.4l8.238 5.907a33 33 0 0 1 6.71-2.8l1.54-9.489A3.477 3.477 0 0 1 38.843 0l10.219.009a2.739 2.739 0 0 1 2.5 2.075l1.671 10.034a33.12 33.12 0 0 1 7.046 2.959l6.937-5.424a3.847 3.847 0 0 1 2.084-.648 3.214 3.214 0 0 1 1.672.447l7.491 6.948a2.739 2.739 0 0 1 .429 3.221l-5.685 8.648a33.046 33.046 0 0 1 2.7 6.725l9.087 1.438a3.482 3.482 0 0 1 2.706 2.607l.027 10.218a1.985 1.985 0 0 1-.013.208l-.027.262zM57.2 49.172h29.943l-.024-10.085A2.917 2.917 0 0 0 84.872 37l-9.431-1.49-.05-.183a32.423 32.423 0 0 0-2.781-6.936l-.084-.153 5.862-8.916a2.184 2.184 0 0 0-.324-2.5L70.612 9.91a2.809 2.809 0 0 0-1.312-.321 3.248 3.248 0 0 0-1.746.541l-7.221 5.648-.171-.1a32.536 32.536 0 0 0-7.262-3.049l-.178-.051-1.729-10.37A2.188 2.188 0 0 0 49.059.593L38.889.58A2.915 2.915 0 0 0 36.8 2.819l-1.589 9.825-.178.051a32.374 32.374 0 0 0-6.933 2.894l-.162.091-8.513-6.107a2.848 2.848 0 0 0-1.217-.306 1.782 1.782 0 0 0-1.292.527L9.7 16.961a2.921 2.921 0 0 0 .1 3.065l5.849 8.14-.088.161a32.593 32.593 0 0 0-2.7 6.52l-.051.177-10.585 1.745A2.188 2.188 0 0 0 .608 38.7L.58 48.864s.03.125.1.308h30.244a14.163 14.163 0 1 1 26.273 0z" transform="rotate(-90 86.907 86.907)" style="fill:#fff"/>
        </g>
        <g data-name="그룹 12489" style="opacity:.15;isolation:isolate">
            <path data-name="사각형 5619" transform="translate(44.734 20.089)" style="fill:#30395a" d="M0 0h121.474v157.886H0z"/>
        </g>
        <g data-name="그룹 12490">
            <path data-name="사각형 5620" transform="translate(49.406 20.088)" style="fill:#fff" d="M0 0h121.474v157.886H0z"/>
            <path data-name="패스 26169" d="M675.413 457.561H553.939a.292.292 0 0 1-.292-.292V299.383a.292.292 0 0 1 .292-.292h121.474a.293.293 0 0 1 .292.292v157.886a.293.293 0 0 1-.292.292zm-121.182-.584h120.89v-157.3h-120.89z" transform="translate(-504.533 -279.295)" style="fill:#30395a"/>
        </g>
        <g data-name="그룹 12498">
            <path data-name="사각형 5621" transform="translate(112.281 29.311)" style="fill:#cad7f9" d="M0 0h50.842v10.901H0z"/>
        </g>
        <g data-name="그룹 12499">
            <path data-name="사각형 5622" transform="translate(57.302 45.696)" style="fill:#cad7f9" d="M0 0h20.838v5.727H0z"/>
        </g>
        <g data-name="그룹 12500">
            <path data-name="사각형 5623" transform="translate(117.159 45.696)" style="fill:#cad7f9" d="M0 0h20.838v5.727H0z"/>
        </g>
        <g data-name="그룹 12501">
            <path data-name="사각형 5624" transform="translate(57.302 51.423)" style="fill:#cad7f9" d="M0 0h105.822v5.726H0z"/>
        </g>
        <g data-name="그룹 12502">
            <path data-name="사각형 5625" transform="translate(57.302 69.923)" style="fill:#cad7f9" d="M0 0h105.822v5.726H0z"/>
        </g>
        <g data-name="그룹 12503">
            <path data-name="사각형 5626" transform="translate(57.302 54.286)" style="fill:#cad7f9" d="M0 0h6.743v115.158H0z"/>
        </g>
        <g data-name="그룹 12504">
            <path data-name="패스 26176" d="M725.786 532.772h-17.254v-15.031h17.254zm-16.67-.584H725.2v-13.863h-16.084z" transform="translate(-568.974 -370.266)" style="fill:#ff5d5d"/>
        </g>
        <g data-name="그룹 12505">
            <path data-name="사각형 5627" transform="translate(143.23 152.536)" style="fill:#ff5d5d" d="M0 0h10.141v.584H0z"/>
        </g>
        <g data-name="그룹 12506">
            <path data-name="사각형 5628" transform="translate(143.23 157.11)" style="fill:#ff5d5d" d="M0 0h5.362v.584H0z"/>
        </g>
        <g data-name="그룹 12507">
            <path data-name="사각형 5629" transform="translate(150.247 157.11)" style="fill:#ff5d5d" d="M0 0h3.125v.584H0z"/>
        </g>
        <g data-name="그룹 12508">
            <path data-name="사각형 5630" transform="translate(71.371 63.36)" style="fill:#53595b" d="M0 0h83.981v.292H0z"/>
        </g>
        <g data-name="그룹 12509">
            <path data-name="사각형 5631" transform="translate(71.371 83.8)" style="fill:#53595b" d="M0 0h83.981v.292H0z"/>
        </g>
        <g data-name="그룹 12510">
            <path data-name="사각형 5632" transform="translate(71.371 90.807)" style="fill:#53595b" d="M0 0h83.981v.292H0z"/>
        </g>
        <g data-name="그룹 12511">
            <path data-name="사각형 5633" transform="translate(71.371 96.936)" style="fill:#53595b" d="M0 0h83.981v.292H0z"/>
        </g>
        <g data-name="그룹 12512">
            <path data-name="사각형 5634" transform="translate(71.371 103.362)" style="fill:#53595b" d="M0 0h83.981v.292H0z"/>
        </g>
        <g data-name="그룹 12513">
            <path data-name="사각형 5635" transform="translate(71.371 109.786)" style="fill:#53595b" d="M0 0h83.981v.292H0z"/>
        </g>
        <g data-name="그룹 12514">
            <path data-name="사각형 5636" transform="translate(71.371 159.864)" style="fill:#53595b" d="M0 0h58.259v.292H0z"/>
        </g>
        <g data-name="그룹 12539" style="opacity:.1">
            <path data-name="패스 26192" d="M600.461 244.855h-.584V243.1h.584zm0-3.5h-.584V239.6h.584zm0-3.5h-.584V236.1h.584zm0-3.5h-.584v-1.752h.584zm0-3.5h-.584v-1.752h.584zm0-3.5h-.584v-1.752h.584zm0-3.5h-.584v-1.752h.584zm0-3.5h-.584v-1.752h.584zm0-3.5h-.584v-1.752h.584zm0-3.5h-.584v-1.785h.584zm0-3.5h-.584v-1.752h.584zm0-3.5h-.584v-1.752h.584zm0-3.5h-.584v-1.752h.584zM502.5 200.92h-.584v-1.752h.584zm97.964-1.612h-.584v-1.752h.584zm-97.964-1.892h-.584v-1.752h.584zm97.964-1.612h-.584v-1.752h.584zm-97.964-1.892h-.584v-1.752h.584zm97.964-1.612h-.584v-1.752h.584zm-97.964-1.891h-.584v-1.752h.584zm97.964-1.612h-.584v-1.752h.584zm-1.9-1.6H596.8v-.584h1.752zm-3.5 0H593.3v-.584h1.752zm-3.5 0H589.8v-.584h1.752zm-3.5 0h-1.752v-.584h1.752zm-3.5 0h-1.752v-.584h1.752zm-3.5 0h-1.752v-.584h1.752zm-3.5 0h-1.752v-.584h1.752zm-3.5 0h-1.752v-.584h1.752zm-3.5 0h-1.752v-.584h1.752zm-3.5 0h-1.752v-.584h1.752zm-3.5 0h-1.752v-.584h1.752zm-3.5 0h-1.752v-.584h1.752zm-3.5 0h-1.804v-.584h1.752zm-3.5 0h-1.752v-.584h1.752zm-3.5 0h-1.752v-.584h1.688zm-3.5 0h-1.752v-.584H546zm-3.5 0h-1.752v-.584h1.688zm-3.5 0h-1.752v-.584h1.752zm-3.5 0h-1.752v-.584h1.752zm-3.5 0h-1.752v-.584h1.752zm-3.5 0h-1.752v-.584h1.752zm-3.5 0h-1.752v-.584h1.752zm-3.5 0h-1.752v-.584h1.752zm-3.5 0h-1.844v-.584h1.752zm-3.5 0h-1.752v-.584h1.752zm-3.5 0h-1.752v-.584h1.752zm-3.5 0h-1.752v-.584h1.752zm-3.5 0H502.2v-.584h1.752z" transform="translate(-379.134 -181.11)" style="fill:#30395a"/>
            <g data-name="그룹 12559">
                <path data-name="패스 26192" d="M670.259 246.921h-.584l.584-.006zm0-1.758h-.584v-1.752h.584zm0-3.5h-.584v-1.752h.584zm0-3.5h-.584V236.4h.584zm0-3.5h-.584V232.9h.584zm0-3.5h-.584V229.4h.584zm0-3.5h-.584v-1.752h.584zm0-3.5h-.584v-1.752h.584zm0-3.5h-.584v-1.752h.584zm0-3.5h-.584v-1.752h.584zm0-3.5h-.584v-1.752h.584zm0-3.5h-.584v-1.752h.584zm0-3.5h-.584v-1.793h.584zm0-3.5h-.584v-1.752h.584zm0-3.5h-.584v-1.752h.584zm0-3.5h-.584v-1.752h.584zm0-3.5h-.584v-1.752h.584zm0-3.5h-.584v-1.752h.584z" transform="translate(-448.932 -121.855)" style="fill:#30395a"/>
            </g>
        </g>
        <g data-name="그룹 12541" style="opacity:.1">
            <path data-name="패스 26194" d="M354.91 214.931a2.765 2.765 0 1 1 2.767-2.766 2.769 2.769 0 0 1-2.767 2.766zm0-4.947a2.181 2.181 0 1 0 2.183 2.181 2.184 2.184 0 0 0-2.183-2.181z" transform="translate(-133.584 -84.979)" style="fill:#30395a"/>
        </g>
        <g data-name="그룹 12544">
            <g data-name="그룹 12542">
                <path data-name="사각형 5644" style="fill:#fff" d="M0 0h7.46v.584H0z" transform="translate(49.842 8.943)"/>
            </g>
            <g data-name="그룹 12543">
                <path data-name="사각형 5645" style="fill:#fff" d="M0 0h.584v7.46H0z" transform="translate(53.28 5.503)"/>
            </g>
        </g>
        <g data-name="그룹 12547" style="opacity:.1">
            <g data-name="그룹 12545">
                <path data-name="사각형 5646" style="fill:#30395a" d="M0 0h7.46v.584H0z" transform="translate(184.94 78.406)"/>
            </g>
            <g data-name="그룹 12546">
                <path data-name="사각형 5647" style="fill:#30395a" d="M0 0h.584v7.46H0z" transform="translate(188.378 74.966)"/>
            </g>
        </g>
        <g data-name="그룹 12548">
            <path data-name="패스 26195" d="m694.309 168.451-4.976-2.375a19.288 19.288 0 0 0-.412-4.409l4.71-3.977a1.468 1.468 0 0 0 .274-1.678l-3.045-5.143a1.879 1.879 0 0 0-1.953-.462l-4.92 1.939a19.33 19.33 0 0 0-3.614-2.959l.746-6.021a1.467 1.467 0 0 0-.94-1.418l-5.727-1.706a1.879 1.879 0 0 0-1.748.987l-2.5 5.185a19.194 19.194 0 0 0-4.423.478l-3.709-4.776a1.471 1.471 0 0 0-1.666-.342l-5.263 2.833a1.879 1.879 0 0 0-.542 1.932l1.9 5.476a19.339 19.339 0 0 0-2.631 3.252l-6.147-.773a1.471 1.471 0 0 0-1.419.939l-1.714 5.723a1.877 1.877 0 0 0 .984 1.75l5.258 2.542a19.42 19.42 0 0 0 .341 3.853l-5.122 4.185a1.47 1.47 0 0 0-.3 1.674l2.962 5.191a1.877 1.877 0 0 0 1.945.493l5.374-2.018a19.3 19.3 0 0 0 3.539 2.968l-.631 6.314a1.471 1.471 0 0 0 .973 1.394l5.765 1.57a1.873 1.873 0 0 0 1.723-1.027l2.33-5.143a19.041 19.041 0 0 0 4.229-.39l4.055 5.013a1.47 1.47 0 0 0 1.672.308l5.2-2.938a1.873 1.873 0 0 0 .5-1.942l-2-5.4a19.231 19.231 0 0 0 2.823-3.4l5.975.719a1.471 1.471 0 0 0 1.413-.945l1.702-5.727a1.878 1.878 0 0 0-.991-1.749zM661.967 165a8.148 8.148 0 1 1 7.461 8.78 8.147 8.147 0 0 1-7.461-8.78z" transform="translate(-470.521 -126.979)" style="opacity:.25;fill:#3c66db"/>
            <path data-name="패스 26196" d="M665.562 191.159a.979.979 0 0 1-.113-.005l-5.81-1.578a1.73 1.73 0 0 1-1.188-1.677l.614-6.167a19.649 19.649 0 0 1-3.31-2.774l-5.192 1.949a2.2 2.2 0 0 1-2.274-.583L645.3 175.1a1.731 1.731 0 0 1 .347-2.026l5.009-4.095a19.824 19.824 0 0 1-.315-3.554l-5.093-2.462a2.176 2.176 0 0 1-1.146-2.051l1.724-5.769a1.749 1.749 0 0 1 1.687-1.147l6.013.752a19.638 19.638 0 0 1 2.441-3.016l-1.844-5.3a2.176 2.176 0 0 1 .639-2.26l5.3-2.858a1.518 1.518 0 0 1 .716-.183 1.976 1.976 0 0 1 1.3.581l3.613 4.652a19.5 19.5 0 0 1 4.123-.444l2.417-5.02a2.172 2.172 0 0 1 2.05-1.15l5.772 1.717a1.728 1.728 0 0 1 1.148 1.7l-.725 5.867a19.68 19.68 0 0 1 3.375 2.763l4.739-1.867a2.237 2.237 0 0 1 2.283.546l3.073 5.181a1.729 1.729 0 0 1-.316 2.031l-4.6 3.884a19.718 19.718 0 0 1 .387 4.116l4.806 2.294a2.178 2.178 0 0 1 1.157 2.046l-1.7 5.778a1.744 1.744 0 0 1-1.68 1.151l-5.837-.7a19.557 19.557 0 0 1-2.628 3.165l1.933 5.223a2.168 2.168 0 0 1-.6 2.27l-5.241 2.964a1.511 1.511 0 0 1-.742.2 1.986 1.986 0 0 1-1.282-.555l-3.962-4.9a18.987 18.987 0 0 1-3.926.363l-2.251 4.969a2.216 2.216 0 0 1-1.902 1.203zm-9.647-12.884.133.142a18.985 18.985 0 0 0 3.486 2.923l.148.1-.649 6.491a1.171 1.171 0 0 0 .761 1.084l5.764 1.568v-.006a1.618 1.618 0 0 0 1.389-.885l2.4-5.292h.193a18.539 18.539 0 0 0 4.164-.385l.175-.035 4.165 5.15a1.417 1.417 0 0 0 .848.36.915.915 0 0 0 .456-.123l5.2-2.937a1.613 1.613 0 0 0 .365-1.613l-2.057-5.553.139-.133a18.96 18.96 0 0 0 2.78-3.347l.1-.152 6.155.74a1.161 1.161 0 0 0 1.1-.74l1.683-5.729a1.62 1.62 0 0 0-.863-1.414l-5.121-2.441v-.189a19.075 19.075 0 0 0-.406-4.344l-.036-.171 4.844-4.089a1.167 1.167 0 0 0 .21-1.308l-3.045-5.141a1.563 1.563 0 0 0-1.077-.409 2 2 0 0 0-.545.079l-5.074 2-.136-.141a19.049 19.049 0 0 0-3.558-2.914l-.156-.1.768-6.2a1.168 1.168 0 0 0-.735-1.1l-5.705-1.7h-.049a1.622 1.622 0 0 0-1.387.853l-2.563 5.326h-.318a18.954 18.954 0 0 0-4.222.471l-.182.042-3.822-4.923a1.4 1.4 0 0 0-.859-.378.937.937 0 0 0-.44.114l-5.261 2.832a1.623 1.623 0 0 0-.4 1.608l1.956 5.622-.13.13a19.118 19.118 0 0 0-2.591 3.2l-.1.155-6.33-.8a1.167 1.167 0 0 0-1.1.735l-1.714 5.721a1.619 1.619 0 0 0 .858 1.418l5.4 2.61v.185a19.153 19.153 0 0 0 .335 3.8l.033.171-5.257 4.3a1.168 1.168 0 0 0-.229 1.3L648.77 180a1.558 1.558 0 0 0 1.1.427 2.034 2.034 0 0 0 .518-.071zm13.975-4.386a8.12 8.12 0 0 1-.694-.029 8.43 8.43 0 1 1 .694.029zm-.021-16.3a7.865 7.865 0 1 0 .645.026 9.265 9.265 0 0 0-.645-.023z" transform="translate(-470.313 -126.771)" style="fill:#fff"/>
        </g>
        <g data-name="그룹 12558">
            <g data-name="그룹 12557">
                <g data-name="그룹 12555">
                    <path data-name="합치기 274" d="M-2547.2 18839.633a2.989 2.989 0 0 1-2.326-3.535l6.585-31.648a20.031 20.031 0 0 1-12.694-22.869 20.086 20.086 0 0 1 23.75-15.551 20.045 20.045 0 0 1 15.584 23.7 20.08 20.08 0 0 1-20.772 15.938l-6.585 31.648a3 3 0 0 1-2.929 2.385 2.985 2.985 0 0 1-.613-.068zm-4.014-57.135a15.534 15.534 0 0 0 12.081 18.365 15.57 15.57 0 0 0 18.412-12.053 15.534 15.534 0 0 0-12.081-18.369 15.651 15.651 0 0 0-3.176-.326 15.574 15.574 0 0 0-15.237 12.385z" transform="rotate(-42 -25495.248 5908.635)" style="stroke:transparent;stroke-miterlimit:10;fill:#30395a"/>
                </g>
                <path data-name="선 748" transform="translate(176.393 88.401)" style="fill:none;stroke:#2a2628;stroke-linecap:round;stroke-linejoin:round" d="m0 0 .68 4.518"/>
                <path data-name="선 749" transform="translate(169.319 90.171)" style="fill:none;stroke:#2a2628;stroke-linecap:round;stroke-linejoin:round" d="m0 0 1.934 4.14"/>
                <path data-name="선 750" transform="translate(163.794 94.551)" style="fill:none;stroke:#2a2628;stroke-linecap:round;stroke-linejoin:round" d="m0 0 3.628 2.778"/>
            </g>
        </g>
        <g data-name="그룹 12497">
            <path data-name="패스 26175" d="M673.554 467.254h-106.26V343.069h106.26zm-105.822-.438h105.384V343.507H567.732z" transform="translate(-510.211 -297.592)" style="fill:#3c66db"/>
        </g>
    </g>
</svg>
