<svg xmlns="http://www.w3.org/2000/svg" width="79.713" height="71.504" viewBox="0 0 79.713 71.504">
    <g data-name="그룹 12446" transform="translate(249.93 -366.044)">
        <path data-name="패스 26135" d="M-174.808 389.2v-10.158h-13.7" style="fill:none;stroke:#3c66db;stroke-linecap:round;stroke-linejoin:round;stroke-width:1.5px"/>
        <path data-name="패스 26136" d="M-175.553 395.186h1.491a3.1 3.1 0 0 0 3.1-3.1V386.3a3.1 3.1 0 0 0-3.1-3.1h-1.491a3.1 3.1 0 0 0-3.1 3.1v5.788a3.1 3.1 0 0 0 3.1 3.1" style="fill:#fff"/>
        <rect data-name="사각형 5539" width="7.681" height="11.978" rx="3.095" transform="translate(-178.648 383.208)" style="fill:none;stroke:#3c66db;stroke-linecap:round;stroke-linejoin:round;stroke-width:1.5px"/>
        <path data-name="패스 26137" d="M-245.339 389.2v-10.158h13.7" style="fill:none;stroke:#3c66db;stroke-linecap:round;stroke-linejoin:round;stroke-width:1.5px"/>
        <path data-name="패스 26138" d="M-231.786 436.8h-3.8a3.7 3.7 0 0 1-3.7-3.7v-13.048h11.2V433.1a3.7 3.7 0 0 1-3.7 3.7" style="fill:#fff"/>
        <path data-name="패스 26139" d="M-231.786 436.8h-3.8a3.7 3.7 0 0 1-3.7-3.7v-13.048h11.2V433.1a3.7 3.7 0 0 1-3.7 3.7z" style="fill:none;stroke:#3c66db;stroke-linecap:round;stroke-linejoin:round;stroke-width:1.5px"/>
        <path data-name="패스 26140" d="M-184.149 436.8h-3.8a3.7 3.7 0 0 1-3.7-3.7v-13.048h11.2V433.1a3.7 3.7 0 0 1-3.7 3.7" style="fill:#fff"/>
        <path data-name="패스 26141" d="M-184.149 436.8h-3.8a3.7 3.7 0 0 1-3.7-3.7v-13.048h11.2V433.1a3.7 3.7 0 0 1-3.7 3.7z" style="fill:none;stroke:#3c66db;stroke-linecap:round;stroke-linejoin:round;stroke-width:1.5px"/>
        <path data-name="사각형 5540" transform="translate(-236.764 372.947)" style="fill:#fff" d="M0 0h53.38v36.854H0z"/>
        <path data-name="사각형 5541" transform="translate(-236.764 372.947)" style="fill:none;stroke:#3c66db;stroke-linecap:round;stroke-linejoin:round;stroke-width:1.5px" d="M0 0h53.38v36.854H0z"/>
        <path data-name="패스 26142" d="M-176.7 421.279h-66.756v-14.764a8.019 8.019 0 0 1 8.019-8.019h50.718a8.019 8.019 0 0 1 8.019 8.019z" style="fill:#b1d3ff"/>
        <path data-name="패스 26143" d="M-177.514 425.247h-65.12a1.683 1.683 0 0 1-1.684-1.684v-4.569a1.684 1.684 0 0 1 1.684-1.684h65.12a1.684 1.684 0 0 1 1.684 1.684v4.569a1.683 1.683 0 0 1-1.684 1.684" style="fill:#fff"/>
        <rect data-name="사각형 5542" width="68.488" height="7.937" rx="1.684" transform="translate(-244.318 417.31)" style="fill:none;stroke:#3c66db;stroke-linecap:round;stroke-linejoin:round;stroke-width:1.5px"/>
        <path data-name="패스 26144" d="M-228.9 408.26a4.782 4.782 0 0 1-4.783 4.783 4.782 4.782 0 0 1-4.782-4.783 4.783 4.783 0 0 1 4.782-4.783 4.783 4.783 0 0 1 4.783 4.783" style="fill:#fff"/>
        <path data-name="패스 26145" d="M-228.9 408.26a4.782 4.782 0 0 1-4.783 4.783 4.782 4.782 0 0 1-4.782-4.783 4.783 4.783 0 0 1 4.782-4.783 4.783 4.783 0 0 1 4.783 4.783z" style="fill:none;stroke:#3c66db;stroke-linecap:round;stroke-linejoin:round;stroke-width:1.5px"/>
        <path data-name="패스 26146" d="M-190.832 408.26a4.782 4.782 0 0 0 4.783 4.783 4.782 4.782 0 0 0 4.782-4.783 4.783 4.783 0 0 0-4.782-4.783 4.783 4.783 0 0 0-4.783 4.783" style="fill:#fff"/>
        <path data-name="패스 26147" d="M-190.832 408.26a4.782 4.782 0 0 0 4.783 4.783 4.782 4.782 0 0 0 4.782-4.783 4.783 4.783 0 0 0-4.782-4.783 4.783 4.783 0 0 0-4.783 4.783z" style="fill:none;stroke:#3c66db;stroke-linecap:round;stroke-linejoin:round;stroke-width:1.5px"/>
        <path data-name="패스 26148" d="M-185.571 366.044h-49a5.122 5.122 0 0 0-5.122 5.122v4.2h59.248v-4.2a5.122 5.122 0 0 0-5.122-5.122" style="fill:#b1d3ff"/>
        <path data-name="패스 26149" d="M-244.594 395.186h-1.491a3.1 3.1 0 0 1-3.095-3.1V386.3a3.1 3.1 0 0 1 3.095-3.1h1.491a3.1 3.1 0 0 1 3.1 3.1v5.788a3.1 3.1 0 0 1-3.1 3.1" style="fill:#fff"/>
        <rect data-name="사각형 5543" width="7.681" height="11.978" rx="3.095" transform="translate(-249.18 383.208)" style="fill:none;stroke:#3c66db;stroke-linecap:round;stroke-linejoin:round;stroke-width:1.5px"/>
    </g>
</svg>
