<svg xmlns="http://www.w3.org/2000/svg" width="134" height="120" viewBox="0 0 134 120">
    <g data-name="그룹 19313" transform="translate(.001)">
        <path data-name="합치기 466" d="M0 60a59.808 59.808 0 0 1 116.792-18.352 57.867 57.867 0 0 1 1.541 5.781L134 60l-15.678 12.579q-.3 1.42-.67 2.832A59.811 59.811 0 0 1 0 60z" transform="translate(-.001)" style="fill:#30395a"/>
        <circle data-name="타원 11557" cx="56" cy="56" r="56" transform="translate(3.999 4)" style="fill:#fff"/>
        <g data-name="그룹 11838">
            <g data-name="그룹 5888">
                <path data-name="빼기 2" d="M47.41 31.407h-33.7a8.887 8.887 0 0 0 .19-1.807v-.187h32.51V2H2v19.293a8.823 8.823 0 0 0-2 1.047V1a1 1 0 0 1 1-1h46.41a1 1 0 0 1 1 1v29.408a1 1 0 0 1-1 .999z" transform="translate(38.533 39.946)" style="fill:#30395a"/>
                <path data-name="패스 14780" d="M398.245 77.394a1 1 0 1 1 0 2h-5.277a1 1 0 1 1 0-2z" transform="translate(-318.878 -26.948)" style="fill:#30395a"/>
                <path data-name="패스 14781" d="M398.245 77.394a1 1 0 1 1 0 2h-5.277a1 1 0 1 1 0-2z" transform="translate(-328.206 -26.948)" style="fill:#30395a"/>
                <path data-name="패스 14782" d="M398.245 77.394a1 1 0 1 1 0 2h-5.277a1 1 0 1 1 0-2z" transform="translate(-337.533 -26.948)" style="fill:#30395a"/>
                <path data-name="패스 14783" d="M398.245 77.394a1 1 0 1 1 0 2h-5.277a1 1 0 1 1 0-2z" transform="translate(-346.861 -26.948)" style="fill:#30395a"/>
                <path data-name="패스 14784" d="M391.328 105.964h8.341a1 1 0 0 1 1 1v5.676a.99.99 0 0 1-1 1h-8.341a1 1 0 0 1-1-1v-5.676a1.007 1.007 0 0 1 1-1zm1 5.676h6.343v-3.678h-6.343z" transform="translate(-320.303 -46.763)" style="fill:#30395a"/>
                <path data-name="합치기 24" d="M0 10.846a10.84 10.84 0 1 1 10.846 10.847A10.856 10.856 0 0 1 0 10.846zm2 0A8.841 8.841 0 1 0 10.846 2 8.851 8.851 0 0 0 2 10.846zm7.881 4.637v-3.638H6.242a1 1 0 1 1 0-2h3.639V6.208a1 1 0 0 1 2 0v3.639h3.638a1 1 0 0 1 0 2h-3.641v3.638a1 1 0 0 1-2 0z" transform="translate(32.756 58.694)" style="fill:#30395a"/>
            </g>
        </g>
    </g>
</svg>
