<svg xmlns="http://www.w3.org/2000/svg" width="197" height="27.566" viewBox="0 0 197 27.566">
    <g data-name="그룹 12384">
        <g data-name="그룹 3984">
            <path data-name="패스 3474" d="M283.565 284.769a5.774 5.774 0 0 1 3.826 1.418 5.061 5.061 0 0 1 1.152 1.52 4.149 4.149 0 0 1 .428 1.857 4.214 4.214 0 0 1-.428 1.868 5 5 0 0 1-1.148 1.53 5.927 5.927 0 0 1-5.941 1.038 5.407 5.407 0 0 1-1.71-1.036 4.836 4.836 0 0 1-1.171-1.53 4.2 4.2 0 0 1-.428-1.868 4.14 4.14 0 0 1 .428-1.857 4.9 4.9 0 0 1 1.171-1.519 5.441 5.441 0 0 1 1.71-1.035 5.827 5.827 0 0 1 2.111-.386zm-.022 7.5a2.218 2.218 0 0 0 .968-.214 2.583 2.583 0 0 0 .786-.574 2.8 2.8 0 0 0 .54-.844 2.686 2.686 0 0 0 .2-1.048 2.809 2.809 0 0 0-.743-1.914 2.62 2.62 0 0 0-.786-.573 2.294 2.294 0 0 0-1.936 0 2.571 2.571 0 0 0-1.317 1.429 2.907 2.907 0 0 0-.191 1.058 2.81 2.81 0 0 0 .191 1.048 2.613 2.613 0 0 0 .529.844 2.575 2.575 0 0 0 .786.574 2.22 2.22 0 0 0 .973.212zm-2.318 9.881v-2.882h9.433v-1.376h-9.433V295.8h12.4v5.514h-9.433v.81a.784.784 0 0 0 .248.6.815.815 0 0 0 .585.236h8.844V305h-9.784a2.859 2.859 0 0 1-2.859-2.856zm9.433-7.271v-10.312h2.142a.823.823 0 0 1 .585.236.79.79 0 0 1 .248.6v2.814h2.948v2.138h-2.948v4.524z" transform="translate(-194.324 -281.255)" style="fill:#474747"/>
            <path data-name="패스 3475" d="M338.107 300.922h2.793v-7.765h2.994v7.765h1.665v-7.765h2.971v7.765h5.919v2.184h-16.342zm14.99-14.81v8.148a16.6 16.6 0 0 1-.113 2.127 11.823 11.823 0 0 1-.248 1.362 4.494 4.494 0 0 1-.338.923h-2.9a4.835 4.835 0 0 0 .293-.923q.113-.517.214-1.362a18.461 18.461 0 0 0 .1-2.127v-5.965h-10.557v-2.183z" transform="translate(-215.006 -281.788)" style="fill:#474747"/>
            <path data-name="패스 3476" d="M380.417 286.969H369.05a4.143 4.143 0 0 0 .237.4 1.964 1.964 0 0 1 .237.63h10.624v2.071h-10.535v.2a.753.753 0 0 0 .237.552.805.805 0 0 0 .6.236h10.084v2.071h-5.294v1.441h7.653v2.071H364.5v-2.071h7.765v-1.441h-2.791a2.886 2.886 0 0 1-2.633-1.655 2.45 2.45 0 0 1-.225-1.048v-3.218a4.186 4.186 0 0 0-.1-.968 7.137 7.137 0 0 0-.214-.742 4.167 4.167 0 0 0-.293-.63h14.405zm-6.73 10.354a9.227 9.227 0 0 1 2.521.328 6.89 6.89 0 0 1 1.981.89 4.273 4.273 0 0 1 1.294 1.328 3.079 3.079 0 0 1 0 3.241 4.276 4.276 0 0 1-1.294 1.328 6.886 6.886 0 0 1-1.981.889 9.9 9.9 0 0 1-5.044 0 6.861 6.861 0 0 1-1.981-.889 4.267 4.267 0 0 1-1.294-1.328 3.073 3.073 0 0 1 0-3.241 4.258 4.258 0 0 1 1.294-1.328 6.881 6.881 0 0 1 1.981-.89 9.223 9.223 0 0 1 2.523-.328zm0 6.257a5.054 5.054 0 0 0 1.34-.169 4.238 4.238 0 0 0 1.069-.439 2.409 2.409 0 0 0 .675-.675 1.509 1.509 0 0 0 .248-.833 1.471 1.471 0 0 0-.248-.81 2.427 2.427 0 0 0-.675-.675 4.264 4.264 0 0 0-1.069-.439 5.107 5.107 0 0 0-1.34-.169 4.968 4.968 0 0 0-1.328.169 4.3 4.3 0 0 0-1.058.439 2.317 2.317 0 0 0-.7.675 1.464 1.464 0 0 0-.248.81 1.5 1.5 0 0 0 .248.833 2.3 2.3 0 0 0 .7.675 4.273 4.273 0 0 0 1.058.439 4.941 4.941 0 0 0 1.328.168z" transform="translate(-224.11 -281.361)" style="fill:#474747"/>
            <path data-name="패스 3477" d="M404.117 286.209a2.191 2.191 0 0 0-.011.383 1.952 1.952 0 0 1-.011.36 18.08 18.08 0 0 1-.956 4.861 13.872 13.872 0 0 1-2.037 3.826 12.163 12.163 0 0 1-2.983 2.78 12.363 12.363 0 0 1-3.68 1.632l-.473.09v-2.161l.158-.045a10.794 10.794 0 0 0 3.353-2.015 9.707 9.707 0 0 0 2.138-2.757h-4.862v-2.183h5.695a14 14 0 0 0 .428-2.948h-6.145v-2.183h9.386zm8.305 5v2.183h-2.948v11.005h-2.994v-19.832h2.162a.82.82 0 0 1 .585.236.792.792 0 0 1 .248.6v5.799z" transform="translate(-234.273 -281.254)" style="fill:#474747"/>
            <path data-name="패스 3478" d="M321.569 290.633a.807.807 0 0 1-.6-.237.754.754 0 0 1-.236-.552l-.09-.665a1.962 1.962 0 0 0-.236-.63 3.959 3.959 0 0 1-.236-.4h4.667v-2.1h-7.705a4.228 4.228 0 0 1 .293.63 7.173 7.173 0 0 1 .214.743 4.256 4.256 0 0 1 .1.968V290a2.521 2.521 0 0 0 .08.63h-2.417a.805.805 0 0 1-.6-.236.753.753 0 0 1-.236-.552l-.09-.665a1.962 1.962 0 0 0-.236-.63 4.158 4.158 0 0 1-.237-.4h2.524v-2.1h-5.562a4.23 4.23 0 0 1 .293.63 7.166 7.166 0 0 1 .214.743 4.256 4.256 0 0 1 .1.968V290a2.442 2.442 0 0 0 .225 1.048 2.883 2.883 0 0 0 2.633 1.655h10.515v-2.07z" transform="translate(-205.647 -281.765)" style="fill:#474747"/>
            <path data-name="사각형 73" transform="translate(103.818 11.843)" style="fill:#474747" d="M0 0h18.389v2.071H0z"/>
            <path data-name="패스 3479" d="M313.209 308v-2.882h9.433v-1.376h-9.433v-2.1h12.4v5.515h-9.433v.81a.786.786 0 0 0 .248.6.818.818 0 0 0 .585.236h8.844v2.048h-9.789a2.851 2.851 0 0 1-2.855-2.851z" transform="translate(-206.418 -287.147)" style="fill:#474747"/>
            <path data-name="패스 3480" d="M439.892 288.275h-10.628a3.087 3.087 0 0 1 .155.309 3.8 3.8 0 0 1 .176.529 8 8 0 0 1 .155.852 9.121 9.121 0 0 1 .066 1.179v3.33a.791.791 0 0 0 .768.816h9.309v2.139h-10.21a2.8 2.8 0 0 1-2.8-2.8V289a9.138 9.138 0 0 0-.088-1.389 5.835 5.835 0 0 0-.2-.882 2.068 2.068 0 0 0-.287-.6h13.583z" transform="translate(-245.429 -281.796)" style="fill:#474747"/>
            <path data-name="사각형 74" transform="translate(179.557 19.162)" style="fill:#474747" d="M0 0h17.444v2.125H0z"/>
            <path data-name="패스 3472" d="M225.165 295.375h-7.61v-2.031h18.021v2.031h-7.5v1.169a6.8 6.8 0 0 1 1.754.618 6.014 6.014 0 0 1 1.4.992 4.844 4.844 0 0 1 .9 1.3 3.5 3.5 0 0 1 .331 1.5 3.636 3.636 0 0 1-.463 1.786 4.734 4.734 0 0 1-1.257 1.456 6.631 6.631 0 0 1-1.9.983 7.443 7.443 0 0 1-4.6 0 6.309 6.309 0 0 1-1.864-.983 4.61 4.61 0 0 1-1.279-1.456 3.636 3.636 0 0 1-.463-1.786 3.537 3.537 0 0 1 .342-1.522 4.481 4.481 0 0 1 .959-1.323 5.849 5.849 0 0 1 1.423-.993 6.573 6.573 0 0 1 1.8-.6zm7.213-5.25a2.3 2.3 0 0 0 .463.055q.286.011.552.033l.618.044v2.162q-.485-.021-.882-.044a53.724 53.724 0 0 1-.684-.045 2.377 2.377 0 0 1-.485-.066q-.464-.086-1.125-.187a8.781 8.781 0 0 1-1.412-.342 7.7 7.7 0 0 1-1.489-.618 5.244 5.244 0 0 1-1.357-1.059 4.674 4.674 0 0 1-1.346 1.048 8.548 8.548 0 0 1-1.5.607 12.9 12.9 0 0 1-1.445.341l-1.179.209a2.423 2.423 0 0 1-.485.066q-.327.023-.684.045-.4.023-.882.044v-2.162l.618-.044c.175-.015.355-.026.54-.033a2.685 2.685 0 0 0 .474-.055c.147-.015.409-.044.786-.088a8.076 8.076 0 0 0 1.2-.243 4.746 4.746 0 0 0 1.245-.552 2.366 2.366 0 0 0 .917-1.037h-5.473v-2.14h5.691q-.054-.357-.143-.706a2.533 2.533 0 0 0-.166-.463 1.35 1.35 0 0 0-.176-.331h3.044a.992.992 0 0 1 .2.331 3.193 3.193 0 0 1 .176.463 5.217 5.217 0 0 1 .154.706h5.515v2.14h-5.336a2.6 2.6 0 0 0 .971 1.057 4.926 4.926 0 0 0 1.257.552 5.178 5.178 0 0 0 1.136.242q.521.048.7.069zm-5.824 13.389a3.418 3.418 0 0 0 1.169-.2 3.143 3.143 0 0 0 .971-.551 2.549 2.549 0 0 0 .65-.816 2.244 2.244 0 0 0 0-1.985 2.563 2.563 0 0 0-.65-.816 3.156 3.156 0 0 0-.971-.551 3.574 3.574 0 0 0-2.349 0 3.19 3.19 0 0 0-.96.551 2.563 2.563 0 0 0-.65.816 2.24 2.24 0 0 0 0 1.985 2.532 2.532 0 0 0 .65.816 3.165 3.165 0 0 0 .96.551 3.383 3.383 0 0 0 1.18.2z" transform="translate(-173.426 -281.254)" style="fill:#474747"/>
            <path data-name="패스 3473" d="M260.225 294.5a5.491 5.491 0 0 1-1.61.4 16.857 16.857 0 0 1-2.1.131h-5.1a2.8 2.8 0 0 1-2.8-2.8v-3.471a8.292 8.292 0 0 0-.1-1.4 6.647 6.647 0 0 0-.21-.894 2.062 2.062 0 0 0-.287-.6h2.847a2.022 2.022 0 0 1 .328.6 7.64 7.64 0 0 1 .221.894 7.492 7.492 0 0 1 .11 1.4v3.308a.771.771 0 0 0 .242.584.8.8 0 0 0 .574.232h5.228a7.9 7.9 0 0 0 1.8-.2 5.689 5.689 0 0 0 .852-.262v-7.212h2.1a.777.777 0 0 1 .584.242.831.831 0 0 1 .232.6v3.331h2.89v2.14h-2.89v4.169h-2.912zm-8.975 7.941v-5.979h11.89v8.758h-9.091a2.728 2.728 0 0 1-1.1-.221 2.789 2.789 0 0 1-1.478-1.478 2.665 2.665 0 0 1-.221-1.081zm2.912-3.838v3.661a.807.807 0 0 0 .242.6.783.783 0 0 0 .574.242h5.25v-4.5z" transform="translate(-183.936 -281.478)" style="fill:#474747"/>
        </g>
        <g data-name="그룹 3986">
            <path data-name="패스 3481" d="M175.032 296.486c-2.54-2.4-6.237.991-4.11 4.157 1.087 1.618 3.887 2.671 7.9 2.461.573-.03.761-.157.191-.416-3.513-1.598-2.113-4.434-3.981-6.202z" transform="translate(-157.123 -285.085)" style="fill-rule:evenodd;fill:#66b821"/>
            <path data-name="패스 3482" d="M159.892 307.644c.262-.5.332-.621-.342-.308-3.811 1.769-4.557-1.086-7.089-.706a2.679 2.679 0 0 0-2.24 3.046c.292 1.769 2.345 2.443 3.978 2.276 3.368-.343 5.261-3.488 5.693-4.308z" transform="translate(-150.192 -288.851)" style="fill:#ff8001;fill-rule:evenodd"/>
            <path data-name="패스 3483" d="M157.162 302.773c.135.113.311.334-.179.262-6.092-.917-7.2-4.52-5.616-6.294a2.518 2.518 0 0 1 3.5-.114c1.624 1.792-.129 4.098 2.295 6.146z" transform="translate(-150.373 -285.189)" style="fill:#3787bc;fill-rule:evenodd"/>
            <path data-name="패스 3484" d="M190.2 284.282c.594.022.746.141.145.382a4.181 4.181 0 0 0-2.934 4.048c-.083 3.476-5.11 2.555-4.546-1.078.641-4.113 6.647-3.378 7.335-3.352z" transform="translate(-161.446 -281.133)" style="fill:#ff8001;fill-rule:evenodd"/>
            <path data-name="패스 3485" d="M166.868 308.2a2.564 2.564 0 0 0 5.017-.957c-.309-2.555-3.366-1.736-3.366-4.55 0-.343-.028-.624-.372-.1-.958 1.468-1.791 4.081-1.279 5.607z" transform="translate(-155.89 -287.373)" style="fill:#af46a0;fill-rule:evenodd"/>
            <path data-name="패스 3486" d="M191.569 308.477c-2.673 1.89-3.651-.393-5.574-.5-2.215-.124-2.858 3.472-.009 4.137a5.648 5.648 0 0 0 5.921-3.57c.071-.173-.002-.368-.338-.067z" transform="translate(-161.882 -289.326)" style="fill-rule:evenodd;fill:#66b821"/>
            <path data-name="패스 3487" d="M192.353 301.737c.6-3.036-1.922-5.873-2.162-6.173-.066-.079-.577-.7-.354.212.666 2.716-.738 3.487-1.164 5.421-.613 2.785 3.157 3.188 3.68.54z" transform="translate(-163.442 -284.95)" style="fill:#ff8001;fill-rule:evenodd"/>
            <path data-name="패스 3488" d="M166.944 295.711a11.751 11.751 0 0 0-6.066 2 2.6 2.6 0 0 0-.625 3.619 2.51 2.51 0 0 0 3.839.322 2.6 2.6 0 0 0 .238-.263c1.395-1.717.029-3.811 2.763-5.4.4-.235.149-.308-.149-.278z" transform="translate(-153.498 -285.095)" style="fill:#ff4000"/>
            <path data-name="패스 3489" d="M200.394 296.218a3.146 3.146 0 0 0-1.409 1.294c-.355.586-.495 1.272-.856 1.853a4.885 4.885 0 0 1-1.179 1.336c-.262.2-.4.468.093.365a5.373 5.373 0 0 1 1.648-.092 14.7 14.7 0 0 1 2.008.5 2.336 2.336 0 0 0 2.484-.409 3.269 3.269 0 0 0-.115-4.233 2.445 2.445 0 0 0-2.674-.614z" transform="translate(-166.237 -285.215)" style="fill-rule:evenodd;fill:#66b821"/>
            <path data-name="패스 3490" d="M202.562 305.379c-2.147-.335-3.2 1.3-6.361-.878-.28-.193-.516-.353-.309.286.339 1.04 1.847 5.214 4.767 5.956 4.275 1.084 5.407-4.718 1.903-5.364z" transform="translate(-165.927 -288.07)" style="fill:#3787bc;fill-rule:evenodd"/>
            <path data-name="패스 3491" d="M175.086 281.378c-.463 2.375 1.376 3.5.921 6.992-.036.278.215.271.283.116 1.393-3.2 3.472-3.079 4.263-5.55 1.178-3.693-4.853-4.689-5.467-1.558z" transform="translate(-158.752 -279.51)" style="fill:#3787bc;fill-rule:evenodd"/>
            <path data-name="패스 3492" d="M159.839 293.045c2.833.222 2.979-1.864 8.012-1.582.409.024.36-.245.1-.328-4.512-1.361-5.279-4.252-7.625-4.34-3.836-.141-4.379 5.946-.487 6.25z" transform="translate(-152.599 -282.022)" style="fill:#af46a0;fill-rule:evenodd"/>
            <path data-name="패스 3493" d="M166.2 285.178c1.735 2.231 3.085.759 5.076 2.907.291.313.509.16.284-.206-1.387-2.247.172-4.28-.993-5.765-2.201-2.802-6.413.439-4.367 3.064z" transform="translate(-155.525 -280.036)" style="fill:#ff4000;fill-rule:evenodd"/>
            <path data-name="패스 3494" d="M191.269 289.254c0 2.366 2.6 3.461 2.767 7.873.01.292.279.3.336.012.859-4.394 3.269-5.244 3.477-7.77.321-3.902-6.58-4.609-6.58-.115z" transform="translate(-164.36 -281.802)" style="fill:#ff4000;fill-rule:evenodd"/>
            <path data-name="패스 3495" d="M184.9 298.8a2.68 2.68 0 0 0 .459-3.71c-1.754-2.01-3.636-.009-5.429-3.365-.294-.552-.486-.432-.378.164.368 2.05-.3 4.086.893 5.906a3.049 3.049 0 0 0 4.455 1.005z" transform="translate(-160.307 -283.601)" style="fill:#af46a0;fill-rule:evenodd"/>
            <path data-name="패스 3496" d="M178.222 308.539a2.318 2.318 0 0 0-2.318 2.318v6.231h4.636v-6.231a2.319 2.319 0 0 0-2.318-2.318z" transform="translate(-159.06 -289.522)" style="fill:#8c8c70;fill-rule:evenodd"/>
        </g>
    </g>
</svg>
