<svg xmlns="http://www.w3.org/2000/svg" xmlns:xlink="http://www.w3.org/1999/xlink" width="358" height="227" viewBox="0 0 358 227">
  <defs>
    <linearGradient id="linear-gradient" x2="1" y2="1" gradientUnits="objectBoundingBox">
      <stop offset="0" stop-color="#f9fbfc"/>
      <stop offset="0.502" stop-color="#e6edf2"/>
      <stop offset="1" stop-color="#f8fcff"/>
    </linearGradient>
    <filter id="사각형_5893">
      <feOffset input="SourceAlpha"/>
      <feGaussianBlur stdDeviation="5" result="blur"/>
      <feFlood flood-color="#000a3d" flood-opacity="0.6" result="color"/>
      <feComposite operator="out" in="SourceGraphic" in2="blur"/>
      <feComposite operator="in" in="color"/>
      <feComposite operator="in" in2="SourceGraphic"/>
    </filter>
    <linearGradient id="linear-gradient-2" x1="0.5" x2="0.5" y2="1" gradientUnits="objectBoundingBox">
      <stop offset="0" stop-color="#f9f3d3"/>
      <stop offset="0.795" stop-color="#f9f3d3"/>
      <stop offset="1" stop-color="#f6e7b6"/>
    </linearGradient>
    <filter id="사각형_5894" x="21" y="49" width="62" height="49" filterUnits="userSpaceOnUse">
      <feOffset dx="1" dy="1" input="SourceAlpha"/>
      <feGaussianBlur stdDeviation="1" result="blur-2"/>
      <feFlood flood-color="#00132d" flood-opacity="0.11"/>
      <feComposite operator="in" in2="blur-2"/>
      <feComposite in="SourceGraphic"/>
    </filter>
    <filter id="사각형_5894-2" x="21" y="49" width="62" height="49" filterUnits="userSpaceOnUse">
      <feOffset dx="1" dy="1" input="SourceAlpha"/>
      <feGaussianBlur stdDeviation="2" result="blur-3"/>
      <feFlood flood-color="#fff" result="color-2"/>
      <feComposite operator="out" in="SourceGraphic" in2="blur-3"/>
      <feComposite operator="in" in="color-2"/>
      <feComposite operator="in" in2="SourceGraphic"/>
    </filter>
    <linearGradient id="linear-gradient-3" x1="0.057" x2="0.054" y2="1" gradientUnits="objectBoundingBox">
      <stop offset="0" stop-color="#8493ae"/>
      <stop offset="0.582" stop-color="#8493ae"/>
      <stop offset="1" stop-color="#bfccdf"/>
    </linearGradient>
    <filter id="사각형_5897" x="21" y="159" width="72" height="18" filterUnits="userSpaceOnUse">
      <feOffset dx="1" dy="1" input="SourceAlpha"/>
      <feGaussianBlur stdDeviation="1" result="blur-4"/>
      <feFlood flood-color="#fff"/>
      <feComposite operator="in" in2="blur-4"/>
      <feComposite in="SourceGraphic"/>
    </filter>
    <filter id="사각형_5897-2" x="21" y="159" width="72" height="18" filterUnits="userSpaceOnUse">
      <feOffset dx="2" dy="2" input="SourceAlpha"/>
      <feGaussianBlur stdDeviation="2" result="blur-5"/>
      <feFlood flood-color="#000a16" flood-opacity="0.369" result="color-3"/>
      <feComposite operator="out" in="SourceGraphic" in2="blur-5"/>
      <feComposite operator="in" in="color-3"/>
      <feComposite operator="in" in2="SourceGraphic"/>
    </filter>
    <filter id="사각형_5900" x="185" y="159" width="72" height="18" filterUnits="userSpaceOnUse">
      <feOffset dx="1" dy="1" input="SourceAlpha"/>
      <feGaussianBlur stdDeviation="1" result="blur-6"/>
      <feFlood flood-color="#fff"/>
      <feComposite operator="in" in2="blur-6"/>
      <feComposite in="SourceGraphic"/>
    </filter>
    <filter id="사각형_5900-2" x="185" y="159" width="72" height="18" filterUnits="userSpaceOnUse">
      <feOffset dx="2" dy="2" input="SourceAlpha"/>
      <feGaussianBlur stdDeviation="2" result="blur-7"/>
      <feFlood flood-color="#000a16" flood-opacity="0.369" result="color-4"/>
      <feComposite operator="out" in="SourceGraphic" in2="blur-7"/>
      <feComposite operator="in" in="color-4"/>
      <feComposite operator="in" in2="SourceGraphic"/>
    </filter>
    <filter id="사각형_5898" x="103" y="159" width="72" height="18" filterUnits="userSpaceOnUse">
      <feOffset dx="1" dy="1" input="SourceAlpha"/>
      <feGaussianBlur stdDeviation="1" result="blur-8"/>
      <feFlood flood-color="#fff"/>
      <feComposite operator="in" in2="blur-8"/>
      <feComposite in="SourceGraphic"/>
    </filter>
    <filter id="사각형_5898-2" x="103" y="159" width="72" height="18" filterUnits="userSpaceOnUse">
      <feOffset dx="2" dy="2" input="SourceAlpha"/>
      <feGaussianBlur stdDeviation="2" result="blur-9"/>
      <feFlood flood-color="#000a16" flood-opacity="0.369" result="color-5"/>
      <feComposite operator="out" in="SourceGraphic" in2="blur-9"/>
      <feComposite operator="in" in="color-5"/>
      <feComposite operator="in" in2="SourceGraphic"/>
    </filter>
    <filter id="사각형_5899" x="267" y="159" width="72" height="18" filterUnits="userSpaceOnUse">
      <feOffset dx="1" dy="1" input="SourceAlpha"/>
      <feGaussianBlur stdDeviation="1" result="blur-10"/>
      <feFlood flood-color="#fff"/>
      <feComposite operator="in" in2="blur-10"/>
      <feComposite in="SourceGraphic"/>
    </filter>
    <filter id="사각형_5899-2" x="267" y="159" width="72" height="18" filterUnits="userSpaceOnUse">
      <feOffset dx="2" dy="2" input="SourceAlpha"/>
      <feGaussianBlur stdDeviation="2" result="blur-11"/>
      <feFlood flood-color="#000a16" flood-opacity="0.369" result="color-6"/>
      <feComposite operator="out" in="SourceGraphic" in2="blur-11"/>
      <feComposite operator="in" in="color-6"/>
      <feComposite operator="in" in2="SourceGraphic"/>
    </filter>
    <filter id="제외_147" x="0.001" y="0" width="357.997" height="227" filterUnits="userSpaceOnUse">
      <feOffset dy="3" input="SourceAlpha"/>
      <feGaussianBlur stdDeviation="3" result="blur-12"/>
      <feFlood flood-color="#fff" result="color-7"/>
      <feComposite operator="out" in="SourceGraphic" in2="blur-12"/>
      <feComposite operator="in" in="color-7"/>
      <feComposite operator="in" in2="SourceGraphic"/>
    </filter>
    <linearGradient id="linear-gradient-7" x1="-3.951" y1="0.5" x2="6.302" y2="0.5" gradientUnits="objectBoundingBox">
      <stop offset="0.05" stop-color="#36b34a"/>
      <stop offset="0.95" stop-color="#25a9e0"/>
    </linearGradient>
    <linearGradient id="linear-gradient-8" x1="-24.939" y1="0.5" x2="65.244" y2="0.5" xlink:href="#linear-gradient-7"/>
    <linearGradient id="linear-gradient-9" x1="-29.325" y1="0.5" x2="60.744" y2="0.5" xlink:href="#linear-gradient-7"/>
    <linearGradient id="linear-gradient-10" x1="-36.407" y1="0.5" x2="53.7" y2="0.5" xlink:href="#linear-gradient-7"/>
    <linearGradient id="linear-gradient-11" x1="-40.827" y1="0.5" x2="49.279" y2="0.5" xlink:href="#linear-gradient-7"/>
    <linearGradient id="linear-gradient-12" x1="-8.566" y1="0.5" x2="12.318" y2="0.5" xlink:href="#linear-gradient-7"/>
    <linearGradient id="linear-gradient-13" x1="-5.752" y1="0.5" x2="8.64" y2="0.5" xlink:href="#linear-gradient-7"/>
    <linearGradient id="linear-gradient-14" x1="-15.336" y1="0.5" x2="17.723" y2="0.5" xlink:href="#linear-gradient-7"/>
    <linearGradient id="linear-gradient-15" x1="0.008" y1="0.5" x2="2.454" y2="0.5" xlink:href="#linear-gradient-7"/>
    <linearGradient id="linear-gradient-16" x1="-10.309" y1="0.5" x2="8.804" y2="0.5" xlink:href="#linear-gradient-7"/>
    <linearGradient id="linear-gradient-17" x1="-14.797" y1="0.5" x2="4.322" y2="0.5" xlink:href="#linear-gradient-7"/>
    <linearGradient id="linear-gradient-18" x1="-24.754" y1="0.5" x2="14.211" y2="0.5" xlink:href="#linear-gradient-7"/>
    <linearGradient id="linear-gradient-19" x1="-25.793" y1="0.5" x2="13.173" y2="0.5" xlink:href="#linear-gradient-7"/>
    <linearGradient id="linear-gradient-20" x1="-12.145" y1="0.5" x2="6.972" y2="0.5" xlink:href="#linear-gradient-7"/>
    <linearGradient id="linear-gradient-21" x1="-14.795" y1="0.5" x2="4.321" y2="0.5" xlink:href="#linear-gradient-7"/>
    <linearGradient id="linear-gradient-22" x1="-29.667" y1="0.5" x2="19.506" y2="0.5" xlink:href="#linear-gradient-7"/>
    <linearGradient id="linear-gradient-23" x1="-44.606" y1="0.5" x2="4.567" y2="0.5" xlink:href="#linear-gradient-7"/>
    <linearGradient id="linear-gradient-24" x1="-10.718" y1="0.5" x2="8.398" y2="0.5" xlink:href="#linear-gradient-7"/>
    <linearGradient id="linear-gradient-25" x1="-12.145" y1="0.5" x2="6.972" y2="0.5" xlink:href="#linear-gradient-7"/>
    <linearGradient id="linear-gradient-26" x1="-17.951" y1="0.5" x2="1.164" y2="0.5" xlink:href="#linear-gradient-7"/>
    <linearGradient id="linear-gradient-27" x1="-17.952" y1="0.5" x2="1.164" y2="0.5" xlink:href="#linear-gradient-7"/>
    <linearGradient id="linear-gradient-28" x1="-13.469" y1="0.5" x2="5.645" y2="0.5" xlink:href="#linear-gradient-7"/>
    <linearGradient id="linear-gradient-30" x1="-16.118" y1="0.5" x2="2.998" y2="0.5" xlink:href="#linear-gradient-7"/>
  </defs>
  <g id="그룹_13587" data-name="그룹 13587" transform="translate(-418 -188)">
    <g data-type="innerShadowGroup">
      <rect id="사각형_5893-2" data-name="사각형 5893" width="358" height="227" rx="20" transform="translate(418 188)" fill="url(#linear-gradient)"/>
      <g transform="matrix(1, 0, 0, 1, 418, 188)" filter="url(#사각형_5893)">
        <rect id="사각형_5893-3" data-name="사각형 5893" width="358" height="227" rx="20" fill="#fff"/>
      </g>
    </g>
    <g data-type="innerShadowGroup">
      <g transform="matrix(1, 0, 0, 1, 418, 188)" filter="url(#사각형_5894)">
        <rect id="사각형_5894-3" data-name="사각형 5894" width="56" height="43" rx="8" transform="translate(23 51)" fill="url(#linear-gradient-2)"/>
      </g>
      <g transform="matrix(1, 0, 0, 1, 418, 188)" filter="url(#사각형_5894-2)">
        <rect id="사각형_5894-4" data-name="사각형 5894" width="56" height="43" rx="8" transform="translate(23 51)" fill="#fff"/>
      </g>
    </g>
    <g data-type="innerShadowGroup">
      <g transform="matrix(1, 0, 0, 1, 418, 188)" filter="url(#사각형_5897)">
        <rect id="사각형_5897-3" data-name="사각형 5897" width="66" height="12" rx="6" transform="translate(23 161)" opacity="0.44" fill="url(#linear-gradient-3)"/>
      </g>
      <g transform="matrix(1, 0, 0, 1, 418, 188)" filter="url(#사각형_5897-2)">
        <rect id="사각형_5897-4" data-name="사각형 5897" width="66" height="12" rx="6" transform="translate(23 161)" fill="#fff" opacity="0.44"/>
      </g>
    </g>
    <g data-type="innerShadowGroup">
      <g transform="matrix(1, 0, 0, 1, 418, 188)" filter="url(#사각형_5900)">
        <rect id="사각형_5900-3" data-name="사각형 5900" width="66" height="12" rx="6" transform="translate(187 161)" opacity="0.44" fill="url(#linear-gradient-3)"/>
      </g>
      <g transform="matrix(1, 0, 0, 1, 418, 188)" filter="url(#사각형_5900-2)">
        <rect id="사각형_5900-4" data-name="사각형 5900" width="66" height="12" rx="6" transform="translate(187 161)" fill="#fff" opacity="0.44"/>
      </g>
    </g>
    <g data-type="innerShadowGroup">
      <g transform="matrix(1, 0, 0, 1, 418, 188)" filter="url(#사각형_5898)">
        <rect id="사각형_5898-3" data-name="사각형 5898" width="66" height="12" rx="6" transform="translate(105 161)" opacity="0.44" fill="url(#linear-gradient-3)"/>
      </g>
      <g transform="matrix(1, 0, 0, 1, 418, 188)" filter="url(#사각형_5898-2)">
        <rect id="사각형_5898-4" data-name="사각형 5898" width="66" height="12" rx="6" transform="translate(105 161)" fill="#fff" opacity="0.44"/>
      </g>
    </g>
    <g data-type="innerShadowGroup">
      <g transform="matrix(1, 0, 0, 1, 418, 188)" filter="url(#사각형_5899)">
        <rect id="사각형_5899-3" data-name="사각형 5899" width="66" height="12" rx="6" transform="translate(269 161)" opacity="0.44" fill="url(#linear-gradient-3)"/>
      </g>
      <g transform="matrix(1, 0, 0, 1, 418, 188)" filter="url(#사각형_5899-2)">
        <rect id="사각형_5899-4" data-name="사각형 5899" width="66" height="12" rx="6" transform="translate(269 161)" fill="#fff" opacity="0.44"/>
      </g>
    </g>
    <g data-type="innerShadowGroup">
      <path id="제외_147-2" data-name="제외 147" d="M-7235,24456h-318a19.864,19.864,0,0,1-14.139-5.859A19.866,19.866,0,0,1-7573,24436v-187a19.866,19.866,0,0,1,5.858-14.143A19.864,19.864,0,0,1-7553,24229h318a19.862,19.862,0,0,1,14.138,5.859A19.866,19.866,0,0,1-7215,24249v187a19.866,19.866,0,0,1-5.858,14.143A19.862,19.862,0,0,1-7235,24456Zm-316-221a16.015,16.015,0,0,0-16,15.994v183a16.019,16.019,0,0,0,16,16h314a16.019,16.019,0,0,0,16-16v-183a16.015,16.015,0,0,0-16-15.994Z" transform="translate(7991 -24041)" fill="#e2edf3"/>
      <g transform="matrix(1, 0, 0, 1, 418, 188)" filter="url(#제외_147)">
        <path id="제외_147-3" data-name="제외 147" d="M-7235,24456h-318a19.864,19.864,0,0,1-14.139-5.859A19.866,19.866,0,0,1-7573,24436v-187a19.866,19.866,0,0,1,5.858-14.143A19.864,19.864,0,0,1-7553,24229h318a19.862,19.862,0,0,1,14.138,5.859A19.866,19.866,0,0,1-7215,24249v187a19.866,19.866,0,0,1-5.858,14.143A19.862,19.862,0,0,1-7235,24456Zm-316-221a16.015,16.015,0,0,0-16,15.994v183a16.019,16.019,0,0,0,16,16h314a16.019,16.019,0,0,0,16-16v-183a16.015,16.015,0,0,0-16-15.994Z" transform="translate(7573 -24229)" fill="#fff"/>
      </g>
    </g>
    <g id="그룹_3221" data-name="그룹 3221" transform="translate(298.481 75.127)">
      <g id="그룹_3182" data-name="그룹 3182" transform="translate(272.506 163.873)">
        <g id="그룹_3181" data-name="그룹 3181">
          <path id="패스_4962" data-name="패스 4962" d="M357.268,184.5h15.014a1.419,1.419,0,0,0,1.416-1.417V167.961a1.418,1.418,0,0,0-1.416-1.416h-2.5a.137.137,0,0,1,0-.02l-.579-1.635a1.425,1.425,0,0,0-1.344-1.017h-6.3a1.421,1.421,0,0,0-1.342,1.018l-.58,1.643,0,.011h-2.372a1.42,1.42,0,0,0-1.419,1.416v15.121A1.421,1.421,0,0,0,357.268,184.5Zm4.6-18.81h5.692l.3.856h-6.3Zm-4.2,2.673h14.214v1.068H357.668Zm0,2.886h14.214v4.808H357.668Zm0,6.625h14.214v4.809H357.668Z" transform="translate(-284.754 -163.873)" fill="url(#linear-gradient-7)"/>
          <path id="패스_4963" data-name="패스 4963" d="M333.517,189.9a1.014,1.014,0,1,0-1.014-1.014A1.014,1.014,0,0,0,333.517,189.9Z" transform="translate(-281.323 -167.4)" fill="url(#linear-gradient-8)"/>
          <path id="패스_4964" data-name="패스 4964" d="M344.041,189.9a1.014,1.014,0,1,0-1.015-1.014A1.016,1.016,0,0,0,344.041,189.9Z" transform="translate(-282.87 -167.4)" fill="url(#linear-gradient-9)"/>
          <path id="패스_4965" data-name="패스 4965" d="M360.875,181.917a1.014,1.014,0,1,0,1.015,1.012A1.013,1.013,0,0,0,360.875,181.917Z" transform="translate(-285.343 -166.525)" fill="url(#linear-gradient-10)"/>
          <path id="패스_4966" data-name="패스 4966" d="M371.4,181.917a1.014,1.014,0,1,0,1.015,1.012A1.012,1.012,0,0,0,371.4,181.917Z" transform="translate(-286.89 -166.525)" fill="url(#linear-gradient-11)"/>
          <path id="패스_4967" data-name="패스 4967" d="M362.084,190.181a.908.908,0,0,0,0,1.817h6.947a.908.908,0,1,0,0-1.817Z" transform="translate(-285.537 -167.739)" fill="url(#linear-gradient-12)"/>
          <path id="패스_4968" data-name="패스 4968" d="M370.73,193.562h-10.9a.909.909,0,0,0,0,1.819h10.9a.909.909,0,0,0,0-1.819Z" transform="translate(-285.206 -168.236)" fill="url(#linear-gradient-13)"/>
          <path id="패스_4969" data-name="패스 4969" d="M378.056,194.247l-3.72-5.1a.909.909,0,1,0-1.453,1.093l3.72,5.1a.909.909,0,0,0,1.453-1.093Z" transform="translate(-287.231 -167.534)" fill="url(#linear-gradient-14)"/>
          <path id="패스_4970" data-name="패스 4970" d="M346.965,186.181a.908.908,0,0,0-1.271.182l-3.448,4.736h-5.627v-.641h.079a1.418,1.418,0,0,0,1.415-1.416V173.92A1.42,1.42,0,0,0,336.7,172.5h-2.406l-.554-1.6a1.434,1.434,0,0,0-1.349-1.074H326.1a1.429,1.429,0,0,0-1.347,1.074l-.556,1.6h-2.511a1.42,1.42,0,0,0-1.417,1.417v15.122a1.418,1.418,0,0,0,1.417,1.416h.186v.641h-6.356a4.1,4.1,0,0,0-3.4-6.4,3.928,3.928,0,0,0-.45.045l-2.8-6.974a1.593,1.593,0,0,0-1.456-1.268h-2.349a.909.909,0,0,0,0,1.818h2.07c.009.024,1.325,3.312,1.325,3.312s-7.937,0-7.959,0l-.662-.76h.082a.908.908,0,0,0,0-1.816H296.79a.908.908,0,0,0,0,1.816h.644l6.081,7.067h-2.461a4.1,4.1,0,1,0-7.412,3.166h-5.4a1.582,1.582,0,0,0-.026-1.175l-1.911-4.449a1.263,1.263,0,0,0-.075-.138l-1.321-1.979-.028-.525.279.13a.922.922,0,0,0,.153.052l2.248.563a1.584,1.584,0,0,0,1.882-1.034l.266-.8a1.577,1.577,0,0,0-.089-1.208,1.553,1.553,0,0,0-.918-.788.782.782,0,0,0-.109-.032l-1.973-.494-2.569-1.927c-.033-.025-.074-.035-.109-.057a3.757,3.757,0,1,0-5.536.014,1.624,1.624,0,0,0-.231.189l-4.35,4.355a1.579,1.579,0,0,0,0,2.232l.479.479a1.579,1.579,0,0,0,2.1.117l1.731-1.386v1.037l-.659,3.291-1.571,1.571a1.582,1.582,0,0,0-.212,1.961h-2.281a.908.908,0,1,0,0,1.817h4.452a1.812,1.812,0,0,0,.827-.4l2.817-2.254a1.586,1.586,0,0,0,.548-.853l.2-.786.329.493,1.126,2.811a1.58,1.58,0,0,0,1.467.994c.049,0,.182,0,.2,0h11.565c.023,0,.088-.009.1-.009a4.107,4.107,0,0,0,3.985-3.155h4.429a.914.914,0,0,0,.749-.392l3.378-4.913.355.883a4.1,4.1,0,0,0,2.172,7.578c.093,0,.389.009.454.009h10.73a.894.894,0,0,0,.361-.077,1.354,1.354,0,0,0,.992-1.295v-1.086h9.192v1.086a1.371,1.371,0,0,0,1.371,1.372H342.7a.918.918,0,0,0,.729-.362l3.718-5.1A.912.912,0,0,0,346.965,186.181Zm-65.8-13.5a2.046,2.046,0,1,1-2.046,2.046A2.047,2.047,0,0,1,281.169,172.682Zm4.188,18.421a.888.888,0,0,0-.125.026l-1.094-2.733a.827.827,0,0,0-.083-.156l-1.45-2.175a.854.854,0,0,0-1.541.266l-.656,2.619-2.672,2.142-.546-.819,1.682-1.681a.841.841,0,0,0,.232-.434l.727-3.628a.97.97,0,0,0,.016-.167v-2.9a.854.854,0,0,0-1.39-.668l-3.027,2.424-.306-.305,4.222-4.223h3.714l2.673,2.006a.881.881,0,0,0,.306.145l2,.5-.183.551-2.054-.514-1.491-.69a.853.853,0,0,0-1.213.82l.115,2.174a.834.834,0,0,0,.142.432l1.408,2.108,1.83,4.267Zm11.686-1.352h2.076a2.287,2.287,0,1,1,.039-1.818h-2.115a.909.909,0,0,0,0,1.818Zm8.351-2.42-3.339-3.886h6.013Zm6.716,3.76a2.281,2.281,0,0,1-1.476-4.027l.645,1.607a.911.911,0,0,0,.845.57.906.906,0,0,0,.841-1.245l-.585-1.458a2.284,2.284,0,0,1-.27,4.554Zm14.3-19.442h5.66l.3.854h-6.254Zm9.885,16.993H322.08v-4.81H336.3Zm0-6.627H322.08v-4.809H336.3Zm0-6.626H322.08v-1.07H336.3Z" transform="translate(-272.506 -164.748)" fill="url(#linear-gradient-15)"/>
        </g>
      </g>
      <g id="그룹_3183" data-name="그룹 3183" transform="translate(371.785 166.864)">
        <path id="패스_4971" data-name="패스 4971" d="M393.677,176.953a4.787,4.787,0,1,1,4.787-4.787A4.793,4.793,0,0,1,393.677,176.953Zm0-7.8a3.016,3.016,0,1,0,3.016,3.016A3.02,3.02,0,0,0,393.677,169.149Z" transform="translate(-388.889 -167.379)" fill="url(#linear-gradient-16)"/>
        <path id="패스_4972" data-name="패스 4972" d="M444.007,195.249a4.787,4.787,0,1,1,4.786-4.787A4.792,4.792,0,0,1,444.007,195.249Zm0-7.8a3.016,3.016,0,1,0,3.016,3.017A3.02,3.02,0,0,0,444.007,187.444Z" transform="translate(-396.286 -170.068)" fill="url(#linear-gradient-17)"/>
        <path id="패스_4973" data-name="패스 4973" d="M413.294,176.855a.856.856,0,0,1-.206-.026,4.789,4.789,0,0,1,0-9.285.849.849,0,0,1,.206-.026.9.9,0,0,1,.875.892.864.864,0,0,1-.631.846,3.018,3.018,0,0,0,0,5.86.864.864,0,0,1,.631.845.9.9,0,0,1-.262.634A.863.863,0,0,1,413.294,176.855Z" transform="translate(-391.914 -167.399)" fill="url(#linear-gradient-18)"/>
        <path id="패스_4974" data-name="패스 4974" d="M419.012,176.855a.858.858,0,0,1-.207-.026,4.789,4.789,0,0,1,0-9.285.849.849,0,0,1,.206-.026.9.9,0,0,1,.874.892.865.865,0,0,1-.63.846,3.017,3.017,0,0,0,0,5.86.864.864,0,0,1,.63.845.9.9,0,0,1-.262.634A.861.861,0,0,1,419.012,176.855Z" transform="translate(-392.754 -167.399)" fill="url(#linear-gradient-19)"/>
        <path id="패스_4975" data-name="패스 4975" d="M410.358,182.871a.885.885,0,1,1,0-1.771h7.8a.885.885,0,1,1,0,1.771Z" transform="translate(-391.914 -169.395)" fill="url(#linear-gradient-20)"/>
        <path id="패스_4976" data-name="패스 4976" d="M440.105,180.854a.885.885,0,1,1,0-1.771h3.016v-2.22l-.072-.014a4.784,4.784,0,0,1,.957-9.47h3.9a.885.885,0,0,1,0,1.77h-3.9a2.937,2.937,0,0,0-2.74,1.709c-.042.1-.072.191-.1.287l-.038.118.119.018h6.663a.885.885,0,0,1,0,1.771h-6.788l.043.12a3.024,3.024,0,0,0,2.843,2.011h3.9a.885.885,0,0,1,0,1.771h-3.016v2.131h3.016a.885.885,0,0,1,0,1.771Z" transform="translate(-396.286 -167.379)" fill="url(#linear-gradient-21)"/>
        <path id="패스_4977" data-name="패스 4977" d="M403.5,176.953a.887.887,0,0,1-.885-.885v-7.8a.885.885,0,0,1,1.771,0v3.016h1.065a.886.886,0,0,1,0,1.772h-1.065v3.016A.887.887,0,0,1,403.5,176.953Z" transform="translate(-390.906 -167.379)" fill="url(#linear-gradient-22)"/>
        <path id="패스_4978" data-name="패스 4978" d="M468.676,176.953a.887.887,0,0,1-.885-.885v-7.8a.885.885,0,0,1,1.771,0v3.016h1.065a.886.886,0,0,1,0,1.772h-1.065v3.016A.887.887,0,0,1,468.676,176.953Z" transform="translate(-400.484 -167.379)" fill="url(#linear-gradient-23)"/>
        <path id="패스_4979" data-name="패스 4979" d="M396.3,190.674a2.836,2.836,0,0,1-2.661-1.891,2.656,2.656,0,0,1,0-1.891A2.836,2.836,0,0,1,396.3,185H400.2a1.065,1.065,0,0,0,0-2.131h-5.855a.885.885,0,0,1,0-1.771H400.2a2.837,2.837,0,0,1,2.662,1.891,2.653,2.653,0,0,1,0,1.89,2.837,2.837,0,0,1-2.662,1.89h-3.9a1.066,1.066,0,0,0,0,2.132h5.855a.885.885,0,1,1,0,1.771Z" transform="translate(-389.561 -169.395)" fill="url(#linear-gradient-24)"/>
        <path id="패스_4980" data-name="패스 4980" d="M412.307,195.249a2.835,2.835,0,0,1-2.661-1.892,2.651,2.651,0,0,1,0-1.89,2.837,2.837,0,0,1,2.661-1.891h3.905a1.065,1.065,0,0,0,0-2.131h-5.855a.885.885,0,1,1,0-1.771h5.853a2.836,2.836,0,0,1,2.661,1.891,2.654,2.654,0,0,1,0,1.89,2.836,2.836,0,0,1-2.661,1.891h-3.9a1.065,1.065,0,0,0,0,2.13h5.854a.886.886,0,0,1,0,1.772Z" transform="translate(-391.914 -170.068)" fill="url(#linear-gradient-25)"/>
        <path id="패스_4981" data-name="패스 4981" d="M475.537,182.871a.885.885,0,1,1,0-1.771h7.8a.885.885,0,1,1,0,1.771Z" transform="translate(-401.493 -169.395)" fill="url(#linear-gradient-26)"/>
        <path id="패스_4982" data-name="패스 4982" d="M479.438,176.953a4.787,4.787,0,0,1,0-9.574h3.9a.885.885,0,0,1,0,1.77h-3.9a2.935,2.935,0,0,0-2.739,1.709,3.081,3.081,0,0,0,.215,2.962,3.012,3.012,0,0,0,2.522,1.362h3.9a.885.885,0,0,1,0,1.771Z" transform="translate(-401.493 -167.379)" fill="url(#linear-gradient-27)"/>
        <path id="패스_4983" data-name="패스 4983" d="M427.191,181.863a2.836,2.836,0,0,1-2.662-1.891,2.8,2.8,0,0,1-.174-.945v-3.9a.885.885,0,1,1,1.771,0v3.9a1.067,1.067,0,0,0,1.062,1.065h1.069v-4.967a.885.885,0,0,1,1.771,0v4.967h3.016a.885.885,0,1,1,0,1.771Z" transform="translate(-394.101 -168.387)" fill="url(#linear-gradient-28)"/>
        <path id="패스_4984" data-name="패스 4984" d="M433.044,176.953a.887.887,0,0,1-.885-.885v-5.852a1.068,1.068,0,0,0-1.063-1.066H425.24a.885.885,0,1,1,0-1.77h5.853a2.836,2.836,0,0,1,2.661,1.89,2.775,2.775,0,0,1,.175.946v5.852A.887.887,0,0,1,433.044,176.953Z" transform="translate(-394.101 -167.379)" fill="url(#linear-gradient-28)"/>
        <path id="패스_4985" data-name="패스 4985" d="M462.758,176.953a.887.887,0,0,1-.885-.885v-3.016h-6.917a.886.886,0,0,1,0-1.772h6.917v-1.065a1.067,1.067,0,0,0-1.062-1.066h-5.855a.885.885,0,1,1,0-1.77h5.852a2.837,2.837,0,0,1,2.662,1.89,2.8,2.8,0,0,1,.174.946v5.852A.887.887,0,0,1,462.758,176.953Z" transform="translate(-398.468 -167.379)" fill="url(#linear-gradient-30)"/>
      </g>
    </g>
  </g>
</svg>
