<svg xmlns="http://www.w3.org/2000/svg" width="1875" height="200.974" viewBox="0 0 1875 200.974">
    <g data-name="그룹 4610">
        <path data-name="합치기 42" d="M1575.82 198.908c-40.883-2.826-63.707-10.859-71.834-25.279-7.614-13.509-8.483-29.927-2.383-45.041 7.605-18.846 24.917-33.514 47.5-40.245 23.872-7.114 78.547-5.974 131.423-4.874 32.561.68 63.32 1.319 75.374-.565 13.648-2.136 24.224-8.528 29.013-17.536 3.8-7.142 3.632-15.566-.477-24.36-1.835-3.928-9.042-11.041-36.689-14.55-22.04-2.8-50.04-2.534-77.11-2.279-7.7.072-15.671.147-23.308.147-59.689 0-126.244 12.6-168.325 9.069q-2.088-.175-3.99-.41c-21.851-1.769-110.308-8.66-162.335-8.66-7.637 0-15.6-.075-23.308-.147-27.07-.256-55.07-.519-77.11 2.279-27.646 3.509-34.853 10.623-36.688 14.55-4.109 8.795-4.274 17.218-.477 24.36 4.79 9.008 15.366 15.4 29.013 17.536 12.053 1.885 42.813 1.246 75.374.565 52.876-1.1 107.551-2.239 131.422 4.874 22.579 6.731 39.892 21.4 47.5 40.245 6.1 15.115 5.231 31.532-2.383 45.041-8.127 14.421-30.953 22.453-71.834 25.279-11.516.8-23.351 1.093-34.582 1.093-23.015 0-43.483-1.241-53.4-1.961-22.779-1.652-60.906-4.419-96.969-5.4-25.3-.688-49.78.324-67.628 1.336-12.989.737-22.466 1.473-26.2 1.555a5.557 5.557 0 0 1-.39.014c-10 0-49.273-4.131-94.237-2.91-36.063.981-74.19 3.748-96.969 5.4-9.917.72-30.384 1.961-53.4 1.961l-.054.005c-11.216 0-23.031-.292-34.531-1.093-40.881-2.826-63.706-10.858-71.833-25.278-7.614-13.508-8.483-29.925-2.383-45.04 7.608-18.844 24.92-33.512 47.5-40.244 23.871-7.113 78.546-5.973 131.422-4.873 32.562.681 63.321 1.32 75.374-.565 13.648-2.136 24.223-8.528 29.014-17.536 3.8-7.141 3.632-15.564-.477-24.358-1.835-3.927-9.042-11.041-36.689-14.549-22.039-2.8-50.038-2.535-77.109-2.279-7.708.072-15.672.11-23.308.147-58.685.283-141.083 9.068-167.324 9.068-28.716 0-109.5-9.032-167.324-9.068-7.637-.005-15.6-.075-23.308-.147-27.071-.257-55.07-.519-77.11 2.279-27.647 3.508-34.853 10.623-36.688 14.549-4.109 8.795-4.273 17.217-.477 24.358 4.791 9.008 15.367 15.4 29.013 17.536 12.054 1.885 42.812 1.246 75.374.565 52.876-1.1 107.553-2.239 131.422 4.873 22.58 6.731 39.892 21.4 47.5 40.244 6.1 15.115 5.232 31.531-2.383 45.04-8.127 14.421-30.953 22.452-71.833 25.278-11.5.8-23.315 1.093-34.532 1.093l-.054-.005c-23.016 0-43.483-1.241-53.4-1.961-22.779-1.652-60.906-4.419-96.969-5.4-44.963-1.221-84.235 2.91-94.236 2.91-9.119 0-29.4-4.126-74.216-2.911-36.058.982-74.179 3.749-96.955 5.4-9.915.72-30.38 1.96-53.392 1.96-11.226 0-23.059-.292-34.573-1.091-40.875-2.826-63.7-10.859-71.825-25.278-7.613-13.508-8.482-29.926-2.382-45.039 7.6-18.846 24.914-33.513 47.489-40.244 23.868-7.115 78.536-5.974 131.4-4.874 32.557.68 63.311 1.319 75.363-.564 13.646-2.137 24.221-8.528 29.011-17.536 3.8-7.142 3.632-15.566-.477-24.359-1.835-3.928-9.041-11.04-36.684-14.549-22.037-2.8-50.033-2.533-77.1-2.279-7.7.072-15.669.147-23.3.147-59.681 0-153.3 8.655-154.243 8.742A12.01 12.01 0 1 1 10.9 9.15C11.848 9.061 106.564.3 167.365.3c7.523 0 15.435-.074 23.079-.144C252.611-.428 311.327-.983 326.19 30.83c7.325 15.678 7.3 31.95-.076 45.821-8.369 15.74-25.312 26.668-46.487 29.984-14.143 2.212-44.464 1.579-79.569.849-46.239-.964-103.785-2.162-124.058 3.88C60.464 116 48.768 125.551 43.911 137.58c-3.4 8.42-3.03 17.032 1.033 24.242.228.4 6.094 9.9 52.577 13.117 33.584 2.322 70.338.17 84.577-.864 66.87-4.852 164.714-1.129 172.852-1.129 7.755 0 126.112-3.723 193 1.13 14.243 1.034 51 3.186 84.59.864 46.49-3.215 52.357-12.713 52.585-13.117 4.063-7.212 4.431-15.822 1.032-24.242-4.855-12.029-16.554-21.587-32.095-26.218-20.272-6.043-77.827-4.844-124.071-3.881-35.113.732-65.436 1.363-79.581-.849-21.178-3.316-38.123-14.243-46.493-29.984-7.375-13.872-7.4-30.143-.077-45.821C418.7-.983 477.427-.428 539.6.158c7.653.072 15.563.092 23.087.142 61.138.413 156.83 9.9 167.324 9.9 9.932 0 106.708-9.438 167.324-9.9 7.525-.056 15.434-.07 23.083-.142 62.177-.586 120.9-1.141 135.766 30.671 7.322 15.678 7.3 31.949-.077 45.821-8.37 15.741-25.315 26.668-46.493 29.984-14.143 2.212-44.468 1.58-79.58.849-46.245-.963-103.8-2.162-124.072 3.881-15.54 4.631-27.239 14.188-32.095 26.218-3.4 8.42-3.029 17.031 1.033 24.242.228.4 6.095 9.9 52.585 13.117 33.59 2.322 70.347.17 84.59-.864 50.6-3.671 130.661-2.434 170-1.614 4.2-.07 11.039-.291 22.921-.933 10.66-.576 44.649-3.551 88.129-3.154 33.99.312 75.443 3.574 104.807 5.705 14.243 1.034 51 3.186 84.591.864 46.49-3.215 52.357-12.714 52.584-13.118 4.064-7.212 4.431-15.822 1.033-24.243-4.855-12.03-16.554-21.587-32.095-26.219-20.273-6.043-77.826-4.844-124.071-3.881-35.112.732-65.436 1.364-79.581-.849-21.177-3.315-38.122-14.243-46.493-29.984-7.375-13.872-7.4-30.144-.077-45.823 14.87-31.812 73.593-31.257 135.77-30.671 7.649.071 15.558.146 23.082.146C1373.485.3 1480 10.2 1480 10.2v.079C1507.262 12.2 1587.269.3 1647.325.3c7.524 0 15.433-.075 23.082-.146 62.177-.586 120.9-1.14 135.765 30.673 7.326 15.679 7.3 31.951-.077 45.823-8.37 15.74-25.315 26.669-46.492 29.984-14.144 2.213-44.469 1.58-79.581.849-46.246-.963-103.8-2.162-124.071 3.881-15.542 4.632-27.24 14.188-32.095 26.219-3.4 8.421-3.031 17.032 1.033 24.243.228.4 6.095 9.9 52.584 13.118 33.59 2.322 70.348.17 84.591-.864 67.192-4.875 117.831-12.755 166.064-7.331 6.567.82 12.082 11.419 11.492 15.6-.821 6.017-4.378 12.313-13.954 12.861-10.454.254-15.134-.561-21.866-1.376-7.717-.934-18.131-1.868-43.032-1.192-36.062.982-74.189 3.749-96.968 5.4-9.916.72-30.384 1.961-53.4 1.961-11.229-.003-23.065-.297-34.58-1.095z" transform="translate(20 .473)" style="fill:#241992;stroke:transparent;stroke-miterlimit:10;opacity:.08"/>
        <path data-name="사각형 1588" transform="translate(0 .473)" style="fill:none" d="M0 0h1875v200H0z"/>
    </g>
</svg>
