<svg xmlns="http://www.w3.org/2000/svg" width="1024" height="516" viewBox="0 0 1024 516">
    <defs>
        <clipPath id="clip-path">
            <path id="패스_7288" data-name="패스 7288" class="cls-1" d="M465.2 255.349a19.56 19.56 0 1 0 26.437-8.14 19.559 19.559 0 0 0-26.437 8.14z" transform="translate(-462.923 -244.934)"/>
        </clipPath>
        <style>
            .cls-1,.cls-11,.cls-14,.cls-27,.cls-7{fill:none}.cls-4{fill:#077757}.cls-6{fill:#aab34a}.cls-7{stroke:#faaf40}.cls-11,.cls-14,.cls-27,.cls-7{stroke-linecap:round;stroke-linejoin:round}.cls-11,.cls-14,.cls-7{stroke-width:.5px}.cls-8{fill:#007473}.cls-10{fill:#f5ea61}.cls-11{stroke:#ffc27a}.cls-14{stroke:#f4e998}.cls-15{fill:#fff}.cls-16{fill:#231f20}.cls-17{fill:#f36c42}.cls-18{fill:#f5cfa3}.cls-21{fill:#066d89}.cls-22{fill:#fffc92}.cls-23{fill:#f15d2a}.cls-24{fill:#ff7f30}.cls-25{fill:#ffccb6;opacity:.8;mix-blend-mode:multiply;isolation:isolate}.cls-27{stroke:#034c28;stroke-width:3px}
        </style>
    </defs>
    <g id="summer" transform="translate(325 85.162)">
        <path id="패스_7213" data-name="패스 7213" d="M0 0v233.313h1024V0z" transform="translate(-325 -85.162)" style="fill:#a9fcf7"/>
        <path id="패스_7214" data-name="패스 7214" d="M0 220.259v71.479h1024v-71.479z" transform="translate(-325 -152.898)" style="fill:#37c1c4"/>
        <g id="그룹_3967" data-name="그룹 3967" transform="translate(52.502 34.71)">
            <g id="그룹_3966" data-name="그룹 3966">
                <path id="패스_7224" data-name="패스 7224" class="cls-4" d="M160.984 160.8a14.635 14.635 0 0 0-3.844-3.809 11.568 11.568 0 0 0-5-1.966.636.636 0 0 0-.691.574l-.275 3a.647.647 0 0 0-.022.11.636.636 0 0 0 .557.7 7.734 7.734 0 0 1 3.109 1.333c2.307 1.6 3.931 4.234 4.824 7.819a2.189 2.189 0 0 0 2.614 1.617l.054-.013a2.2 2.2 0 0 0 1.6-2.669 20.086 20.086 0 0 0-2.926-6.696zm1.138 8.757z" transform="translate(-130.756 -143.682)"/>
                <path id="패스_7225" data-name="패스 7225" class="cls-4" d="M164.59 126.1a2.187 2.187 0 0 0-1.545-.674 15.311 15.311 0 0 0-10.832 4.4 19.577 19.577 0 0 0-3.591 4.484 2.2 2.2 0 0 0 3.869 2.1 15.5 15.5 0 0 1 2.794-3.432 10.858 10.858 0 0 1 7.478-3.153H163a2.216 2.216 0 0 0 2.2-2.16 2.186 2.186 0 0 0-.61-1.565z" transform="translate(-129.031 -125.427)"/>
                <path id="패스_7226" data-name="패스 7226" class="cls-4" d="M170.669 151.058a1.566 1.566 0 0 0-.53-1.088 11.417 11.417 0 0 0-6.3-2.8 14.3 14.3 0 0 0-1.743-.1 18.311 18.311 0 0 0-4.351.56 25.27 25.27 0 0 0-6.444 2.6 1.581 1.581 0 1 0 1.646 2.7 20.389 20.389 0 0 1 9.139-2.694 8.682 8.682 0 0 1 5.955 2.1 1.581 1.581 0 0 0 2.627-1.277z" transform="translate(-130.38 -138.775)"/>
                <path id="패스_7227" data-name="패스 7227" class="cls-4" d="M118.192 167.494a2.205 2.205 0 0 0 1.6 2.669l.056.013a2.188 2.188 0 0 0 2.614-1.617c.894-3.586 2.517-6.216 4.824-7.819a7.741 7.741 0 0 1 3.11-1.333.635.635 0 0 0 .556-.7.611.611 0 0 0-.021-.11l-.275-3a.635.635 0 0 0-.691-.574 11.577 11.577 0 0 0-5 1.966 14.638 14.638 0 0 0-3.844 3.809 20.1 20.1 0 0 0-2.929 6.696zm1.8 2.062z" transform="translate(-110.384 -143.682)"/>
                <path id="패스_7228" data-name="패스 7228" class="cls-4" d="M111.055 126.1a2.188 2.188 0 0 1 1.545-.674 15.315 15.315 0 0 1 10.833 4.4 19.619 19.619 0 0 1 3.59 4.484 2.2 2.2 0 0 1-3.869 2.1 15.5 15.5 0 0 0-2.795-3.432 10.859 10.859 0 0 0-7.478-3.153H112.643a2.215 2.215 0 0 1-2.2-2.16 2.186 2.186 0 0 1 .612-1.565z" transform="translate(-105.643 -125.427)"/>
                <path id="패스_7229" data-name="패스 7229" class="cls-4" d="M97.923 150.655a1.626 1.626 0 0 1 .547-1.125 11.8 11.8 0 0 1 6.513-2.893 14.731 14.731 0 0 1 1.8-.109 18.911 18.911 0 0 1 4.5.58 26.068 26.068 0 0 1 6.661 2.688 1.635 1.635 0 0 1-1.7 2.792 21.072 21.072 0 0 0-9.447-2.786 8.974 8.974 0 0 0-6.156 2.173 1.634 1.634 0 0 1-2.716-1.32z" transform="translate(-97.92 -138.444)"/>
                <path id="사각형_1348" data-name="사각형 1348" transform="translate(17.504 11.675)" style="fill:#63422b" d="M0 0h4.827v59.8H0z"/>
                <path id="패스_7230" data-name="패스 7230" class="cls-6" d="M154.244 155.424a2.959 2.959 0 1 1-2.5-3.357 2.96 2.96 0 0 1 2.5 3.357z" transform="translate(-129.03 -141.84)"/>
                <path id="패스_7231" data-name="패스 7231" class="cls-6" d="M148.9 144.4a2.959 2.959 0 1 1-2.5-3.356 2.959 2.959 0 0 1 2.5 3.356z" transform="translate(-125.732 -135.042)"/>
                <path id="패스_7232" data-name="패스 7232" class="cls-6" d="M141.795 154.774a2.959 2.959 0 1 1-2.846-3.068 2.958 2.958 0 0 1 2.846 3.068z" transform="translate(-121.335 -141.635)"/>
            </g>
            <path id="선_213" data-name="선 213" class="cls-7" transform="translate(17.75 19.099)" d="m0 0 4.335 4.019"/>
            <path id="선_214" data-name="선 214" class="cls-7" transform="translate(17.75 23.118)" d="m0 0 4.335 4.019"/>
            <path id="선_215" data-name="선 215" class="cls-7" transform="translate(17.75 27.138)" d="m0 0 4.335 4.019"/>
            <path id="선_216" data-name="선 216" class="cls-7" transform="translate(17.75 31.157)" d="m0 0 4.335 4.02"/>
            <path id="선_217" data-name="선 217" class="cls-7" transform="translate(17.75 35.177)" d="m0 0 4.335 4.019"/>
            <path id="선_218" data-name="선 218" class="cls-7" transform="translate(17.75 39.196)" d="m0 0 4.335 4.019"/>
            <path id="선_219" data-name="선 219" class="cls-7" transform="translate(17.75 43.216)" d="m0 0 4.335 4.019"/>
            <path id="선_220" data-name="선 220" class="cls-7" transform="translate(17.75 47.235)" d="m0 0 4.335 4.019"/>
            <path id="선_221" data-name="선 221" class="cls-7" transform="translate(17.75 51.255)" d="m0 0 4.335 4.02"/>
            <path id="선_222" data-name="선 222" class="cls-7" transform="translate(17.753 19.099)" d="M4.335 0 0 4.019"/>
            <path id="선_223" data-name="선 223" class="cls-7" transform="translate(17.753 23.118)" d="M4.335 0 0 4.019"/>
            <path id="선_224" data-name="선 224" class="cls-7" transform="translate(17.753 27.138)" d="M4.335 0 0 4.019"/>
            <path id="선_225" data-name="선 225" class="cls-7" transform="translate(17.753 31.157)" d="M4.335 0 0 4.02"/>
            <path id="선_226" data-name="선 226" class="cls-7" transform="translate(17.753 35.177)" d="M4.335 0 0 4.019"/>
            <path id="선_227" data-name="선 227" class="cls-7" transform="translate(17.753 39.196)" d="M4.335 0 0 4.019"/>
            <path id="선_228" data-name="선 228" class="cls-7" transform="translate(17.753 43.216)" d="M4.335 0 0 4.019"/>
            <path id="선_229" data-name="선 229" class="cls-7" transform="translate(17.753 47.235)" d="M4.335 0 0 4.019"/>
            <path id="선_230" data-name="선 230" class="cls-7" transform="translate(17.753 51.255)" d="M4.335 0 0 4.02"/>
        </g>
        <g id="그룹_3973" data-name="그룹 3973" transform="translate(8.982 9.67)">
            <g id="그룹_3972" data-name="그룹 3972">
                <g id="그룹_3971" data-name="그룹 3971">
                    <path id="패스_7244" data-name="패스 7244" class="cls-8" d="M106 89.417a35.523 35.523 0 0 0-5.857-10.071 16.982 16.982 0 0 0-6.219-4.664 12.162 12.162 0 0 0-5.7-.914c-.217.02-.434.046-.646.077a8.159 8.159 0 0 0-1.907.5 2.4 2.4 0 0 0 1.294 4.578 2.434 2.434 0 0 0 .571-.16 4.052 4.052 0 0 1 .759-.178 7.137 7.137 0 0 1 3.8.529c3.594 1.487 6.866 5.672 9.463 12.1a2.4 2.4 0 1 0 4.445-1.8z" transform="translate(-54.327 -63.222)"/>
                    <path id="패스_7245" data-name="패스 7245" class="cls-8" d="M95.414 84.823a15.935 15.935 0 0 0-4.185-4.146 12.592 12.592 0 0 0-5.439-2.14.69.69 0 0 0-.752.625l-.3 3.266a.711.711 0 0 0-.023.119.692.692 0 0 0 .606.761 8.421 8.421 0 0 1 3.386 1.451c2.511 1.745 4.278 4.609 5.251 8.513a2.383 2.383 0 0 0 2.842 1.761l.06-.015a2.4 2.4 0 0 0 1.746-2.906 21.9 21.9 0 0 0-3.192-7.289zm1.239 9.534z" transform="translate(-54.638 -66.189)"/>
                    <path id="패스_7246" data-name="패스 7246" class="cls-8" d="M99.338 47.053a2.38 2.38 0 0 0-1.681-.735 16.674 16.674 0 0 0-11.793 4.788 21.3 21.3 0 0 0-3.908 4.881 2.4 2.4 0 0 0 4.211 2.291 16.874 16.874 0 0 1 3.042-3.737 11.826 11.826 0 0 1 8.141-3.433h.258a2.411 2.411 0 0 0 2.4-2.351 2.381 2.381 0 0 0-.67-1.704z" transform="translate(-52.759 -46.316)"/>
                    <path id="패스_7247" data-name="패스 7247" class="cls-8" d="M114.564 69.127a2.382 2.382 0 0 0-.8-1.65 17.316 17.316 0 0 0-9.553-4.243 21.57 21.57 0 0 0-2.642-.159 27.726 27.726 0 0 0-6.6.849 38.231 38.231 0 0 0-9.77 3.943 2.4 2.4 0 1 0 2.495 4.095c.066-.041 6.818-4.086 13.857-4.086a13.162 13.162 0 0 1 9.029 3.188 2.4 2.4 0 0 0 3.984-1.937z" transform="translate(-54.229 -56.653)"/>
                    <path id="패스_7248" data-name="패스 7248" class="cls-8" d="M28.571 89.417a35.515 35.515 0 0 1 5.857-10.071 16.974 16.974 0 0 1 6.218-4.664 12.163 12.163 0 0 1 5.7-.914c.216.02.433.046.645.077a8.159 8.159 0 0 1 1.907.5 2.4 2.4 0 0 1-1.293 4.578 2.44 2.44 0 0 1-.572-.16 4.023 4.023 0 0 0-.758-.178 7.139 7.139 0 0 0-3.8.529c-3.593 1.487-6.866 5.672-9.463 12.1a2.4 2.4 0 1 1-4.445-1.8z" transform="translate(-19.901 -63.222)"/>
                    <path id="패스_7249" data-name="패스 7249" class="cls-8" d="M48.827 92.112a2.4 2.4 0 0 0 1.746 2.906l.06.015a2.383 2.383 0 0 0 2.847-1.761c.972-3.9 2.738-6.768 5.25-8.513a8.424 8.424 0 0 1 3.386-1.451.693.693 0 0 0 .606-.761.676.676 0 0 0-.023-.119l-.3-3.266a.69.69 0 0 0-.752-.625 12.592 12.592 0 0 0-5.439 2.14 15.93 15.93 0 0 0-4.185 4.146 21.91 21.91 0 0 0-3.196 7.289zm1.957 2.245z" transform="translate(-32.459 -66.189)"/>
                    <path id="패스_7250" data-name="패스 7250" class="cls-8" d="M41.058 47.053a2.381 2.381 0 0 1 1.681-.735 16.675 16.675 0 0 1 11.793 4.788 21.349 21.349 0 0 1 3.909 4.881 2.4 2.4 0 0 1-4.212 2.291 16.9 16.9 0 0 0-3.043-3.737 11.822 11.822 0 0 0-8.141-3.433h-.258a2.411 2.411 0 0 1-2.4-2.351 2.38 2.38 0 0 1 .671-1.704z" transform="translate(-27.298 -46.316)"/>
                    <path id="패스_7251" data-name="패스 7251" class="cls-8" d="M6.229 69.127a2.385 2.385 0 0 1 .8-1.65 17.316 17.316 0 0 1 9.553-4.243 21.568 21.568 0 0 1 2.643-.159 27.739 27.739 0 0 1 6.6.849 38.218 38.218 0 0 1 9.769 3.943 2.4 2.4 0 1 1-2.494 4.095c-.067-.041-6.818-4.086-13.858-4.086a13.164 13.164 0 0 0-9.029 3.188 2.4 2.4 0 0 1-3.984-1.937z" transform="translate(-6.225 -56.653)"/>
                    <path id="사각형_1349" data-name="사각형 1349" transform="translate(26.923 12.71)" style="fill:#604431" d="M0 0h5.255v70.16H0z"/>
                    <path id="패스_7252" data-name="패스 7252" class="cls-10" d="M88.076 78.972a3.222 3.222 0 1 1-2.722-3.654 3.222 3.222 0 0 1 2.722 3.654z" transform="translate(-52.76 -64.184)"/>
                    <path id="패스_7253" data-name="패스 7253" class="cls-10" d="M82.253 66.974a3.222 3.222 0 1 1-2.722-3.653 3.222 3.222 0 0 1 2.722 3.653z" transform="translate(-49.168 -56.784)"/>
                    <path id="패스_7254" data-name="패스 7254" class="cls-10" d="M74.522 78.264a3.222 3.222 0 1 1-3.1-3.34 3.222 3.222 0 0 1 3.1 3.34z" transform="translate(-44.379 -63.961)"/>
                </g>
                <path id="선_231" data-name="선 231" class="cls-11" transform="translate(26.922 19.383)" d="M5.206 0 0 4.803"/>
                <path id="선_232" data-name="선 232" class="cls-11" transform="translate(26.922 24.91)" d="M5.206 0 0 4.803"/>
                <path id="선_233" data-name="선 233" class="cls-11" transform="translate(26.922 30.437)" d="M5.206 0 0 4.803"/>
                <path id="선_234" data-name="선 234" class="cls-11" transform="translate(26.922 35.964)" d="M5.206 0 0 4.803"/>
                <path id="선_235" data-name="선 235" class="cls-11" transform="translate(26.922 41.491)" d="M5.206 0 0 4.803"/>
                <path id="선_236" data-name="선 236" class="cls-11" transform="translate(26.884 19.383)" d="m0 0 5.206 4.803"/>
                <path id="선_237" data-name="선 237" class="cls-11" transform="translate(26.884 24.91)" d="m0 0 5.206 4.803"/>
                <path id="선_238" data-name="선 238" class="cls-11" transform="translate(26.884 30.437)" d="m0 0 5.206 4.803"/>
                <path id="선_239" data-name="선 239" class="cls-11" transform="translate(26.884 35.964)" d="m0 0 5.206 4.803"/>
                <path id="선_240" data-name="선 240" class="cls-11" transform="translate(26.884 41.491)" d="m0 0 5.206 4.803"/>
            </g>
            <path id="선_241" data-name="선 241" class="cls-11" transform="translate(26.967 47.295)" d="M5.206 0 0 4.803"/>
            <path id="선_242" data-name="선 242" class="cls-11" transform="translate(26.967 52.822)" d="M5.206 0 0 4.803"/>
            <path id="선_243" data-name="선 243" class="cls-11" transform="translate(26.967 58.349)" d="M5.206 0 0 4.803"/>
            <path id="선_244" data-name="선 244" class="cls-11" transform="translate(26.928 47.295)" d="m0 0 5.206 4.803"/>
            <path id="선_245" data-name="선 245" class="cls-11" transform="translate(26.928 52.822)" d="m0 0 5.206 4.803"/>
            <path id="선_246" data-name="선 246" class="cls-11" transform="translate(26.928 58.349)" d="m0 0 5.206 4.803"/>
        </g>
        <path id="패스_7255" data-name="패스 7255" d="M24.846 210.731c-21.01 0-77.106 11.613-125.87 9.581S-325 194.647-325 194.647v92.993L.279 269.475H105l43.606-26.364c-45.322-27.351-102.75-32.38-123.76-32.38z" transform="translate(0 -148.905)" style="fill:#f1c796"/>
        <g id="그룹_3965" data-name="그룹 3965" transform="translate(304.959 28.99)">
            <path id="패스_7215" data-name="패스 7215" class="cls-8" d="M546.588 135.509a20.807 20.807 0 0 0-5.464-5.415 16.427 16.427 0 0 0-7.1-2.794.9.9 0 0 0-.982.817l-.391 4.264a.9.9 0 0 0-.031.156.9.9 0 0 0 .791.994 11.007 11.007 0 0 1 4.421 1.895c3.279 2.278 5.586 6.018 6.857 11.116a3.112 3.112 0 0 0 3.716 2.3l.078-.019a3.133 3.133 0 0 0 2.281-3.794 28.56 28.56 0 0 0-4.176-9.52zm1.619 12.449z" transform="translate(-504.127 -118.676)"/>
            <path id="패스_7216" data-name="패스 7216" class="cls-8" d="M560.075 118.6a3.111 3.111 0 0 0-1.22-2.062 21.771 21.771 0 0 0-16.146-3.937 27.813 27.813 0 0 0-7.868 2.184 3.13 3.13 0 0 0 2.71 5.644 22.015 22.015 0 0 1 6.076-1.633 15.436 15.436 0 0 1 11.243 2.584q.114.081.227.167l.044.032a3.148 3.148 0 0 0 4.338-.657 3.111 3.111 0 0 0 .596-2.322z" transform="translate(-504.328 -112.076)"/>
            <path id="패스_7217" data-name="패스 7217" class="cls-8" d="M500.43 145.026a3.134 3.134 0 0 0 2.28 3.794l.079.019a3.112 3.112 0 0 0 3.716-2.3c1.271-5.1 3.578-8.837 6.857-11.116a11.007 11.007 0 0 1 4.421-1.895.9.9 0 0 0 .791-.994.948.948 0 0 0-.031-.156l-.392-4.264a.9.9 0 0 0-.982-.817 16.435 16.435 0 0 0-7.1 2.794 20.816 20.816 0 0 0-5.464 5.415 28.572 28.572 0 0 0-4.175 9.52zm2.555 2.931z" transform="translate(-489.84 -118.676)"/>
            <path id="패스_7218" data-name="패스 7218" class="cls-8" d="M481.666 115.8a3.116 3.116 0 0 1 1.57-1.811 21.775 21.775 0 0 1 16.591-.983 27.843 27.843 0 0 1 7.35 3.558 3.13 3.13 0 0 1-3.677 5.067 22.045 22.045 0 0 0-5.686-2.694 15.436 15.436 0 0 0-11.524.528c-.085.04-.168.081-.254.124l-.048.024a3.149 3.149 0 0 1-4.15-1.423 3.107 3.107 0 0 1-.172-2.39z" transform="translate(-481.504 -111.829)"/>
            <path id="패스_7219" data-name="패스 7219" class="cls-8" d="M483.037 136.263a3.113 3.113 0 0 1 .449-2.354 21.776 21.776 0 0 1 13.861-9.172 27.851 27.851 0 0 1 8.143-.609 3.131 3.131 0 0 1-.639 6.228 22.025 22.025 0 0 0-6.27.521 15.442 15.442 0 0 0-9.705 6.237c-.053.077-.1.155-.158.235l-.03.045a3.149 3.149 0 0 1-4.3.851 3.107 3.107 0 0 1-1.351-1.982z" transform="translate(-482.153 -117.24)"/>
            <path id="패스_7220" data-name="패스 7220" class="cls-8" d="M561.449 136.263a3.116 3.116 0 0 0-.45-2.354 21.775 21.775 0 0 0-13.86-9.172 27.85 27.85 0 0 0-8.143-.609 3.131 3.131 0 0 0 .639 6.228 22.026 22.026 0 0 1 6.27.521 15.441 15.441 0 0 1 9.7 6.237c.054.077.105.155.158.235l.03.045a3.149 3.149 0 0 0 4.3.851 3.109 3.109 0 0 0 1.356-1.982z" transform="translate(-505.71 -117.24)"/>
            <path id="사각형_1347" data-name="사각형 1347" transform="translate(24.372 9.097)" style="fill:#8a5d3b" d="M0 0h6.862v85.009H0z"/>
            <path id="패스_7221" data-name="패스 7221" class="cls-10" d="M538.249 129.195a4.207 4.207 0 1 1-3.554-4.772 4.206 4.206 0 0 1 3.554 4.772z" transform="translate(-502.917 -117.384)"/>
            <path id="패스_7222" data-name="패스 7222" class="cls-10" d="M533.023 118.423a4.207 4.207 0 1 1-3.555-4.771 4.207 4.207 0 0 1 3.555 4.771z" transform="translate(-500.604 -112.616)"/>
            <path id="패스_7223" data-name="패스 7223" class="cls-10" d="M526.095 128.418a4.206 4.206 0 1 1-4.046-4.361 4.206 4.206 0 0 1 4.046 4.361z" transform="translate(-497.519 -117.24)"/>
            <path id="선_195" data-name="선 195" class="cls-14" transform="translate(24.372 16.636)" d="M6.862 0 0 5.992"/>
            <path id="선_196" data-name="선 196" class="cls-14" transform="translate(24.372 23.675)" d="M6.862 0 0 5.992"/>
            <path id="선_197" data-name="선 197" class="cls-14" transform="translate(24.372 30.714)" d="M6.862 0 0 5.992"/>
            <path id="선_198" data-name="선 198" class="cls-14" transform="translate(24.372 37.753)" d="M6.862 0 0 5.992"/>
            <path id="선_199" data-name="선 199" class="cls-14" transform="translate(24.372 44.792)" d="M6.862 0 0 5.992"/>
            <path id="선_200" data-name="선 200" class="cls-14" transform="translate(24.372 51.831)" d="M6.862 0 0 5.992"/>
            <path id="선_201" data-name="선 201" class="cls-14" transform="translate(24.372 58.87)" d="M6.862 0 0 5.992"/>
            <path id="선_202" data-name="선 202" class="cls-14" transform="translate(24.372 65.909)" d="M6.862 0 0 5.992"/>
            <path id="선_203" data-name="선 203" class="cls-14" transform="translate(24.372 72.948)" d="M6.862 0 0 5.992"/>
            <path id="선_204" data-name="선 204" class="cls-14" transform="translate(24.559 16.636)" d="m0 0 6.862 5.992"/>
            <path id="선_205" data-name="선 205" class="cls-14" transform="translate(24.559 23.675)" d="m0 0 6.862 5.992"/>
            <path id="선_206" data-name="선 206" class="cls-14" transform="translate(24.559 30.714)" d="m0 0 6.862 5.992"/>
            <path id="선_207" data-name="선 207" class="cls-14" transform="translate(24.559 37.753)" d="m0 0 6.862 5.992"/>
            <path id="선_208" data-name="선 208" class="cls-14" transform="translate(24.559 44.792)" d="m0 0 6.862 5.992"/>
            <path id="선_209" data-name="선 209" class="cls-14" transform="translate(24.559 51.831)" d="m0 0 6.862 5.992"/>
            <path id="선_210" data-name="선 210" class="cls-14" transform="translate(24.559 58.87)" d="m0 0 6.862 5.992"/>
            <path id="선_211" data-name="선 211" class="cls-14" transform="translate(24.559 65.909)" d="m0 0 6.862 5.992"/>
            <path id="선_212" data-name="선 212" class="cls-14" transform="translate(24.559 72.948)" d="m0 0 6.862 5.992"/>
        </g>
        <g id="그룹_3968" data-name="그룹 3968" transform="translate(128.09 12.282)">
            <path id="패스_7233" data-name="패스 7233" class="cls-15" d="M204.147 52.04a12.888 12.888 0 0 0 4.58.238 5.182 5.182 0 0 1 2.6-1.292l.2-.094 1.671-1.027 1.366-.679c.646.658 2.188.414 2.188.414a2.468 2.468 0 0 1 1.716.282 1.939 1.939 0 0 1 1.1 2.456 1.94 1.94 0 0 1-2.661.395c-.06-.033-.118-.068-.174-.1a4.68 4.68 0 0 1-3.017 3.132 6.442 6.442 0 0 1-1.809.471l-.965 2.5s-4.818-.1-5.981-3.579a7.9 7.9 0 0 1-.814-3.117z" transform="translate(-203.634 -30.483)"/>
            <path id="패스_7234" data-name="패스 7234" class="cls-16" d="M226.761 51.591a.142.142 0 0 0 .028.2.125.125 0 1 0-.028-.2z" transform="translate(-211.991 -31.361)"/>
            <path id="패스_7235" data-name="패스 7235" class="cls-15" d="M214.664 38.466s.382-6.521-1.012-9.061c0 0-2.761-5.733-10.321-9.909 0 0 3.943 7.729 4.749 10.438 0 0 1.281 7.147.914 11.678z" transform="translate(-203.332 -19.496)"/>
            <path id="패스_7236" data-name="패스 7236" class="cls-15" d="M221.07 54.667s4.858.669 6.6 2.083a21.009 21.009 0 0 1 6.29 9.178 88.242 88.242 0 0 0-7.241-5.084s-5.673-2.6-9.059-2.99z" transform="translate(-208.633 -32.511)"/>
            <path id="패스_7237" data-name="패스 7237" class="cls-17" d="M227.416 54.089a1.9 1.9 0 0 1 1.067 1.656 13.863 13.863 0 0 0-1.382-1.326z" transform="translate(-212.128 -32.297)"/>
        </g>
        <g id="그룹_3970" data-name="그룹 3970" transform="translate(227.512 60.564)">
            <g id="그룹_3969" data-name="그룹 3969">
                <path id="패스_7238" data-name="패스 7238" class="cls-15" d="M391.089 118.955s-9.209-6.715-11.725-6.434l-18.209-2.909s10.392 5 17.562 6.7c0 0 7.406 2.891 8.962 6.336z" transform="translate(-361.155 -109.612)"/>
                <path id="패스_7239" data-name="패스 7239" class="cls-15" d="M409.571 125.789s8.59-1.884 11.71-.4c0 0 9.336 5.351 10.807 5.747 0 0-4.441.77-13.043-2.377 0 0-7.319-1.564-10.12.049z" transform="translate(-378.832 -115.24)"/>
                <path id="패스_7240" data-name="패스 7240" class="cls-15" d="m395.22 132.774-3.736-2.28a7.64 7.64 0 0 0 4.11-1.742c3.432-4.83 6.33-4.7 6.332-4.7a7.852 7.852 0 0 1 1.495-.362c1.17.05 2.094.734 2.059 1.53a1.437 1.437 0 0 1-1.066 1.184 2.954 2.954 0 0 1-.413.941c-1.729 2.664-7.314 3.442-7.314 3.442a7.035 7.035 0 0 0-1.467 1.987z" transform="translate(-372.378 -114.821)"/>
            </g>
            <path id="패스_7241" data-name="패스 7241" class="cls-17" d="M412.766 126.3a1.26 1.26 0 0 1 1.1.706 9.238 9.238 0 0 0-1.2-.42z" transform="translate(-380.216 -115.786)"/>
            <path id="패스_7242" data-name="패스 7242" class="cls-16" d="M411.037 125.4a.108.108 0 0 0 .159.135.107.107 0 0 0-.159-.135z" transform="translate(-379.608 -115.446)"/>
        </g>
        <path id="패스_7243" data-name="패스 7243" class="cls-18" d="M144.362 255.572c-61.962-2.74-93.777-25.008-218.032 3.907l123.3 45.173h137.063l110.781-14.819c-99.051-27.733-91.151-31.52-153.112-34.261z" transform="translate(38.635 -162.93)"/>
        <path id="패스_7256" data-name="패스 7256" class="cls-18" d="M520.665 272.7c-85.089-5.673-109.287 22.062-142.109 23.625l50.62 24.261h104.638l251.891 7.779-24.226-35.165c-132.069-3.125-155.725-14.824-240.814-20.5z" transform="translate(-158.814 -172.441)"/>
        <path id="패스_7257" data-name="패스 7257" d="M266.654 285.216c-53.109-2.539-76.186 5.322-104.09 8.032-26.939 2.617-52.167-1.145-76.136-9.224-11.589-3.907-31.425-12.531-48.7-17.61-23.366-5.08-62-9.34-119.878-7.112S-214.217 278.6-325 290.285v306.99H699v-306.99c-143.584-15.17-270.422 12.36-311.3 11.88s-67.937-14.41-121.046-16.949z" transform="translate(0 -166.437)" style="fill:#f8e4c2"/>
        <ellipse id="타원_437" data-name="타원 437" class="cls-18" cx="35.923" cy="5.764" rx="35.923" ry="5.764" transform="translate(16.42 122.104)"/>
        <g id="그룹_3975" data-name="그룹 3975" transform="translate(4.389 62.816)">
            <path id="패스_7260" data-name="패스 7260" class="cls-1" d="M59.843 241.972a1.875 1.875 0 0 0 2.465.966l.081-.035a1.872 1.872 0 0 0 .966-2.466 1.871 1.871 0 0 0-2.464-.966l-.081.035a1.875 1.875 0 0 0-.966 2.467z" transform="translate(-34.018 -239.191)"/>
            <path id="패스_7261" data-name="패스 7261" class="cls-21" d="M95.036 316.666a.679.679 0 0 0 .839.442.68.68 0 0 0 .247-.915l-21.986-50.326a.68.68 0 0 0-.84-.442.675.675 0 0 0-.244.915z" transform="translate(-38.935 -248.839)"/>
            <g id="그룹_3974" data-name="그룹 3974">
                <path id="패스_7262" data-name="패스 7262" class="cls-22" d="m63.234 242.223.025.056a18.9 18.9 0 0 1 1.63-.462c11.3-2.7 28.056 3.266 34.929 6.034a33.444 33.444 0 0 0 5.04-5.113c-7.423-2.116-26.1-6.417-40.5-.966-.378.142-.758.29-1.124.451z" transform="translate(-35.331 -239.12)"/>
                <path id="패스_7263" data-name="패스 7263" class="cls-22" d="m63.274 244.085 9.31 21.311a156.8 156.8 0 0 0 17.477-8.91c-3.61-3.025-11.373-8.965-19.427-11.614a.215.215 0 0 0-.042-.013 20.184 20.184 0 0 0-7.318-.774z" transform="translate(-35.346 -240.925)"/>
                <path id="패스_7264" data-name="패스 7264" class="cls-21" d="M63.274 243.462a20.184 20.184 0 0 1 7.319.774.215.215 0 0 1 .042.013c8.053 2.649 15.817 8.589 19.427 11.614a77.271 77.271 0 0 0 9.771-6.829C92.96 246.266 76.2 240.3 64.9 243c-.556.131-1.1.287-1.626.462z" transform="translate(-35.346 -240.303)"/>
                <path id="패스_7265" data-name="패스 7265" class="cls-21" d="m46.843 244.046.025.056c-.488.269-.973.563-1.451.879-9.653 6.461-16.665 22.809-19.3 29.729a33.419 33.419 0 0 1-7.178.225c3.489-6.884 13.021-23.5 26.806-30.37.362-.181.727-.358 1.098-.519z" transform="translate(-18.94 -240.943)"/>
                <path id="패스_7266" data-name="패스 7266" class="cls-21" d="m57.928 244.135 9.31 21.311a157.1 157.1 0 0 1-18.412 6.769c.23-4.7 1.149-14.434 4.674-22.142l.021-.041a20.129 20.129 0 0 1 4.407-5.897z" transform="translate(-29.999 -240.976)"/>
                <path id="패스_7267" data-name="패스 7267" class="cls-22" d="M51.085 244.135a20.129 20.129 0 0 0-4.407 5.9l-.021.041c-3.525 7.707-4.444 17.44-4.674 22.142a76.988 76.988 0 0 1-11.649 2.529c2.634-6.921 9.647-23.269 19.3-29.729.478-.318.966-.618 1.451-.883z" transform="translate(-23.157 -240.976)"/>
            </g>
            <path id="패스_7268" data-name="패스 7268" class="cls-21" d="M60.908 244.034c.227.52.569.153 1.09-.074l1.028-.449c.52-.229 1.023-.23.794-.751a1.027 1.027 0 0 0-1.353-.532l-1.026.449a1.028 1.028 0 0 0-.534 1.356z" transform="translate(-34.438 -240.238)"/>
        </g>
        <g id="그룹_3976" data-name="그룹 3976" transform="translate(23.241 109.579)">
            <path id="패스_7269" data-name="패스 7269" class="cls-23" d="M147.742 327.424c-.191-.366-.76-.537-1.306-.72a3.6 3.6 0 0 1-1.575-2.378c.668-3.268-1.1-4.133-1.1-4.133.316-.766.636-1.547.888-2.351a7.161 7.161 0 0 0 .549-2.056 1.416 1.416 0 0 0-.255.147c-.738.45-2.873 1.918-3.394 4.121a2.773 2.773 0 0 0-.1.934 4.3 4.3 0 0 0 1.077 2.556s-.307 2.626 3.381 4.38c.055.041.11.079.165.118.66.466 1.4.861 1.679 0a1.409 1.409 0 0 0 .043-.159.644.644 0 0 0-.052-.459z" transform="translate(-139.946 -315.786)"/>
            <path id="패스_7270" data-name="패스 7270" class="cls-23" d="M166.849 331.017a2.355 2.355 0 0 1 1.542-.015 3.722 3.722 0 0 0 2.6-1.4c.992-3.3 3.028-3.223 3.028-3.223.089-.852.18-1.72.343-2.575a7.4 7.4 0 0 1 .508-2.141 1.478 1.478 0 0 1 .159.258c.452.771 1.678 3.153 1.074 5.414a2.783 2.783 0 0 1-.365.9 4.461 4.461 0 0 1-2.233 1.8s-1 2.541-5.223 2.333l-.209.028c-.827.1-1.691.1-1.528-.825.009-.052.022-.108.038-.166a.668.668 0 0 1 .266-.388z" transform="translate(-149.229 -317.963)"/>
            <path id="패스_7271" data-name="패스 7271" class="cls-23" d="M148.508 337.273a.281.281 0 0 0-.011-.028c-.12-.233-.6-.126-.774-.26a4 4 0 0 1-1.5-.6c-.259-.154-.514-.318-.765-.474l.038.006c-2.28-1.572-2.4-.379-2.4-.379a.548.548 0 0 1-.164.148.847.847 0 0 1-.162.07c-3.954.35-3.7 2.856-3.7 2.856l.009-.006a.785.785 0 0 0 .069.27 4.6 4.6 0 0 0 2.765 1.849 10.039 10.039 0 0 1-1.986-2.086 7.516 7.516 0 0 0 3.017-1.953 3.66 3.66 0 0 0 1.2.769l.059.029c.025.01.059.021.1.035a5.137 5.137 0 0 0 1.5.317 5.811 5.811 0 0 0 2.408.023.654.654 0 0 0 .207-.119.381.381 0 0 0 .09-.467z" transform="translate(-139.069 -322.933)"/>
            <path id="패스_7272" data-name="패스 7272" class="cls-23" d="M162.362 340.632a.163.163 0 0 1 .023-.019c.217-.149.586.171.8.138a4 4 0 0 0 1.6.174c.3-.013.6-.036.9-.054l-.037-.013c2.754-.306 2.294.8 2.294.8a.526.526 0 0 0 .074.207.758.758 0 0 0 .11.139c3.317 2.18 1.909 4.269 1.909 4.269v-.01a.8.8 0 0 1-.188.205 4.6 4.6 0 0 1-3.312.319 10.05 10.05 0 0 0 2.738-.9 7.5 7.5 0 0 1-1.733-3.149 3.65 3.65 0 0 1-1.417.11h-.067c-.026 0-.062-.009-.1-.018a5.151 5.151 0 0 1-1.472-.431 5.829 5.829 0 0 1-2.132-1.121.672.672 0 0 1-.127-.2.381.381 0 0 1 .137-.446z" transform="translate(-147.626 -324.958)"/>
            <path id="패스_7273" data-name="패스 7273" class="cls-23" d="M164.091 329.182c.483-1.916-2.817-3.839-7.207-4.944s-8.206-.974-8.688.942l-.013.064c-.005.022-.014.04-.019.061 0 0-1.12 4.451.614 5.555a2.3 2.3 0 0 0 1.548 3.526l3.765.949 3.765.947a2.3 2.3 0 0 0 3.031-2.373c2.052-.152 3.172-4.6 3.172-4.6l.013-.064c.005-.022.014-.045.019-.063z" transform="translate(-142.303 -318.655)"/>
            <path id="패스_7274" data-name="패스 7274" class="cls-23" d="M165.73 324.246a8.418 8.418 0 0 1-1.675 1.592.455.455 0 0 0 .362.5 2.339 2.339 0 0 0 1.279-.413z" transform="translate(-148.313 -318.917)"/>
            <path id="패스_7275" data-name="패스 7275" class="cls-23" d="M157.991 322.161a8.444 8.444 0 0 0 .723 2.2.457.457 0 0 1-.558.27s-.783-.462-.93-.97z" transform="translate(-145.788 -318.145)"/>
            <path id="패스_7276" data-name="패스 7276" class="cls-16" d="M166.3 324.578c-.143.569-.021 1.091.273 1.165s.651-.327.794-.9.021-1.091-.274-1.166-.645.333-.793.901z" transform="translate(-149.125 -318.704)"/>
            <path id="패스_7277" data-name="패스 7277" class="cls-15" d="M167.356 324.495c-.033.134.006.259.088.28s.176-.071.21-.2-.006-.258-.088-.278-.176.065-.21.198z" transform="translate(-149.532 -318.932)"/>
            <path id="패스_7278" data-name="패스 7278" class="cls-16" d="M157.7 322.412c-.142.569-.5.971-.794.9s-.416-.6-.273-1.165.5-.971.792-.9.421.596.275 1.165z" transform="translate(-145.547 -317.804)"/>
            <path id="패스_7279" data-name="패스 7279" class="cls-15" d="M157.514 322.017c-.033.134-.128.226-.208.2s-.12-.146-.086-.278.126-.225.208-.2.119.145.086.278z" transform="translate(-145.781 -317.988)"/>
        </g>
        <g id="그룹_4013" data-name="그룹 4013" transform="translate(15.815 218.103)">
            <path id="패스_7411" data-name="패스 7411" class="cls-23" d="M437.756 787.144c-.285-.321-.9-.348-1.5-.4a3.74 3.74 0 0 1-2.19-2c-.156-3.464-2.161-3.885-2.161-3.885.125-.851.249-1.719.3-2.595a7.458 7.458 0 0 0 .032-2.211 1.423 1.423 0 0 0-.22.212c-.63.641-2.41 2.663-2.375 5.016a2.839 2.839 0 0 0 .134.968 4.46 4.46 0 0 0 1.734 2.3s.357 2.725 4.519 3.556c.066.027.13.053.2.078.782.3 1.625.513 1.692-.427a1.714 1.714 0 0 0 0-.172.674.674 0 0 0-.165-.44z" transform="translate(-429.64 -774.62)"/>
            <path id="패스_7412" data-name="패스 7412" class="cls-23" d="M458.713 785.234c.295-.331.932-.359 1.551-.408a3.87 3.87 0 0 0 2.263-2.066c.162-3.579 2.234-4.015 2.234-4.015-.127-.881-.255-1.779-.308-2.683a7.7 7.7 0 0 1-.03-2.288 1.593 1.593 0 0 1 .226.221c.651.662 2.491 2.752 2.457 5.184a2.91 2.91 0 0 1-.138 1 4.632 4.632 0 0 1-1.795 2.38s-.367 2.817-4.671 3.677l-.2.082c-.808.311-1.68.528-1.749-.443 0-.055-.005-.115 0-.178a.691.691 0 0 1 .16-.463z" transform="translate(-440.336 -773.774)"/>
            <path id="패스_7413" data-name="패스 7413" class="cls-23" d="M440.8 796.726a.266.266 0 0 0-.018-.025c-.181-.2-.634.025-.847-.065a4.177 4.177 0 0 1-1.661-.231c-.3-.089-.6-.19-.891-.283h.04c-2.7-1-2.515.227-2.515.227a.556.556 0 0 1-.129.192.846.846 0 0 1-.144.111c-3.9 1.356-3.008 3.817-3.008 3.817l.007-.008a.8.8 0 0 0 .139.255 4.777 4.777 0 0 0 3.255 1.162 10.525 10.525 0 0 1-2.531-1.6 7.818 7.818 0 0 0 2.544-2.735 3.781 3.781 0 0 0 1.4.472l.067.014c.027 0 .064.007.11.009a5.389 5.389 0 0 0 1.592-.061 6.048 6.048 0 0 0 2.434-.588.681.681 0 0 0 .179-.173.4.4 0 0 0-.023-.49z" transform="translate(-430.345 -781.896)"/>
            <path id="패스_7414" data-name="패스 7414" class="cls-23" d="m455.193 796.726.019-.025c.18-.2.634.025.845-.065a4.163 4.163 0 0 0 1.66-.231c.3-.089.6-.19.894-.283h-.04c2.7-1 2.515.227 2.515.227a.543.543 0 0 0 .127.192.789.789 0 0 0 .146.111c3.9 1.356 3.007 3.817 3.007 3.817l-.007-.008a.816.816 0 0 1-.139.255 4.78 4.78 0 0 1-3.256 1.162 10.533 10.533 0 0 0 2.532-1.6 7.806 7.806 0 0 1-2.546-2.735 3.768 3.768 0 0 1-1.4.472l-.067.014c-.027 0-.065.007-.11.009a5.394 5.394 0 0 1-1.593-.061 6.048 6.048 0 0 1-2.434-.588.7.7 0 0 1-.179-.173.4.4 0 0 1 .026-.49z" transform="translate(-439.059 -781.896)"/>
            <path id="패스_7415" data-name="패스 7415" class="cls-24" d="M454.455 784.387c0-2.053-3.814-3.154-8.518-3.154s-8.518 1.1-8.518 3.154v.134s0 4.769 2.028 5.443a2.387 2.387 0 0 0 2.454 3.16h8.07a2.388 2.388 0 0 0 2.454-3.16c2.028-.674 2.028-5.443 2.028-5.443v-.066l.002-.068z" transform="translate(-432.519 -776.534)"/>
            <path id="패스_7416" data-name="패스 7416" class="cls-24" d="M454.62 779.684a8.75 8.75 0 0 1-1.284 2.031.474.474 0 0 0 .492.414 2.427 2.427 0 0 0 1.184-.741z" transform="translate(-438.409 -775.961)"/>
            <path id="패스_7417" data-name="패스 7417" class="cls-24" d="M446.275 779.684a8.75 8.75 0 0 0 1.286 2.031.476.476 0 0 1-.494.414 2.425 2.425 0 0 1-1.183-.741z" transform="translate(-435.651 -775.961)"/>
            <path id="패스_7418" data-name="패스 7418" class="cls-16" d="M455.215 780c0 .609.255 1.1.571 1.1s.573-.495.573-1.1-.256-1.106-.573-1.106-.571.499-.571 1.106z" transform="translate(-439.104 -775.67)"/>
            <path id="패스_7419" data-name="패스 7419" class="cls-15" d="M456.121 779.744c0 .142.072.259.159.259s.16-.117.16-.259-.072-.259-.16-.259-.159.115-.159.259z" transform="translate(-439.439 -775.887)"/>
            <path id="패스_7420" data-name="패스 7420" class="cls-16" d="M445.995 780c0 .609-.256 1.1-.573 1.1s-.571-.495-.571-1.1.256-1.106.571-1.106.573.499.573 1.106z" transform="translate(-435.269 -775.67)"/>
            <path id="패스_7421" data-name="패스 7421" class="cls-15" d="M445.572 779.744c0 .142-.071.259-.158.259s-.158-.117-.158-.259.071-.259.158-.259.158.115.158.259z" transform="translate(-435.419 -775.887)"/>
        </g>
        <g id="그룹_4450" data-name="그룹 4450" transform="translate(625.241 346.859)">
            <path id="패스_7411-2" data-name="패스 7411" class="cls-23" d="M441.151 791.779c-.4-.455-1.278-.493-2.126-.562a5.3 5.3 0 0 1-3.105-2.83c-.222-4.912-3.064-5.51-3.064-5.51.178-1.207.353-2.438.423-3.68a10.576 10.576 0 0 0 .046-3.136 2.021 2.021 0 0 0-.312.3c-.893.909-3.418 3.776-3.368 7.113a4.029 4.029 0 0 0 .19 1.373 6.324 6.324 0 0 0 2.46 3.265s.506 3.864 6.408 5.043c.094.038.184.075.279.111 1.11.43 2.3.727 2.4-.6a2.438 2.438 0 0 0 .005-.244.955.955 0 0 0-.236-.643z" transform="translate(-429.64 -774.018)"/>
            <path id="패스_7412-2" data-name="패스 7412" class="cls-23" d="M458.783 790.026c.418-.47 1.321-.509 2.2-.578a5.488 5.488 0 0 0 3.209-2.93c.23-5.076 3.169-5.694 3.169-5.694-.18-1.25-.362-2.523-.437-3.8-.02-.927-.348-2.392-.043-3.245a2.254 2.254 0 0 1 .32.314c.924.939 3.533 3.9 3.484 7.353a4.127 4.127 0 0 1-.2 1.42 6.569 6.569 0 0 1-2.545 3.375s-.521 4-6.625 5.215c-.095.038-.19.078-.289.116-1.145.44-2.383.749-2.48-.628-.005-.079-.007-.163-.005-.252a.98.98 0 0 1 .242-.666z" transform="translate(-432.722 -773.775)"/>
            <path id="패스_7413-2" data-name="패스 7413" class="cls-23" d="M444.673 797.145a.382.382 0 0 0-.026-.036c-.256-.29-.9.036-1.2-.092a5.923 5.923 0 0 1-2.356-.328c-.423-.126-.85-.27-1.263-.4l.057-.006c-3.825-1.425-3.567.323-3.567.323a.788.788 0 0 1-.182.272 1.2 1.2 0 0 1-.2.158c-5.527 1.923-4.266 5.413-4.266 5.413l.01-.012a1.139 1.139 0 0 0 .2.361c1.092 1.253 3.087 1.538 4.616 1.648a14.919 14.919 0 0 1-3.589-2.267 11.087 11.087 0 0 0 3.608-3.879 5.364 5.364 0 0 0 1.987.669l.1.021c.038.006.091.01.156.013a7.643 7.643 0 0 0 2.258-.087 8.576 8.576 0 0 0 3.451-.834.967.967 0 0 0 .254-.245.565.565 0 0 0-.048-.692z" transform="translate(-429.843 -776.115)"/>
            <path id="패스_7414-2" data-name="패스 7414" class="cls-23" d="M455.234 797.145c.008-.013.019-.024.027-.036.255-.29.9.036 1.2-.092a5.9 5.9 0 0 0 2.354-.328c.425-.126.851-.27 1.268-.4l-.057-.006c3.825-1.425 3.566.323 3.566.323a.769.769 0 0 0 .18.272 1.119 1.119 0 0 0 .206.158c5.525 1.923 4.265 5.413 4.265 5.413l-.01-.012a1.158 1.158 0 0 1-.2.361c-1.091 1.253-3.089 1.538-4.618 1.648a14.931 14.931 0 0 0 3.591-2.267 11.071 11.071 0 0 1-3.61-3.879 5.346 5.346 0 0 1-1.986.669l-.1.021c-.038.006-.092.01-.155.013a7.65 7.65 0 0 1-2.259-.087 8.576 8.576 0 0 1-3.451-.834 1 1 0 0 1-.254-.245.562.562 0 0 1 .043-.692z" transform="translate(-432.354 -776.115)"/>
            <path id="패스_7415-2" data-name="패스 7415" class="cls-24" d="M461.579 785.705c0-2.912-5.409-4.472-12.08-4.472s-12.08 1.561-12.08 4.472c0 .031 0 .064.005.1s-.005.061-.005.094c0 0 0 6.764 2.876 7.72a3.386 3.386 0 0 0 3.481 4.482h11.445a3.387 3.387 0 0 0 3.481-4.482c2.877-.956 2.877-7.72 2.877-7.72 0-.033 0-.064-.006-.094s.006-.068.006-.1z" transform="translate(-430.47 -774.57)"/>
            <path id="패스_7416-2" data-name="패스 7416" class="cls-24" d="M455.158 779.684a12.408 12.408 0 0 1-1.822 2.88.672.672 0 0 0 .7.587 3.442 3.442 0 0 0 1.68-1.051z" transform="translate(-432.166 -774.405)"/>
            <path id="패스_7417-2" data-name="패스 7417" class="cls-24" d="M446.439 779.684a12.407 12.407 0 0 0 1.823 2.88.675.675 0 0 1-.7.587 3.439 3.439 0 0 1-1.678-1.051z" transform="translate(-431.372 -774.405)"/>
            <path id="패스_7418-2" data-name="패스 7418" class="cls-16" d="M455.215 780.466c0 .864.362 1.565.809 1.565s.812-.7.812-1.565-.364-1.568-.812-1.568-.809.702-.809 1.568z" transform="translate(-432.367 -774.321)"/>
            <path id="패스_7419-2" data-name="패스 7419" class="cls-15" d="M456.121 779.852c0 .2.1.367.225.367s.227-.166.227-.367-.1-.367-.227-.367-.225.164-.225.367z" transform="translate(-432.463 -774.384)"/>
            <path id="패스_7420-2" data-name="패스 7420" class="cls-16" d="M446.473 780.466c0 .864-.364 1.565-.812 1.565s-.81-.7-.81-1.565.364-1.568.81-1.568.812.702.812 1.568z" transform="translate(-431.262 -774.321)"/>
            <path id="패스_7421-2" data-name="패스 7421" class="cls-15" d="M445.7 779.852c0 .2-.1.367-.224.367s-.224-.166-.224-.367.1-.367.224-.367.224.164.224.367z" transform="translate(-431.305 -774.384)"/>
        </g>
        <g id="그룹_4451" data-name="그룹 4451" transform="rotate(10.02 -432.98 -1720.189)">
            <path id="패스_7411-3" data-name="패스 7411" class="cls-23" d="M438.086 787.595c-.3-.334-.937-.362-1.56-.412a3.891 3.891 0 0 1-2.279-2.077c-.163-3.6-2.249-4.043-2.249-4.043.13-.886.259-1.789.31-2.7a7.761 7.761 0 0 0 .033-2.3 1.484 1.484 0 0 0-.229.221c-.656.667-2.508 2.771-2.471 5.219a2.956 2.956 0 0 0 .14 1.008 4.641 4.641 0 0 0 1.8 2.4s.371 2.835 4.7 3.7l.2.081c.814.315 1.691.534 1.761-.444a1.786 1.786 0 0 0 0-.179.7.7 0 0 0-.156-.474z" transform="translate(-429.64 -774.562)"/>
            <path id="패스_7412-3" data-name="패스 7412" class="cls-23" d="M458.72 785.7c.307-.345.969-.374 1.614-.424a4.027 4.027 0 0 0 2.355-2.15c.168-3.725 2.325-4.178 2.325-4.178-.132-.917-.266-1.851-.321-2.792a8.009 8.009 0 0 1-.031-2.381 1.654 1.654 0 0 1 .235.23c.678.689 2.593 2.864 2.557 5.4a3.029 3.029 0 0 1-.144 1.042 4.82 4.82 0 0 1-1.868 2.477s-.382 2.932-4.861 3.826l-.212.085c-.84.323-1.748.549-1.82-.461 0-.058-.005-.12 0-.185a.719.719 0 0 1 .171-.489z" transform="translate(-439.596 -773.774)"/>
            <path id="패스_7413-3" data-name="패스 7413" class="cls-23" d="M441.178 796.767a.282.282 0 0 0-.019-.026c-.188-.213-.66.026-.881-.068a4.345 4.345 0 0 1-1.729-.241c-.31-.092-.623-.2-.927-.294h.042c-2.806-1.046-2.618.237-2.618.237a.578.578 0 0 1-.134.2.877.877 0 0 1-.15.116c-4.055 1.411-3.13 3.972-3.13 3.972l.007-.008a.835.835 0 0 0 .144.265 4.971 4.971 0 0 0 3.387 1.209 10.95 10.95 0 0 1-2.633-1.664 8.136 8.136 0 0 0 2.648-2.846 3.936 3.936 0 0 0 1.458.491l.07.015c.028 0 .067.007.115.01a5.609 5.609 0 0 0 1.657-.064 6.292 6.292 0 0 0 2.532-.612.708.708 0 0 0 .186-.18.415.415 0 0 0-.025-.512z" transform="translate(-430.296 -781.334)"/>
            <path id="패스_7414-3" data-name="패스 7414" class="cls-23" d="M455.2 796.767c.006-.01.014-.018.02-.026.187-.213.659.026.88-.068a4.331 4.331 0 0 0 1.727-.241c.312-.092.625-.2.93-.294h-.042c2.806-1.046 2.617.237 2.617.237a.564.564 0 0 0 .132.2.818.818 0 0 0 .151.116c4.054 1.411 3.13 3.972 3.13 3.972l-.007-.008a.85.85 0 0 1-.144.265 4.973 4.973 0 0 1-3.389 1.209 10.958 10.958 0 0 0 2.635-1.664 8.124 8.124 0 0 1-2.649-2.846 3.923 3.923 0 0 1-1.457.491l-.07.015c-.028 0-.068.007-.114.01a5.614 5.614 0 0 1-1.658-.064 6.292 6.292 0 0 1-2.532-.612.73.73 0 0 1-.186-.18.412.412 0 0 1 .026-.512z" transform="translate(-438.407 -781.334)"/>
            <path id="패스_7415-3" data-name="패스 7415" class="cls-24" d="M455.147 784.515c0-2.136-3.969-3.282-8.864-3.282s-8.864 1.145-8.864 3.282v.14s0 4.963 2.11 5.665a2.484 2.484 0 0 0 2.554 3.289h8.4a2.486 2.486 0 0 0 2.554-3.289c2.111-.7 2.111-5.665 2.111-5.665v-.069l-.001-.071z" transform="translate(-432.32 -776.343)"/>
            <path id="패스_7416-3" data-name="패스 7416" class="cls-24" d="M454.673 779.684a9.1 9.1 0 0 1-1.337 2.113.493.493 0 0 0 .512.431 2.525 2.525 0 0 0 1.232-.771z" transform="translate(-437.802 -775.81)"/>
            <path id="패스_7417-3" data-name="패스 7417" class="cls-24" d="M446.291 779.684a9.106 9.106 0 0 0 1.338 2.113.5.5 0 0 1-.514.431 2.523 2.523 0 0 1-1.231-.771z" transform="translate(-435.235 -775.81)"/>
            <path id="패스_7418-3" data-name="패스 7418" class="cls-16" d="M455.215 780.048c0 .634.266 1.149.594 1.149s.6-.515.6-1.149-.267-1.15-.6-1.15-.594.515-.594 1.15z" transform="translate(-438.449 -775.539)"/>
            <path id="패스_7419-3" data-name="패스 7419" class="cls-15" d="M456.121 779.754c0 .147.075.269.165.269s.167-.122.167-.269-.075-.269-.167-.269-.165.121-.165.269z" transform="translate(-438.761 -775.741)"/>
            <path id="패스_7420-3" data-name="패스 7420" class="cls-16" d="M446.041 780.048c0 .634-.267 1.149-.6 1.149s-.595-.515-.595-1.149.267-1.15.595-1.15.6.515.6 1.15z" transform="translate(-434.879 -775.539)"/>
            <path id="패스_7421-3" data-name="패스 7421" class="cls-15" d="M445.585 779.754c0 .147-.074.269-.165.269s-.165-.122-.165-.269.073-.269.165-.269.165.121.165.269z" transform="translate(-435.019 -775.741)"/>
        </g>
        <path id="패스_7422" data-name="패스 7422" class="cls-25" d="M466.027 809.381c0 2.038-10.3 3.69-23 3.69s-23-1.652-23-3.69 10.3-3.69 23-3.69 23 1.653 23 3.69z" transform="translate(-410.269 -571.004)"/>
        <path id="패스_9439" data-name="패스 9439" class="cls-25" d="M485.261 810.924c0 2.89-14.6 5.234-32.615 5.234s-32.615-2.343-32.615-5.234 14.6-5.234 32.615-5.234 32.615 2.345 32.615 5.234z" transform="translate(196.624 -435.314)"/>
        <path id="패스_9440" data-name="패스 9440" class="cls-25" d="M467.895 809.531c0 2.121-10.714 3.84-23.932 3.84s-23.932-1.72-23.932-3.84 10.715-3.84 23.932-3.84 23.932 1.72 23.932 3.84z" transform="translate(-738.376 -737.329)"/>
        <g id="그룹_4014" data-name="그룹 4014" transform="translate(321.573 372.08)">
            <path id="패스_7423" data-name="패스 7423" class="cls-23" d="M536.186 552.789c.2-.3.7-.392 1.188-.5a3.1 3.1 0 0 0 1.571-1.9c-.273-2.869 1.328-3.449 1.328-3.449-.2-.687-.4-1.387-.547-2.1a6.228 6.228 0 0 1-.283-1.817 1.18 1.18 0 0 1 .207.149 6.438 6.438 0 0 1 2.539 3.853 2.376 2.376 0 0 1 0 .812 3.72 3.72 0 0 1-1.16 2.1s.023 2.284-3.307 3.453c-.05.03-.1.057-.152.086-.609.34-1.279.612-1.443-.155a1.274 1.274 0 0 1-.023-.14.553.553 0 0 1 .082-.392z" transform="translate(-519.954 -543.022)"/>
            <path id="패스_7424" data-name="패스 7424" class="cls-23" d="M518.131 553.873c-.281-.238-.808-.187-1.324-.155a3.216 3.216 0 0 1-2.1-1.438c-.549-2.927-2.306-3.047-2.306-3.047 0-.74 0-1.494-.059-2.244a6.383 6.383 0 0 0-.239-1.887 1.279 1.279 0 0 0-.16.208 6.649 6.649 0 0 0-1.421 4.553 2.419 2.419 0 0 0 .231.808 3.853 3.853 0 0 0 1.753 1.752s.629 2.276 4.274 2.484c.058.014.117.03.178.044.7.162 1.444.239 1.388-.568a1.346 1.346 0 0 0-.019-.147.566.566 0 0 0-.196-.363z" transform="translate(-510.47 -543.792)"/>
            <path id="패스_7425" data-name="패스 7425" class="cls-23" d="M533.573 561.131a.126.126 0 0 1 .013-.023c.125-.189.525-.054.689-.153a3.448 3.448 0 0 0 1.341-.382c.237-.108.471-.226.7-.336h-.033c2.1-1.142 2.1-.105 2.1-.105a.46.46 0 0 0 .127.142.673.673 0 0 0 .134.075c3.365.663 2.92 2.794 2.92 2.794l-.007-.006a.691.691 0 0 1-.085.226 3.966 3.966 0 0 1-2.544 1.334 8.663 8.663 0 0 0 1.9-1.61 6.508 6.508 0 0 1-2.413-1.955 3.16 3.16 0 0 1-1.1.551l-.053.02a1.308 1.308 0 0 1-.089.02 4.453 4.453 0 0 1-1.319.134 5.013 5.013 0 0 1-2.071-.2.588.588 0 0 1-.168-.121.33.33 0 0 1-.042-.405z" transform="translate(-519 -549.194)"/>
            <path id="패스_7426" data-name="패스 7426" class="cls-23" d="M521.909 562.866a.167.167 0 0 0-.018-.018c-.173-.147-.519.093-.7.045a3.478 3.478 0 0 1-1.393 0c-.258-.039-.517-.088-.769-.13l.032-.007c-2.337-.517-2.044.479-2.044.479a.458.458 0 0 1-.083.171.619.619 0 0 1-.107.108c-3.05 1.569-2.032 3.493-2.032 3.493l.005-.007a.652.652 0 0 0 .142.193 3.972 3.972 0 0 0 2.816.578 8.661 8.661 0 0 1-2.27-1.022 6.483 6.483 0 0 0 1.777-2.547 3.133 3.133 0 0 0 1.208.225h.057c.023 0 .054 0 .092-.006a4.433 4.433 0 0 0 1.3-.234 5.027 5.027 0 0 0 1.935-.768.586.586 0 0 0 .127-.163.329.329 0 0 0-.075-.39z" transform="translate(-512.009 -550.27)"/>
            <path id="패스_7427" data-name="패스 7427" d="M517.306 552.734c-.239-1.69 2.774-3.039 6.647-3.586s7.141-.083 7.379 1.607c0 .019 0 .038.006.056a.5.5 0 0 1 .011.053s.554 3.927-1.038 4.718a1.986 1.986 0 0 1-1.654 2.887l-3.322.469-3.322.468a1.985 1.985 0 0 1-2.388-2.316c-1.748-.319-2.3-4.245-2.3-4.245a.53.53 0 0 1-.005-.055c-.005-.02-.011-.038-.014-.056z" transform="translate(-512.995 -545.208)" style="fill:#f26648"/>
            <path id="패스_7428" data-name="패스 7428" class="cls-23" d="M523.961 548.517a7.252 7.252 0 0 0 1.293 1.522.394.394 0 0 1-.357.4 2.02 2.02 0 0 1-1.061-.472z" transform="translate(-515.416 -545.055)"/>
            <path id="패스_7429" data-name="패스 7429" class="cls-23" d="M530.854 547.486a7.247 7.247 0 0 1-.823 1.821.4.4 0 0 0 .455.283s.715-.326.888-.748z" transform="translate(-517.708 -544.674)"/>
            <path id="패스_7430" data-name="패스 7430" class="cls-16" d="M523.716 548.8c.072.5-.082.939-.341.976s-.529-.341-.6-.844.083-.939.343-.976.527.339.598.844z" transform="translate(-515.017 -544.846)"/>
            <path id="패스_7431" data-name="패스 7431" class="cls-15" d="M523.289 548.661c.017.119-.028.222-.1.233s-.146-.077-.162-.2.03-.222.1-.232.146.082.162.199z" transform="translate(-515.115 -545.036)"/>
            <path id="패스_7432" data-name="패스 7432" class="cls-16" d="M531.306 547.727c.072.5.34.879.6.843s.412-.474.341-.976-.34-.88-.6-.844-.411.474-.341.977z" transform="translate(-518.174 -544.401)"/>
            <path id="패스_7433" data-name="패스 7433" class="cls-15" d="M531.976 547.436c.016.118.088.205.159.2s.117-.115.1-.232-.088-.2-.159-.2-.117.115-.1.232z" transform="translate(-518.427 -544.569)"/>
        </g>
        <ellipse id="타원_438" data-name="타원 438" class="cls-25" cx="19.382" cy="3.11" rx="19.382" ry="3.11" transform="translate(315.076 385.805)"/>
        <path id="패스_7258" data-name="패스 7258" class="cls-18" d="M473.27 345.514c0 2.06-10.41 3.731-23.251 3.731s-23.251-1.671-23.251-3.731 10.409-3.731 23.251-3.731 23.251 1.671 23.251 3.731z" transform="translate(-112.56 -56.675)"/>
        <g id="그룹_3983" data-name="그룹 3983" transform="translate(327.557 247.377)">
            <path id="패스_7280" data-name="패스 7280" class="cls-27" d="M560.581 246.194a20.62 20.62 0 0 1-6.581-6.612" transform="translate(-520.374 -239.582)"/>
            <path id="패스_7281" data-name="패스 7281" d="M555.262 249.469a30.909 30.909 0 0 0-3.461 4.2" transform="translate(-518.989 -245.819)" style="stroke-width:2px;stroke:#034c28;stroke-linecap:round;stroke-linejoin:round;fill:none"/>
            <path id="패스_7282" data-name="패스 7282" d="M491.636 247.209a19.56 19.56 0 1 1-26.437 8.14 19.56 19.56 0 0 1 26.437-8.14z" transform="translate(-462.923 -242.958)" style="fill:#006838"/>
            <path id="패스_7283" data-name="패스 7283" d="M478.479 246.068c-4.289 6.975-10.985 21.774-3.135 37.354a19.56 19.56 0 0 1 3.135-37.354z" transform="translate(-462.923 -243.674)" style="opacity:.2;fill:#006838;mix-blend-mode:multiply;isolation:isolate"/>
            <g id="그룹_3982" data-name="그룹 3982" transform="translate(0 1.976)">
                <g id="그룹_3981" data-name="그룹 3981" style="clip-path:url(#clip-path)">
                    <g id="그룹_3977" data-name="그룹 3977" transform="translate(14.899 11.073)">
                        <path id="패스_7284" data-name="패스 7284" class="cls-27" d="M535.385 274.929c-2.746 3.484-7.381-.17-10.127 3.314s1.889 7.138-.858 10.624-7.382-.168-10.13 3.317 1.888 7.139-.859 10.625-7.383-.168-10.13 3.318" transform="translate(-503.281 -274.929)"/>
                    </g>
                    <g id="그룹_3978" data-name="그룹 3978" transform="translate(8.45 5.991)">
                        <path id="패스_7285" data-name="패스 7285" class="cls-27" d="M517.917 261.161c-2.746 3.484-7.381-.17-10.127 3.314s1.889 7.139-.858 10.624-7.383-.169-10.13 3.316 1.888 7.139-.859 10.625-7.383-.168-10.13 3.317" transform="translate(-485.812 -261.161)"/>
                    </g>
                    <g id="그룹_3979" data-name="그룹 3979" transform="translate(2 .907)">
                        <path id="패스_7286" data-name="패스 7286" class="cls-27" d="M500.446 247.392c-2.746 3.484-7.381-.17-10.127 3.314s1.888 7.138-.858 10.624-7.383-.169-10.13 3.317 1.888 7.139-.859 10.625-7.383-.168-10.13 3.317" transform="translate(-468.342 -247.392)"/>
                    </g>
                    <g id="그룹_3980" data-name="그룹 3980" transform="translate(-4.45 -4.177)">
                        <path id="패스_7287" data-name="패스 7287" class="cls-27" d="M482.976 233.62c-2.746 3.484-7.381-.17-10.128 3.314s1.889 7.139-.858 10.624-7.383-.169-10.13 3.317 1.888 7.139-.859 10.625-7.383-.168-10.131 3.317" transform="translate(-450.87 -233.62)"/>
                    </g>
                </g>
            </g>
        </g>
        <g id="그룹_3984" data-name="그룹 3984" transform="translate(304.959 251.096)">
            <path id="패스_7289" data-name="패스 7289" d="M403 261.7a18.867 18.867 0 1 0 24.414-10.761A18.867 18.867 0 0 0 403 261.7z" transform="translate(-401.713 -249.656)" style="fill:#37b34a"/>
            <path id="패스_7290" data-name="패스 7290" d="M409.876 267.093a16.261 16.261 0 1 0 21.044-9.276 16.262 16.262 0 0 0-21.044 9.276z" transform="translate(-406.165 -254.106)" style="fill:#f66;stroke:#fff;stroke-width:3px;stroke-miterlimit:10"/>
            <path id="패스_7291" data-name="패스 7291" class="cls-16" d="M483.936 311.939a.324.324 0 0 1-.12.44.32.32 0 0 1-.438-.12c-.089-.153-.352-.9-.2-.99s.67.517.758.67z" transform="translate(-453.075 -288.518)"/>
            <path id="패스_7292" data-name="패스 7292" class="cls-16" d="M432.326 287.887a.322.322 0 1 1-.415-.492c.136-.114.825-.506.939-.37s-.388.748-.524.862z" transform="translate(-420.69 -273.211)"/>
            <path id="패스_7293" data-name="패스 7293" class="cls-16" d="M451.039 301.316a.322.322 0 1 1 .427-.481c.134.118.62.743.5.876s-.795-.277-.927-.395z" transform="translate(-432.76 -281.889)"/>
            <path id="패스_7294" data-name="패스 7294" class="cls-16" d="M420.732 312.776a.322.322 0 1 1-.162-.623c.172-.044.962-.1 1.008.073s-.678.506-.846.55z" transform="translate(-413.457 -289.052)"/>
            <path id="패스_7295" data-name="패스 7295" class="cls-16" d="M452.054 323.9a.322.322 0 1 1-.643.035c-.01-.177.092-.963.27-.973s.363.761.373.938z" transform="translate(-433.063 -295.899)"/>
            <path id="패스_7296" data-name="패스 7296" class="cls-16" d="M477.763 286.808a.322.322 0 0 1-.53-.366c.1-.146.663-.706.809-.6s-.177.819-.279.966z" transform="translate(-449.317 -272.472)"/>
            <path id="패스_7297" data-name="패스 7297" class="cls-16" d="M449.179 271.542a.322.322 0 1 1-.484.425c-.117-.133-.524-.813-.391-.931s.757.373.875.506z" transform="translate(-431.087 -263.132)"/>
        </g>
    </g>
</svg>
