<svg xmlns="http://www.w3.org/2000/svg" width="66" height="66" viewBox="0 0 66 66">
    <defs>
        <radialGradient id="lgg9b1ikna" cx=".5" cy=".5" r=".5" gradientUnits="objectBoundingBox">
            <stop offset="0" stop-color="#ffc400" stop-opacity=".29"/>
            <stop offset="1" stop-color="#f0d051" stop-opacity="0"/>
        </radialGradient>
    </defs>
    <g data-name="그룹 5023">
        <g data-name="그룹 4967" transform="translate(-80 -397)">
            <circle data-name="타원 550" cx="33" cy="33" r="33" transform="translate(80 397)" style="fill:#fff9c8"/>
            <g data-name="그룹 4903">
                <circle data-name="타원 539" cx="33" cy="33" r="33" transform="translate(80 397)" style="fill:url(#lgg9b1ikna)"/>
                <g data-name="그룹 4902">
                    <g data-name="그룹 4897">
                        <path data-name="패스 9681" d="M468.816 359.887c-1.92-2.133 3.2-2.56 2.24-5.119s-8.687 3.06-10.029 0c-1.169-2.666 3.2-2.986 4.7-5.333s-4.692-2.873-2.586-8.052c.755-1.856 3.032-1.9 5.256-1.42a13.413 13.413 0 0 0-4.708-1.8c-1.481 1.184-3.694 2.037-4.939 2.85-2.285 1.493 1.219 2.56.792 4.479a3.756 3.756 0 0 1-4.266 2.666c-1.706-.32-4.053 5.333-4.841 0a10 10 0 0 1 1.943-6.836 13.5 13.5 0 0 0-1.48 18.732c-.566-2.769-.776-5.558.325-6.564 2.453-2.24 4.159 2.773 6.4 3.093s3.077-.4 3.679 1.386c.612 1.813-2.49 1.813-2.552 5.652-.006.4 0 .759.012 1.089a13.513 13.513 0 0 0 12.788-4.473c-1.172.303-2.175.271-2.734-.35z" transform="translate(-348.297 93.176)" style="fill:#5aaef6"/>
                        <path data-name="패스 9682" d="M563.048 351.18c-2.224-.483-4.5-.436-5.256 1.42-2.106 5.179 4.079 5.706 2.586 8.052s-5.866 2.666-4.7 5.333c1.342 3.06 9.069-2.56 10.029 0s-4.159 2.986-2.24 5.119c.559.621 1.563.654 2.729.349a13.5 13.5 0 0 0-3.152-20.273z" transform="translate(-442.952 81.959)" style="fill:#8aeb84"/>
                        <path data-name="패스 9683" d="M477.867 470.776c.061-3.839 3.164-3.839 2.552-5.653-.6-1.784-1.44-1.066-3.679-1.386s-3.946-5.332-6.4-3.093c-1.1 1.005-.891 3.795-.325 6.564a13.49 13.49 0 0 0 7.864 4.657 19.968 19.968 0 0 1-.012-1.089z" transform="translate(-367.419 -13.981)" style="fill:#8aeb84"/>
                        <path data-name="패스 9684" d="M469 346.626c.789 5.333 3.135-.32 4.841 0a3.756 3.756 0 0 0 4.266-2.666c.427-1.92-3.077-2.986-.792-4.479 1.245-.814 3.458-1.667 4.939-2.85a13.525 13.525 0 0 0-11.311 3.16 10 10 0 0 0-1.943 6.835z" transform="translate(-366.868 94.705)" style="fill:#8aeb84"/>
                    </g>
                    <g data-name="그룹 4901">
                        <path data-name="패스 9685" d="M174.439 478.271s-4.2 1.735-7.376.063-4.119-6.119-4.119-6.119 4.2-1.735 7.376-.063 4.119 6.119 4.119 6.119z" transform="translate(-61.438 -50.424)" style="fill:#8aeb84"/>
                        <path data-name="패스 9686" d="M218.479 509h-.987l.493-3.665z" transform="translate(-104.984 -77.493)" style="fill:#51bd6d"/>
                        <g data-name="그룹 4898">
                            <path data-name="패스 9687" d="M162.951 475.376c.031.141 1 4.467 4.118 6.112 3.174 1.672 7.376-.063 7.376-.063v-.007z" transform="translate(-61.444 -53.578)" style="fill:#70d46a"/>
                        </g>
                        <path data-name="패스 9688" d="M219.924 478.265s4.2 1.735 7.376.063 4.119-6.119 4.119-6.119-4.2-1.735-7.376-.063-4.119 6.119-4.119 6.119z" transform="translate(-106.926 -50.419)" style="fill:#8aeb84"/>
                        <g data-name="그룹 4899">
                            <path data-name="패스 9689" d="M231.418 475.371c-.031.141-1 4.467-4.118 6.112-3.174 1.672-7.376-.063-7.376-.063v-.007z" transform="translate(-106.926 -53.574)" style="fill:#70d46a"/>
                        </g>
                        <g data-name="그룹 4900">
                            <path data-name="패스 9690" d="M217.492 509h.493v-3.665" transform="translate(-104.984 -77.493)" style="fill:#70d46a"/>
                            <path data-name="패스 9691" d="M219.938 505.333V509h.493z" transform="translate(-106.937 -77.493)" style="fill:#60c25a"/>
                        </g>
                    </g>
                </g>
            </g>
        </g>
        <g data-name="합치기 60" style="fill:#fff">
            <path d="M12799.732-11147.967a.638.638 0 0 1-.274-.573v-4.636h-4.4a.545.545 0 0 1-.477-.222.924.924 0 0 1-.151-.531.925.925 0 0 1 .151-.532.54.54 0 0 1 .477-.226h7.436a13.02 13.02 0 0 0 .25-1.466 17.778 17.778 0 0 0 .113-2.007v-.321a.285.285 0 0 0-.322-.322h-6.089a.539.539 0 0 1-.477-.223.943.943 0 0 1-.154-.548.93.93 0 0 1 .154-.544.535.535 0 0 1 .477-.226h7a1.32 1.32 0 0 1 .932.255 1.261 1.261 0 0 1 .258.908v.95a17.035 17.035 0 0 1-.155 2.332 10.978 10.978 0 0 1-.232 1.211h1.4a.537.537 0 0 1 .477.226.905.905 0 0 1 .155.532.9.9 0 0 1-.155.531.541.541 0 0 1-.477.222h-4.4v4.636a.642.642 0 0 1-.271.573 1.1 1.1 0 0 1-.625.184 1.078 1.078 0 0 1-.621-.183zm26.73.029a1.322 1.322 0 0 1-.928-.251 1.25 1.25 0 0 1-.262-.912v-1.288a1.242 1.242 0 0 1 .262-.909 1.322 1.322 0 0 1 .928-.251h5a.285.285 0 0 0 .322-.322v-.2a.284.284 0 0 0-.322-.322h-5.628a.492.492 0 0 1-.447-.219.891.891 0 0 1-.142-.5.853.853 0 0 1 .142-.489.491.491 0 0 1 .447-.21h6.511a1.339 1.339 0 0 1 .931.251 1.264 1.264 0 0 1 .258.912v1.285a1.264 1.264 0 0 1-.258.912 1.339 1.339 0 0 1-.931.251h-5a.286.286 0 0 0-.322.322v.2a.287.287 0 0 0 .322.322h5.883a.494.494 0 0 1 .447.216.922.922 0 0 1 .139.5.891.891 0 0 1-.139.489.5.5 0 0 1-.447.21zm-9.819-1.009a.637.637 0 0 1-.273-.573v-10.724a.642.642 0 0 1 .273-.576 1.112 1.112 0 0 1 .622-.181 1.079 1.079 0 0 1 .608.181.643.643 0 0 1 .274.576v10.724a.638.638 0 0 1-.274.573 1.081 1.081 0 0 1-.608.184 1.114 1.114 0 0 1-.621-.183zm-25.76 0a.636.636 0 0 1-.274-.573v-10.724a.641.641 0 0 1 .274-.576 1.115 1.115 0 0 1 .621-.181 1.129 1.129 0 0 1 .638.181.643.643 0 0 1 .274.576v10.724a.638.638 0 0 1-.274.573 1.131 1.131 0 0 1-.638.184 1.118 1.118 0 0 1-.62-.183zm16.6-2.2a.926.926 0 0 1-.154-.545.9.9 0 0 1 .154-.531.54.54 0 0 1 .477-.226q1.793 0 3.6-.042t3.592-.2a.53.53 0 0 1 .483.171.911.911 0 0 1 .19.5 1.025 1.025 0 0 1-.1.555.515.515 0 0 1-.447.271c-.468.048-.986.087-1.553.119s-1.17.061-1.8.077l-1.952.052c-.673.017-1.344.019-2.017.019a.533.533 0 0 1-.477-.219zm-24.743-.664a.986.986 0 0 1-.28-.112.891.891 0 0 1-.231-.187.871.871 0 0 1-.226-.561.694.694 0 0 1 .255-.561q.879-.768 1.648-1.568a4.2 4.2 0 0 0 .493-.58 2.827 2.827 0 0 0 .313-.6 3.215 3.215 0 0 0 .178-.673 5.652 5.652 0 0 0 .055-.809v-1.066h-2.085a.539.539 0 0 1-.477-.223.927.927 0 0 1-.154-.534.94.94 0 0 1 .154-.545.539.539 0 0 1 .477-.223h5.879a.541.541 0 0 1 .478.223.939.939 0 0 1 .151.545.925.925 0 0 1-.151.534.541.541 0 0 1-.478.223h-1.975v1.066a5.652 5.652 0 0 0 .055.809 3.215 3.215 0 0 0 .178.673 2.71 2.71 0 0 0 .315.6 4.022 4.022 0 0 0 .489.58c.271.271.532.528.783.77s.486.458.7.645a.591.591 0 0 1 .219.561.989.989 0 0 1-.261.544.977.977 0 0 1-.516.274.614.614 0 0 1-.561-.161c-.187-.158-.393-.348-.618-.563s-.461-.458-.712-.709a6.018 6.018 0 0 1-.734-.834 1.538 1.538 0 0 1-.232-.483h-.013a1.693 1.693 0 0 1-.245.524 6.1 6.1 0 0 1-.737.835c-.251.251-.5.5-.754.74s-.516.483-.786.716a.628.628 0 0 1-.293.139.805.805 0 0 1-.135.013.726.726 0 0 1-.17-.021zm27.256-2.423a2.908 2.908 0 0 1-1.083-.65 2.82 2.82 0 0 1-.66-.992 3.484 3.484 0 0 1-.222-1.26 3.485 3.485 0 0 1 .222-1.263 2.82 2.82 0 0 1 .66-.992 2.947 2.947 0 0 1 1.083-.65 4.538 4.538 0 0 1 1.521-.231 4.534 4.534 0 0 1 1.511.231 2.961 2.961 0 0 1 1.092.65 2.806 2.806 0 0 1 .66.992 3.465 3.465 0 0 1 .223 1.263 3.464 3.464 0 0 1-.223 1.26 2.806 2.806 0 0 1-.66.992 2.922 2.922 0 0 1-1.092.65 4.509 4.509 0 0 1-1.511.232 4.512 4.512 0 0 1-1.525-.23zm.161-4.094a1.668 1.668 0 0 0-.432 1.191 1.668 1.668 0 0 0 .432 1.189 1.787 1.787 0 0 0 1.359.46 1.776 1.776 0 0 0 1.355-.46 1.671 1.671 0 0 0 .436-1.189 1.67 1.67 0 0 0-.436-1.191 1.787 1.787 0 0 0-1.355-.461 1.8 1.8 0 0 0-1.363.463zm21.862 3.823a.639.639 0 0 1-.273-.576v-5.164a.642.642 0 0 1 .273-.576 1.109 1.109 0 0 1 .622-.181 1.112 1.112 0 0 1 .622.181.642.642 0 0 1 .273.576v1.8h1.317a.558.558 0 0 1 .489.226.933.933 0 0 1 .155.545.968.968 0 0 1-.155.554.544.544 0 0 1-.489.232h-1.317v1.8a.639.639 0 0 1-.273.576 1.112 1.112 0 0 1-.622.181 1.109 1.109 0 0 1-.625-.169zm-7.869-.744a1.243 1.243 0 0 1-.258-.908v-3.656a.637.637 0 0 1 .273-.573 1.109 1.109 0 0 1 .622-.181 1.147 1.147 0 0 1 .638.181.644.644 0 0 1 .273.573v2.971a.282.282 0 0 0 .319.321q1.165 0 2.242-.064t2.1-.2a.558.558 0 0 1 .509.154.8.8 0 0 1 .219.5 1.143 1.143 0 0 1-.084.566.5.5 0 0 1-.422.287c-.29.038-.608.074-.957.106s-.747.064-1.191.09-.944.048-1.5.064-1.173.02-1.855.02a1.334 1.334 0 0 1-.932-.249z" style="stroke:none" transform="translate(-12775.746 11200)"/>
            <path d="M12800.354-11147.783c.232 0 .44-.06.625-.184.18-.122.27-.312.27-.573v-4.636h4.397c.213 0 .375-.073.477-.221a.905.905 0 0 0 .155-.532.905.905 0 0 0-.155-.532c-.102-.151-.264-.226-.477-.226h-1.395c.096-.375.173-.779.232-1.21.104-.75.156-1.527.156-2.332v-.95c0-.44-.088-.742-.258-.909-.174-.17-.484-.255-.932-.255h-7c-.216 0-.373.074-.476.226a.93.93 0 0 0-.155.544c0 .216.052.4.155.548.103.148.26.222.476.222h6.09c.215 0 .321.11.321.323v.32c0 .684-.039 1.354-.113 2.008-.055.49-.139.98-.25 1.465h-7.435c-.213 0-.372.075-.477.226a.925.925 0 0 0-.151.532c0 .206.05.383.151.532.105.148.264.221.477.221h4.396v4.636c0 .26.09.451.274.573.18.123.39.184.622.184m32.874-.155c.202 0 .353-.07.447-.21a.891.891 0 0 0 .138-.489.922.922 0 0 0-.138-.499c-.094-.145-.245-.216-.447-.216h-5.883c-.212 0-.323-.109-.323-.322v-.196c0-.216.11-.322.323-.322h5c.447 0 .757-.084.93-.251.171-.168.258-.471.258-.912v-1.286c0-.441-.087-.744-.258-.912-.173-.167-.483-.25-.93-.25h-6.511c-.206 0-.355.067-.447.21a.853.853 0 0 0-.142.489c0 .186.048.351.142.496.092.144.24.218.447.218h5.628c.216 0 .322.107.322.323v.196c0 .213-.106.322-.322.322h-5c-.447 0-.757.084-.927.251-.175.168-.262.47-.262.91v1.287c0 .439.087.745.262.913.17.167.48.25.928.25h6.765m-15.962-.825c.225 0 .428-.064.608-.183.184-.122.274-.313.274-.574v-10.723c0-.26-.09-.454-.274-.576-.18-.12-.383-.181-.608-.181-.232 0-.442.062-.622.18-.184.123-.274.316-.274.577v10.723c0 .261.09.452.274.574.18.119.39.183.622.183m-25.761 0c.245 0 .458-.064.638-.183.183-.122.274-.313.274-.574v-10.723c0-.26-.09-.454-.274-.576-.18-.12-.393-.181-.638-.181-.232 0-.438.062-.621.18-.185.123-.275.316-.275.577v10.723c0 .261.09.452.275.574.183.119.39.183.62.183m16.452-2.158c.673 0 1.344-.006 2.017-.018.673-.017 1.32-.033 1.952-.052a51.225 51.225 0 0 0 3.353-.197c.212-.016.365-.11.448-.27.084-.165.116-.349.1-.555a.91.91 0 0 0-.19-.502c-.097-.117-.234-.173-.411-.173a.912.912 0 0 0-.073.002c-1.185.107-2.383.171-3.591.197-1.208.029-2.41.042-3.605.042-.216 0-.374.077-.477.225a.904.904 0 0 0-.154.532c0 .215.051.396.154.544.103.152.261.225.477.225m-25.055-.869a.805.805 0 0 0 .135-.013.628.628 0 0 0 .293-.138c.27-.233.532-.471.786-.716a53.4 53.4 0 0 0 .754-.74c.367-.365.609-.642.737-.835.126-.19.207-.368.246-.525h.012c.03.132.107.293.233.484.125.192.37.47.734.834.251.25.49.486.712.709.226.215.432.405.618.563a.62.62 0 0 0 .56.161.977.977 0 0 0 .516-.274.99.99 0 0 0 .261-.544c.032-.216-.038-.403-.219-.56-.213-.187-.448-.4-.699-.645a61.557 61.557 0 0 1-.783-.77 4.022 4.022 0 0 1-.49-.58 2.71 2.71 0 0 1-.315-.596 3.215 3.215 0 0 1-.178-.672 5.652 5.652 0 0 1-.054-.81v-1.065h1.974c.216 0 .374-.075.478-.223a.925.925 0 0 0 .151-.534.939.939 0 0 0-.151-.545c-.104-.149-.262-.223-.478-.223h-5.879c-.215 0-.373.074-.476.223a.94.94 0 0 0-.154.545c0 .206.051.383.154.534.103.148.26.223.476.223h2.085v1.066c0 .296-.02.566-.054.809-.04.244-.097.466-.178.672a2.827 2.827 0 0 1-.312.596c-.132.19-.296.384-.494.58a25.6 25.6 0 0 1-1.648 1.569.694.694 0 0 0-.255.56c.01.216.084.403.226.56a.986.986 0 0 0 .512.3c.054.013.109.02.164.02m28.612-2.21c.57 0 1.072-.077 1.51-.232.438-.152.802-.37 1.092-.65.29-.281.509-.613.66-.993.149-.383.223-.805.223-1.26 0-.46-.074-.879-.223-1.262a2.806 2.806 0 0 0-.66-.993 2.961 2.961 0 0 0-1.092-.65c-.438-.154-.94-.231-1.51-.231-.58 0-1.086.077-1.52.231-.432.154-.797.37-1.084.65a2.82 2.82 0 0 0-.66.993 3.485 3.485 0 0 0-.222 1.262c0 .455.075.877.222 1.26.151.38.371.712.66.992.287.28.652.5 1.083.65.435.156.94.233 1.52.233m0-4.787c.616 0 1.067.155 1.356.46.29.31.436.706.436 1.192 0 .484-.146.88-.436 1.19-.289.308-.74.46-1.355.46-.616 0-1.07-.152-1.36-.46-.29-.31-.431-.706-.431-1.19 0-.486.141-.882.431-1.191.29-.306.744-.461 1.36-.461m21.125 4.465c.231 0 .441-.062.622-.18.183-.123.273-.313.273-.577v-1.804h1.318c.222 0 .386-.077.489-.232a.968.968 0 0 0 .155-.554.933.933 0 0 0-.155-.545c-.103-.147-.267-.225-.49-.225h-1.317v-1.804c0-.26-.09-.454-.273-.576-.18-.12-.39-.181-.622-.181a1.11 1.11 0 0 0-.622.18c-.184.123-.274.316-.274.577v5.164c0 .264.09.454.274.576.18.12.39.18.622.18m-7.56-.672c.682 0 1.3-.007 1.855-.02a42.984 42.984 0 0 0 2.69-.154c.348-.032.666-.068.956-.106.206-.027.345-.123.422-.288.074-.16.1-.35.084-.566a.802.802 0 0 0-.219-.503.526.526 0 0 0-.397-.162.878.878 0 0 0-.112.008c-.683.093-1.382.161-2.1.202-.719.042-1.466.064-2.242.064-.213 0-.32-.105-.32-.32v-2.972c0-.26-.092-.45-.273-.573a1.147 1.147 0 0 0-.638-.18 1.11 1.11 0 0 0-.622.18c-.183.122-.273.313-.273.573v3.657c0 .438.084.74.257.908.174.168.484.252.931.252m-24.723 8.212c-.431 0-.84-.123-1.181-.355-.461-.31-.715-.807-.715-1.402v-3.636h-3.396c-.54 0-.998-.228-1.292-.642l-.006-.01-.007-.009a1.905 1.905 0 0 1-.323-1.092c0-.408.108-.776.323-1.092l.004-.006.004-.005c.294-.422.754-.655 1.297-.655h6.612c.032-.193.058-.385.079-.576.058-.508.093-1.025.103-1.54h-5.407c-.544 0-1.004-.231-1.297-.65a1.928 1.928 0 0 1-.334-1.12c0-.42.112-.794.331-1.113.29-.422.752-.657 1.3-.657h7c.728 0 1.262.177 1.633.542.37.363.557.908.557 1.621v.95c0 .847-.056 1.677-.165 2.47l-.01.073h.182c.548 0 1.01.234 1.3.659.221.318.332.687.332 1.1 0 .24-.038.465-.113.675.23-.127.5-.194.791-.194.443 0 .876-.002 1.302-.005a3.77 3.77 0 0 1-1.938-2.053l-.002-.005-.003-.006a4.489 4.489 0 0 1-.288-1.619c0-.578.097-1.124.288-1.62l.002-.007.003-.006c.204-.512.505-.963.893-1.34a3.93 3.93 0 0 1 1.442-.873c.543-.193 1.167-.29 1.858-.29.68 0 1.299.096 1.842.288a3.982 3.982 0 0 1 1.456.875c.212.206.4.435.56.685v-.82c0-.6.255-1.1.719-1.41a2.124 2.124 0 0 1 1.176-.347c.422 0 .813.117 1.16.348.467.31.722.81.722 1.409v10.723c0 .598-.255 1.097-.72 1.407a2.123 2.123 0 0 1-2.335.002c-.467-.31-.723-.81-.723-1.409v-.671c-.469.047-.988.087-1.588.12-.565.036-1.183.062-1.83.08-.584.017-1.178.032-1.805.048l-.15.004h-.006c-.658.012-1.344.018-2.035.018-.548 0-1.01-.233-1.3-.657a1.911 1.911 0 0 1-.33-1.112c0-.242.037-.468.113-.68-.231.128-.5.194-.793.194h-3.397v3.636c0 .595-.252 1.092-.71 1.401-.353.237-.75.356-1.185.356zm15.016-8.067a3.67 3.67 0 0 1-1.318 1.248c.34-.023.677-.05 1.01-.08h.012a1.973 1.973 0 0 1 .296 0v-1.168zm-4.49-2.79c-.074.081-.158.211-.158.505 0 .296.086.426.16.506.085.09.321.144.63.144.308 0 .542-.054.627-.144.077-.082.165-.214.165-.506 0-.294-.088-.426-.165-.508-.085-.088-.32-.144-.626-.144-.307 0-.543.055-.633.147zm22.348 10.702h-6.765c-.726 0-1.257-.174-1.625-.534-.38-.367-.565-.9-.565-1.629v-1.288c0-.633.141-1.119.43-1.476a1.462 1.462 0 0 1-.158-.203 1.874 1.874 0 0 1-.3-1.036c0-.338.083-.659.242-.937-.431-.072-.773-.234-1.036-.487-.378-.364-.562-.896-.562-1.627v-3.657c0-.597.256-1.097.72-1.406a2.124 2.124 0 0 1 1.175-.347c.435 0 .833.115 1.182.341l.008.005.007.006c.46.31.714.809.714 1.401v2.287c.507-.01 1.011-.029 1.503-.057.676-.04 1.357-.105 2.025-.195a1.685 1.685 0 0 1 .52.006v-2.472c0-.6.255-1.1.719-1.41a2.124 2.124 0 0 1 1.176-.347c.424 0 .829.12 1.173.346.466.31.722.811.722 1.41v.805h.318c.551 0 1.016.232 1.31.654.218.313.334.7.334 1.116 0 .414-.108.786-.322 1.106-.29.439-.76.68-1.322.68h-.318v.804c0 .412-.12.777-.346 1.066.232.346.346.8.346 1.372v1.286c0 .553-.106.995-.323 1.336.117.095.22.21.306.341l.004.007.004.007c.192.31.29.655.29 1.027 0 .372-.1.717-.294 1.026l-.008.011-.01.013c-.278.412-.743.65-1.274.65zm-41.723-.825c-.421 0-.813-.116-1.165-.344l-.004-.002-.004-.003c-.466-.309-.723-.808-.723-1.408v-1.78a2.05 2.05 0 0 1-.685.274 1.619 1.619 0 0 1-1.419-.386c-.187-.16-.4-.354-.653-.596l-.008-.008-.008-.007-.331-.33-.381-.38c-.092-.09-.176-.177-.253-.258a51.915 51.915 0 0 1-1.063 1.055c-.264.255-.543.51-.828.753l-.012.011-.014.012a1.632 1.632 0 0 1-1.053.37 1.7 1.7 0 0 1-.387-.045 1.986 1.986 0 0 1-1.037-.611 1.874 1.874 0 0 1-.477-1.179v-.014c-.017-.51.192-.986.589-1.339l.004-.002.003-.003a24.912 24.912 0 0 0 1.585-1.507l.007-.009.01-.009c.15-.15.276-.297.373-.436.086-.127.154-.255.2-.381l.003-.008.003-.008c.052-.132.091-.282.12-.457.029-.201.043-.422.043-.658v-.066h-1.085c-.543 0-1.003-.232-1.296-.65l-.004-.007-.004-.006a1.911 1.911 0 0 1-.326-1.094c0-.414.114-.8.33-1.114.297-.422.757-.654 1.3-.654h5.88c.359 0 .681.1.943.29.105-.372.329-.681.654-.896l.004-.003.004-.002a2.104 2.104 0 0 1 1.165-.342c.442 0 .843.117 1.19.348.466.31.722.81.722 1.409v10.723c0 .598-.256 1.097-.72 1.407-.352.232-.753.35-1.192.35zm-3.702-9.036c.028.176.068.326.12.458l.003.008.003.008c.048.127.114.253.2.375l.003.006.004.005c.09.133.215.28.368.433.23.23.504.501.77.756l.002.003.002.002c.108.104.216.208.331.313v-3.334c-.249.16-.547.244-.875.244h-.974v.066c0 .235.014.457.043.657z" style="fill:rgba(2,154,107,.6);stroke:none" transform="translate(-12775.746 11200)"/>
        </g>
    </g>
</svg>
