<svg xmlns="http://www.w3.org/2000/svg" xmlns:xlink="http://www.w3.org/1999/xlink" width="66" height="66" viewBox="0 0 66 66">
    <defs>
        <linearGradient id="5x2kw90ggb" x1=".5" x2=".5" y2="1" gradientUnits="objectBoundingBox">
            <stop offset="0" stop-color="#8ed1ff"/>
            <stop offset="1" stop-color="#67a4ff"/>
        </linearGradient>
        <linearGradient id="jhhxrxg1ia" x1=".5" y1="-.398" x2=".5" y2="7.055" gradientUnits="objectBoundingBox">
            <stop offset="0" stop-color="#5398d1"/>
            <stop offset="1" stop-color="#7c84e7"/>
        </linearGradient>
        <linearGradient id="15gexg7dtc" x1=".5" y1="-1.793" x2=".5" y2="5.661" xlink:href="#jhhxrxg1ia"/>
        <linearGradient id="8i7yfomeyd" x1=".5" y1=".393" x2=".5" y2="9.768" xlink:href="#jhhxrxg1ia"/>
        <linearGradient id="31dspqq8we" x1=".5" y1="-5.236" x2=".5" y2="5.156" xlink:href="#jhhxrxg1ia"/>
        <linearGradient id="c8jtgprdgf" x1=".5" y1="-2.005" x2=".5" y2="9.085" xlink:href="#jhhxrxg1ia"/>
        <linearGradient id="zqm714npyg" x1=".5" y1="-1.953" x2=".5" y2="9.14" xlink:href="#jhhxrxg1ia"/>
        <linearGradient id="tgddvazuyh" x1=".5" y1="-4.515" x2=".5" y2="6.579" xlink:href="#jhhxrxg1ia"/>
        <linearGradient id="9hpd5wbzki" x1=".5" y1="-.085" x2=".5" y2="11.222" xlink:href="#jhhxrxg1ia"/>
        <linearGradient id="p6y24uo2wj" x1=".5" y1="-.962" x2=".5" y2="14.587" xlink:href="#jhhxrxg1ia"/>
        <clipPath id="xmra81z3ok">
            <path data-name="패스 9701" d="m344.73 679.447.7-.032c2.892-.129 5.938-.826 7.806-2.52.1-.1.2-.195.3-.3-1.453-1.2-5.341-1.746-9.8-1.239a24.742 24.742 0 0 0-6.212 1.467l-.015.006-.138.056c-.739.292-4.032 1.522-6.333 1.244 0 0 .136.08.4.2a15.013 15.013 0 0 0 2 .569 45.674 45.674 0 0 0 11.292.549z" transform="translate(-331.046 -675.172)" style="fill:none"/>
        </clipPath>
    </defs>
    <g data-name="그룹 5022">
        <g data-name="그룹 4964" transform="translate(-42 -315)">
            <circle data-name="타원 553" cx="33" cy="33" r="33" transform="translate(42 315)" style="fill:url(#5x2kw90ggb)"/>
            <g data-name="그룹 4921">
                <g data-name="그룹 4920">
                    <g data-name="그룹 4917">
                        <path data-name="패스 9718" d="M642.841 683.965a2.686 2.686 0 0 0 2.189-1.694l.9.6-.219-2.1-.649.657a2.662 2.662 0 0 0-2.653-1.575 2.316 2.316 0 0 0-2.274 2.317c0 .043.011.085.019.127a.622.622 0 0 1-.114.165c-.075.078-.176.147-.131.278.025.073.131.1.19.137.027.017.2.1.4.194a2.6 2.6 0 0 0 2.342.894z" transform="translate(-550.815 -341.891)" style="fill:url(#jhhxrxg1ia)"/>
                        <path data-name="패스 9719" d="M664.121 709.16a2.661 2.661 0 0 0-2.654-1.575 2.315 2.315 0 0 0-2.273 2.317c0 .043.011.086.019.128a.641.641 0 0 1-.114.164c-.075.078-.176.147-.131.278.025.073.131.1.19.137.027.017.2.1.4.194a2.6 2.6 0 0 0 2.337.9 2.684 2.684 0 0 0 2.189-1.694l.9.6-.219-2.1z" transform="translate(-565.898 -363.846)" style="fill:url(#15gexg7dtc)"/>
                        <path data-name="패스 9720" d="m684.222 666.446-.516.523a2.117 2.117 0 0 0-2.11-1.252 1.841 1.841 0 0 0-1.807 1.843c0 .034.008.068.015.1a.507.507 0 0 1-.09.13c-.059.061-.14.117-.1.221.02.058.1.079.151.109.021.013.155.079.319.154a2.066 2.066 0 0 0 1.858.713 2.135 2.135 0 0 0 1.741-1.347l.718.475z" transform="translate(-582.239 -330.706)" style="fill:url(#8i7yfomeyd)"/>
                        <path data-name="패스 9721" d="M643.125 747.737a1.91 1.91 0 0 0-1.9-1.13 1.661 1.661 0 0 0-1.63 1.662c0 .031.008.061.013.092a.446.446 0 0 1-.082.118c-.053.056-.126.105-.094.2.018.052.094.072.137.1.019.012.14.072.287.14a1.863 1.863 0 0 0 1.676.643 1.925 1.925 0 0 0 1.57-1.215l.648.428-.157-1.507z" transform="translate(-550.435 -394.737)" style="fill:url(#31dspqq8we)"/>
                    </g>
                    <g data-name="그룹 4918">
                        <path data-name="패스 9722" d="m358.582 733.529 1.847 1.191c1.173-.495 1.649-1.035 3.625-.8a4.764 4.764 0 0 1 3.289 1.941.814.814 0 0 0 .189.15c.121.073.284.142.222.249-.034.059-.2.07-.289.1a13.287 13.287 0 0 1-3.878.418 5.914 5.914 0 0 1-3.049-1.339l-2.283.794.588-1.3z" transform="translate(-285.842 -371.219)" style="fill:url(#c8jtgprdgf)"/>
                        <path data-name="패스 9723" d="m315.584 733.065 1.847 1.191c1.172-.495 1.649-1.035 3.625-.8a4.764 4.764 0 0 1 3.289 1.941.822.822 0 0 0 .19.15c.121.073.285.143.222.248-.035.059-.2.071-.29.1a13.266 13.266 0 0 1-3.878.417 5.911 5.911 0 0 1-3.049-1.338l-2.283.794.587-1.3z" transform="translate(-258.915 -370.929)" style="fill:url(#zqm714npyg)"/>
                        <path data-name="패스 9724" d="m339.711 755.559 1.847 1.191c1.172-.495 1.648-1.036 3.625-.8a4.762 4.762 0 0 1 3.289 1.941.832.832 0 0 0 .19.149c.121.073.285.143.222.247-.035.059-.2.071-.289.1a13.258 13.258 0 0 1-3.879.417 5.912 5.912 0 0 1-3.049-1.338l-2.283.794.588-1.3z" transform="translate(-274.024 -385.016)" style="fill:url(#tgddvazuyh)"/>
                        <path data-name="패스 9725" d="m335.334 716.648 1.812 1.168c1.15-.486 1.617-1.016 3.555-.781a4.673 4.673 0 0 1 3.227 1.9.834.834 0 0 0 .186.147c.12.071.279.139.218.243-.034.058-.2.07-.284.094a12.993 12.993 0 0 1-3.8.41 5.789 5.789 0 0 1-2.991-1.314l-2.241.78.577-1.278z" transform="translate(-271.287 -360.648)" style="fill:url(#9hpd5wbzki)"/>
                        <path data-name="패스 9726" d="m290.816 721.94 1.318.85a3.747 3.747 0 0 1 2.586-.568 3.393 3.393 0 0 1 2.347 1.385.636.636 0 0 0 .135.108c.087.051.2.1.159.176-.025.042-.143.05-.207.069a9.542 9.542 0 0 1-2.767.3 4.212 4.212 0 0 1-2.175-.955l-1.63.567.419-.93z" transform="translate(-243.463 -363.962)" style="fill:url(#p6y24uo2wj)"/>
                    </g>
                    <g data-name="그룹 4916">
                        <g data-name="그룹 4909">
                            <g data-name="그룹 4904">
                                <path data-name="패스 9692" d="M473.184 633.092a.755.755 0 1 1-.755-.755.755.755 0 0 1 .755.755z" transform="translate(-388.411 -291.651)" style="fill:#d7edf2"/>
                                <path data-name="패스 9693" d="M459.692 650.125a1.133 1.133 0 1 1-1.133-1.133 1.133 1.133 0 0 1 1.133 1.133z" transform="translate(-377.229 -304.722)" style="fill:#d7edf2"/>
                                <path data-name="패스 9694" d="M463.018 615.828a.621.621 0 1 1-.621-.621.621.621 0 0 1 .621.621z" transform="translate(-380.643 -278.207)" style="fill:#d7edf2"/>
                            </g>
                            <g data-name="그룹 4908">
                                <path data-name="패스 9695" d="M313.012 627.849c-4.443.077-8.742 2.4-10.4 6.459a8.049 8.049 0 0 1-2.079 3.393 3.289 3.289 0 0 1-3.531.684c-.3-.159-1.092-.543-.8-.91.278-.347 2.227-.766 2.066-4.583a4.074 4.074 0 0 0-.293-1.295 4.7 4.7 0 0 0-3.65 4.626s-.641-3.356-5.111-2.136a9.519 9.519 0 0 0 .49 1.44c.525 1.1 1.325 2.625 4.727 2.862a1.019 1.019 0 0 1 .459.305 9.683 9.683 0 0 0 5.719 3.069 45.677 45.677 0 0 0 11.291.542l.7-.032c2.892-.129 5.938-.826 7.806-2.52a5.44 5.44 0 0 0 1.8-4.487c-.194-4.384-2.845-7.526-9.194-7.417z" transform="translate(-245.216 -288.126)" style="fill:#4a617c"/>
                                <path data-name="패스 9696" d="M427.882 659.53a.5.5 0 1 1-.526-.48.5.5 0 0 1 .526.48z" transform="translate(-353.253 -312.614)" style="fill:#0b0a0a"/>
                                <path data-name="패스 9697" d="m344.73 679.447.7-.032c2.892-.129 5.938-.826 7.806-2.52.1-.1.2-.195.3-.3-1.453-1.2-5.341-1.746-9.8-1.239a24.742 24.742 0 0 0-6.212 1.467l-.015.006-.138.056c-.739.292-4.032 1.522-6.333 1.244 0 0 .136.08.4.2a15.013 15.013 0 0 0 2 .569 45.674 45.674 0 0 0 11.292.549z" transform="translate(-278.045 -325.268)" style="fill:#fff"/>
                                <g data-name="그룹 4907">
                                    <g data-name="그룹 4906" style="clip-path:url(#xmra81z3ok)" transform="translate(53.001 349.904)">
                                        <g data-name="그룹 4905">
                                            <path data-name="패스 9698" d="M355.3 678.57s-1.19 1.237-4.9 2.087a41.1 41.1 0 0 1-16.7-.04" transform="translate(-333.138 -677.838)" style="stroke:#c7d9ea;stroke-miterlimit:10;stroke-width:2px;fill:none"/>
                                            <path data-name="패스 9699" d="M359.221 674.654s-1.249 1.273-5.017 2.047c-2.952.606-7.478.8-13.966.522" transform="translate(-338.26 -674.765)" style="stroke:#c7d9ea;stroke-miterlimit:10;stroke-width:2px;fill:none"/>
                                            <path data-name="패스 9700" d="M363.61 673.534s-2.207 1.806-14.047 2.288" transform="translate(-345.579 -673.886)" style="stroke:#c7d9ea;stroke-miterlimit:10;stroke-width:2px;fill:none"/>
                                        </g>
                                    </g>
                                </g>
                                <path data-name="패스 9702" d="M373.421 671.624c.059.031.118.062.181.09 0 0-2.775-.595-3.765 3.88a6.955 6.955 0 0 0 1.282.061c1.045-.089 2.521-.28 4.143-3.277a.931.931 0 0 1 .114-.117l-1.549-.539z" transform="translate(-308.488 -322.483)" style="fill:#4a617c"/>
                            </g>
                        </g>
                        <g data-name="그룹 4912">
                            <g data-name="그룹 4911">
                                <g data-name="그룹 4910" transform="translate(78.464 363.423)">
                                    <path data-name="패스 9703" d="M536.967 732.063a3.51 3.51 0 1 1-3.507-3.363 3.437 3.437 0 0 1 3.507 3.363z" transform="translate(-527.612 -728.7)" style="fill:#0095d5"/>
                                    <ellipse data-name="타원 540" cx="2.824" cy="2.707" rx="2.824" ry="2.707" transform="translate(3.351 3.831)" style="fill:#0095d5"/>
                                    <path data-name="패스 9704" d="m530.009 735.388-1.3 1.072a4.865 4.865 0 0 0-4.525-3.366c-2.526 0-4.572 1.694-4.572 3.782 0 .079 0 .158.01.236a1.176 1.176 0 0 1-.238.277c-.15.126-.348.234-.291.481.032.138.22.207.32.285.047.036.335.22.693.43a4.747 4.747 0 0 0 4.078 2.073 4.906 4.906 0 0 0 4.3-2.666l1.529 1.257z" transform="translate(-519.078 -732.148)" style="fill:#fff"/>
                                    <path data-name="패스 9705" d="m539 743.746.034-.076c.022-.052.041-.1.061-.163l.026-.073q.034-.116.067-.244l.037-.184v-.033l.018-.156c0-.029 0-.059.006-.1v-.029c.005-.067 0-.133 0-.2v-.055a2.8 2.8 0 0 0-.065-.482c-.011-.062-.028-.121-.045-.181l-.015-.054-.016-.048v-.012a1.842 1.842 0 0 0-.051-.144 3.045 3.045 0 0 0-.171-.37 3.162 3.162 0 0 0-.339-.5 1.837 1.837 0 0 0-.114-.127l-.046-.046a.106.106 0 0 0-.138 0 .1.1 0 0 0-.007.141l.03.04c.022.028.052.072.09.13s.071.112.127.206.1.188.144.281a3.515 3.515 0 0 1 .137.35c.015.042.026.083.042.138l.014.048.018.079a1.336 1.336 0 0 1 .028.132 2.8 2.8 0 0 1 .046.43v.335l-.021.169-.031.168c-.018.075-.039.149-.057.216l-.05.147a.426.426 0 0 1-.023.063l-.036.087c-.016.04-.031.078-.049.114l-.05.1-.045.089-.1.18-.063.1-.012.017-.031.049-.022.034-.027.041-.154.21-.047.059-.134.165-.048.055-.171.194a.1.1 0 0 0 .077.17h.006a.1.1 0 0 0 .062-.025l.167-.148.033-.03.056-.053.147-.15.063-.066.175-.206.037-.05.057-.077c.029-.039.059-.08.088-.124l.117-.184c.026-.042.049-.087.072-.131l.038-.072c.018-.048.039-.097.058-.144z" transform="translate(-533.705 -737.915)" style="fill:#0095d5"/>
                                    <path data-name="패스 9706" d="m544.8 744.616.026-.053a2.08 2.08 0 0 0 .055-.129l.029-.069c.019-.046.034-.094.05-.141l.024-.075c.019-.071.038-.144.055-.223l.019-.108c.01-.048.015-.085.019-.12l.011-.112v-.35a2.663 2.663 0 0 0-.057-.441c-.01-.057-.025-.111-.04-.169l-.031-.1a1.786 1.786 0 0 0-.044-.13 2.978 2.978 0 0 0-.441-.8 1.995 1.995 0 0 0-.1-.116l-.04-.042a.1.1 0 0 0-.151.14c0 .006.012.016.023.033s.041.063.075.119a3.89 3.89 0 0 1 .226.445 3.312 3.312 0 0 1 .115.318c.012.036.022.073.032.116l.014.053c0 .024.01.048.016.073s.017.076.023.118a2.838 2.838 0 0 1 .04.388v.303l-.017.151-.026.151a5.736 5.736 0 0 1-.046.194l-.043.138c-.005.017-.009.034-.017.052s-.018.047-.027.071-.028.075-.044.111l-.077.171-.085.164c-.013.025-.028.049-.042.074l-.007.011-.037.063-.015.026a.648.648 0 0 1-.024.041l-.127.19-.053.072-.1.133-.032.042-.028.034c-.078.1-.122.152-.123.155a.1.1 0 0 0 .008.135.1.1 0 0 0 .074.031l.046-.005.023-.021s.052-.047.143-.134l.023-.022.052-.052.122-.133.056-.063.149-.187.078-.111c.025-.036.052-.074.077-.116l.1-.167c.021-.038.04-.079.061-.12z" transform="translate(-538.448 -738.676)" style="fill:#0095d5"/>
                                    <path data-name="패스 9707" d="M550.476 745.689c.009-.018.016-.037.025-.057.018-.04.032-.084.048-.134l.017-.05c.017-.059.033-.121.049-.19l.017-.092c.008-.04.013-.073.016-.1l.01-.1v-.297a2.388 2.388 0 0 0-.051-.376c-.01-.05-.023-.1-.037-.149l-.027-.086a1.806 1.806 0 0 0-.036-.105 2.23 2.23 0 0 0-.13-.286 2.367 2.367 0 0 0-.256-.387c-.036-.044-.067-.077-.087-.1l-.036-.036a.1.1 0 0 0-.14 0 .1.1 0 0 0-.01.136l.022.031.062.1a2.908 2.908 0 0 1 .19.374c.032.081.067.168.1.267.01.03.019.062.027.094l.011.044c.002.009.008.042.014.064s.014.061.019.1a2.291 2.291 0 0 1 .032.323v.041a1.056 1.056 0 0 1 0 .127V744.928l-.011.093a.967.967 0 0 1-.016.1l-.011.06a4.297 4.297 0 0 1-.038.161l-.026.081-.01.033c0 .015-.009.029-.014.044l-.023.059a1.438 1.438 0 0 1-.038.093l-.066.144-.072.137c-.013.024-.027.048-.042.071s-.023.036-.032.054l-.142.217-.042.058-.036.047c-.037.051-.07.095-.1.132-.067.082-.1.13-.107.134a.1.1 0 0 0 .007.13.1.1 0 0 0 .076.035l.046-.007.021-.018s.045-.039.126-.113l.02-.017.048-.044.094-.1.061-.066.083-.1.113-.148c.024-.032.046-.064.07-.1l.086-.142.055-.1c.008-.017.016-.034.027-.052s.026-.071.044-.115z" transform="translate(-542.935 -740.018)" style="fill:#0095d5"/>
                                    <path data-name="패스 9708" d="M555.122 745.928v-.039a1.744 1.744 0 0 0-.046-.325c-.009-.045-.022-.088-.034-.129l-.009-.031-.015-.04c-.012-.034-.023-.067-.036-.094a1.889 1.889 0 0 0-.122-.249 2.047 2.047 0 0 0-.24-.332 1.355 1.355 0 0 0-.081-.083.433.433 0 0 0-.034-.031.106.106 0 0 0-.134 0 .1.1 0 0 0-.017.13l.02.027c.016.02.038.052.058.084a2.362 2.362 0 0 1 .175.318 2.171 2.171 0 0 1 .089.228c.009.026.016.052.025.082l.01.035c0 .014.007.028.01.042v.014c.006.025.012.052.017.083a1.7 1.7 0 0 1 .028.272v.037a.875.875 0 0 1 0 .107v.018h.085l-.086.008v.041l-.011.079a.837.837 0 0 1-.015.086l-.009.05c-.012.047-.025.1-.037.137l-.034.1a.331.331 0 0 1-.014.038l-.021.051a.816.816 0 0 1-.035.079l-.062.124-.067.117-.04.062-.164.232-.041.051-.032.041a1.053 1.053 0 0 1-.1.113l-.1.116a.1.1 0 0 0 .012.136.1.1 0 0 0 .068.026h.042l.021-.017s.043-.034.117-.1l.02-.017.046-.039.106-.1.042-.042.077-.086.107-.128.066-.088.082-.122c.016-.025.031-.052.046-.078l.006-.012.026-.046c.017-.031.032-.064.047-.1l.023-.049a1.02 1.02 0 0 0 .046-.115l.016-.045c.016-.051.032-.1.048-.164l.016-.078a.915.915 0 0 0 .016-.09l.01-.083v-.059a.172.172 0 0 1 0-.024 1.148 1.148 0 0 0 .013-.129z" transform="translate(-546.475 -741.14)" style="fill:#0095d5"/>
                                </g>
                            </g>
                            <path data-name="패스 9709" d="M528.279 747.614a.372.372 0 1 1-.389-.355.373.373 0 0 1 .389.355z" transform="translate(-447.251 -379.842)" style="fill:#0b0a0a"/>
                        </g>
                        <g data-name="그룹 4915">
                            <g data-name="그룹 4914">
                                <g data-name="그룹 4913">
                                    <path data-name="패스 9710" d="M602.192 711.1a2.665 2.665 0 1 1-2.913-2.263 2.609 2.609 0 0 1 2.913 2.263z" transform="translate(-504.676 -351.679)" style="fill:#0095d5"/>
                                    <path data-name="패스 9711" d="M605.876 723.992a2.145 2.145 0 1 1-2.344-1.822 2.1 2.1 0 0 1 2.344 1.822z" transform="translate(-508.38 -362.143)" style="fill:#0095d5"/>
                                    <path data-name="패스 9712" d="m597.627 713.694-.9.911a3.693 3.693 0 0 0-3.681-2.185c-1.906.2-3.318 1.638-3.154 3.214.006.06.015.119.026.177a.883.883 0 0 1-.158.228c-.1.108-.244.2-.182.386.035.1.182.139.264.19.037.024.271.139.557.27a3.6 3.6 0 0 0 3.242 1.245 3.723 3.723 0 0 0 3.037-2.35l1.253.828z" transform="translate(-498.931 -354.487)" style="fill:#fff"/>
                                    <path data-name="패스 9713" d="m605.066 720.647.02-.06c.013-.04.023-.083.034-.128l.014-.057c.011-.06.021-.123.031-.189l.014-.142V719.831c0-.051-.008-.1-.014-.152v-.042a2.116 2.116 0 0 0-.087-.359 1.3 1.3 0 0 0-.049-.133l-.015-.039a.543.543 0 0 1-.016-.035v-.009a.775.775 0 0 0-.05-.1 2.391 2.391 0 0 0-.159-.266 2.346 2.346 0 0 0-.3-.352.788.788 0 0 0-.1-.087l-.039-.031a.079.079 0 0 0-.1.012.078.078 0 0 0 .005.108l.026.028c.019.02.045.05.079.091s.062.079.112.146.091.133.13.2a2.522 2.522 0 0 1 .131.254c.014.029.027.06.042.1l.014.034.02.059a1.015 1.015 0 0 1 .032.1 2.058 2.058 0 0 1 .069.321v.043a1.1 1.1 0 0 1 .01.129V720.061l-.01.129a5.052 5.052 0 0 1-.026.168l-.026.115a.348.348 0 0 1-.012.049l-.02.069-.028.09-.03.08-.027.07-.063.144c-.011.027-.026.053-.039.079l-.007.014-.02.039-.014.027-.017.033-.1.17c-.01.018-.021.033-.031.048l-.088.135a.515.515 0 0 1-.032.045l-.114.161a.078.078 0 0 0 .071.122.075.075 0 0 0 .045-.024l.115-.125.023-.025.038-.044.1-.125.042-.055.116-.17.025-.04.036-.062.057-.1.074-.148.044-.1.023-.057.041-.126z" transform="translate(-510.419 -359.041)" style="fill:#0095d5"/>
                                    <path data-name="패스 9714" d="M609.325 720.875c0-.013.01-.027.015-.042.012-.033.022-.067.032-.1a.684.684 0 0 1 .017-.055c.01-.036.018-.074.026-.111l.012-.058c.009-.055.018-.112.025-.173l.006-.083v-.265c0-.05-.009-.1-.014-.14l-.005-.038a2.043 2.043 0 0 0-.078-.329 1.573 1.573 0 0 0-.044-.125l-.031-.074a1.83 1.83 0 0 0-.043-.095 2.1 2.1 0 0 0-.139-.244 2.154 2.154 0 0 0-.256-.323c-.034-.034-.062-.061-.084-.08l-.034-.029a.079.079 0 0 0-.108.014.08.08 0 0 0 .006.1l.02.023a3.718 3.718 0 0 1 .161.218 2.784 2.784 0 0 1 .223.415c.012.027.022.054.033.084l.015.039.018.054c.006.018.019.055.027.087a2.086 2.086 0 0 1 .061.29l.005.043c0 .036.008.072.009.11v.193l-.008.116c-.006.053-.013.1-.02.151l-.021.108a.361.361 0 0 1-.009.04l-.015.056c-.005.019-.015.059-.024.086l-.045.136-.051.13-.026.059-.005.009-.023.05-.01.021c0 .013-.011.024-.015.033l-.081.153-.034.058-.063.108-.022.034-.018.028-.081.127a.079.079 0 0 0 .016.1.077.077 0 0 0 .058.018l.034-.008.015-.017.1-.112.016-.019c.012-.014.024-.027.035-.044l.082-.109.037-.052.1-.153.05-.09c.016-.03.033-.061.049-.094l.062-.134c.013-.03.024-.063.037-.1z" transform="translate(-513.875 -359.27)" style="fill:#0095d5"/>
                                    <path data-name="패스 9715" d="m613.555 721.253.014-.045c.01-.032.017-.066.025-.1l.009-.04.023-.147.006-.071v-.227a1.114 1.114 0 0 0-.011-.117v-.034a1.717 1.717 0 0 0-.067-.279 1.215 1.215 0 0 0-.04-.11l-.027-.062a.946.946 0 0 0-.036-.077 1.86 1.86 0 0 0-.345-.478c-.031-.031-.057-.053-.073-.067l-.03-.025a.08.08 0 0 0-.106.013.079.079 0 0 0 0 .1l.02.022.055.07a2.194 2.194 0 0 1 .173.267 2.114 2.114 0 0 1 .093.194.617.617 0 0 1 .028.069l.012.033c0 .016.01.031.016.047s.015.045.022.072a1.785 1.785 0 0 1 .049.241v.031c0 .032.007.063.008.1v.135a.6.6 0 0 1 0 .077v.047c0 .042-.011.086-.017.125l-.013.063-.005.025c0 .012 0 .022-.007.034s-.009.031-.013.046-.013.05-.021.073l-.039.114-.043.109-.026.057-.02.043-.09.175-.028.047-.023.038c-.025.041-.045.077-.066.107l-.07.109a.079.079 0 0 0 .076.117l.034-.009.014-.015.086-.095.014-.015.032-.037.063-.082.041-.054.054-.082.074-.121c.016-.026.03-.052.045-.082l.054-.114c.012-.027.022-.055.033-.082 0-.012.01-.027.016-.042s.016-.056.027-.091z" transform="translate(-517.225 -359.944)" style="fill:#0095d5"/>
                                    <path data-name="패스 9716" d="M616.957 721.071v-.03a1.415 1.415 0 0 0-.06-.242 1.428 1.428 0 0 0-.036-.094l-.01-.023-.014-.029c-.012-.025-.023-.049-.035-.069a1.3 1.3 0 0 0-.112-.178 1.527 1.527 0 0 0-.207-.232.871.871 0 0 0-.068-.057.334.334 0 0 0-.028-.02.082.082 0 0 0-.1.012.077.077 0 0 0 0 .1l.018.019.051.059a1.892 1.892 0 0 1 .157.226 1.742 1.742 0 0 1 .085.165l.025.06.01.026c0 .011.007.02.01.031v.011l.02.061a1.389 1.389 0 0 1 .043.2v.028a.726.726 0 0 1 .007.081v.014h.065l-.064.012v.196a2.369 2.369 0 0 1-.017.106l-.018.076c0 .01 0 .02-.008.03s-.008.027-.012.04-.012.042-.02.062l-.037.1-.041.094-.025.049-.105.188-.026.041-.022.034c-.023.035-.043.066-.063.092l-.066.1a.076.076 0 0 0 .02.1.075.075 0 0 0 .053.015l.031-.006.015-.015s.03-.029.08-.082l.014-.014a.4.4 0 0 0 .031-.033l.072-.085.029-.034.052-.071.071-.105.044-.072.052-.1.029-.063v-.01l.015-.036a.708.708 0 0 0 .028-.077l.013-.039c.01-.03.019-.061.026-.091l.008-.036c.008-.04.016-.081.023-.128l.006-.06a.648.648 0 0 0 0-.07v-.108a.117.117 0 0 1 0-.018.9.9 0 0 0-.009-.101z" transform="translate(-519.863 -360.516)" style="fill:#0095d5"/>
                                </g>
                            </g>
                            <path data-name="패스 9717" d="M596.862 724.118a.3.3 0 1 1-.317-.289.3.3 0 0 1 .317.289z" transform="translate(-504.183 -363.454)" style="fill:#0b0a0a"/>
                        </g>
                    </g>
                </g>
                <circle data-name="타원 541" cx="33" cy="33" r="33" transform="translate(42 315)" style="fill:none"/>
            </g>
        </g>
        <g data-name="합치기 58" style="fill:#fff">
            <path d="M12826.366-11147.938a1.326 1.326 0 0 1-.931-.251 1.248 1.248 0 0 1-.262-.911v-1.285a1.246 1.246 0 0 1 .262-.912 1.331 1.331 0 0 1 .931-.251h5a.285.285 0 0 0 .322-.322v-.2a.284.284 0 0 0-.322-.322h-5.628a.49.49 0 0 1-.447-.219.887.887 0 0 1-.142-.5.863.863 0 0 1 .142-.49.5.5 0 0 1 .447-.209h6.511a1.334 1.334 0 0 1 .931.251 1.25 1.25 0 0 1 .261.912v1.285a1.246 1.246 0 0 1-.261.911 1.329 1.329 0 0 1-.931.251h-5a.287.287 0 0 0-.326.322v.2a.286.286 0 0 0 .326.321h5.878a.492.492 0 0 1 .448.216.9.9 0 0 1 .139.5.86.86 0 0 1-.139.489.5.5 0 0 1-.448.209zm-9.822-1.008a.637.637 0 0 1-.273-.573v-10.724a.642.642 0 0 1 .273-.576 1.1 1.1 0 0 1 .622-.181 1.076 1.076 0 0 1 .609.181.642.642 0 0 1 .273.576v10.724a.637.637 0 0 1-.273.573 1.064 1.064 0 0 1-.609.184 1.091 1.091 0 0 1-.622-.184zm-13.609 0a.642.642 0 0 1-.271-.573v-10.724a.647.647 0 0 1 .271-.576 1.118 1.118 0 0 1 .625-.181 1.1 1.1 0 0 1 .622.181.642.642 0 0 1 .273.576v3.373h1.317a.548.548 0 0 1 .489.225.955.955 0 0 1 .155.545.991.991 0 0 1-.155.554.542.542 0 0 1-.489.229h-1.317v5.8a.637.637 0 0 1-.273.573 1.091 1.091 0 0 1-.622.184 1.105 1.105 0 0 1-.625-.186zm-12.737 0a.637.637 0 0 1-.273-.573v-10.724a.642.642 0 0 1 .273-.576 1.1 1.1 0 0 1 .622-.181 1.1 1.1 0 0 1 .622.181.642.642 0 0 1 .273.576v3.373h1.317a.551.551 0 0 1 .49.225.939.939 0 0 1 .151.545.974.974 0 0 1-.151.554.545.545 0 0 1-.49.229h-1.317v5.8a.637.637 0 0 1-.273.573 1.089 1.089 0 0 1-.622.184 1.091 1.091 0 0 1-.62-.186zm17.183-2.2a.939.939 0 0 1-.154-.547.913.913 0 0 1 .154-.532.548.548 0 0 1 .477-.226q1.793 0 3.6-.041a55.822 55.822 0 0 0 3.592-.193.519.519 0 0 1 .483.167.914.914 0 0 1 .19.5 1.019 1.019 0 0 1-.1.554.511.511 0 0 1-.447.274c-.467.045-.985.087-1.553.119s-1.169.058-1.8.073-1.278.036-1.952.052-1.343.02-2.017.02a.544.544 0 0 1-.474-.218zm-12.338-1.079a1.243 1.243 0 0 1-.261-.908v-5.77a1.252 1.252 0 0 1 .261-.911 1.321 1.321 0 0 1 .928-.251h4.423a.536.536 0 0 1 .478.226.914.914 0 0 1 .154.544.909.909 0 0 1-.154.535.543.543 0 0 1-.478.222h-3.5a.281.281 0 0 0-.318.322v4.4a.282.282 0 0 0 .318.321c.793 0 1.553-.022 2.274-.064s1.427-.109 2.11-.2a.558.558 0 0 1 .509.154.816.816 0 0 1 .219.5 1.132 1.132 0 0 1-.084.566.5.5 0 0 1-.422.287c-.29.038-.608.074-.957.106s-.75.064-1.2.09-.95.048-1.507.064-1.176.02-1.869.02a1.32 1.32 0 0 1-.925-.251zm-11.854.252a1.344 1.344 0 0 1-.932-.252 1.261 1.261 0 0 1-.257-.908v-6.3a.631.631 0 0 1 .271-.561 1.074 1.074 0 0 1 .611-.18 1.074 1.074 0 0 1 .609.18.634.634 0 0 1 .273.561v2.171h2.687v-2.171a.628.628 0 0 1 .274-.561 1.064 1.064 0 0 1 .608-.18 1.071 1.071 0 0 1 .608.18.626.626 0 0 1 .271.561v6.3a1.243 1.243 0 0 1-.258.908 1.33 1.33 0 0 1-.932.252zm.576-1.82a.283.283 0 0 0 .319.322h2.045a.284.284 0 0 0 .322-.322v-1.972h-2.687zm26.128-.441a2.92 2.92 0 0 1-1.082-.65 2.783 2.783 0 0 1-.661-.992 3.481 3.481 0 0 1-.222-1.26 3.481 3.481 0 0 1 .222-1.263 2.809 2.809 0 0 1 .661-.992 2.959 2.959 0 0 1 1.082-.65 4.512 4.512 0 0 1 1.521-.232 4.509 4.509 0 0 1 1.511.232 2.93 2.93 0 0 1 1.092.65 2.806 2.806 0 0 1 .66.992 3.461 3.461 0 0 1 .223 1.263 3.46 3.46 0 0 1-.223 1.26 2.781 2.781 0 0 1-.66.992 2.892 2.892 0 0 1-1.092.65 4.534 4.534 0 0 1-1.511.232 4.537 4.537 0 0 1-1.521-.23zm.161-4.094a1.679 1.679 0 0 0-.432 1.191 1.677 1.677 0 0 0 .432 1.188 1.783 1.783 0 0 0 1.359.461 1.783 1.783 0 0 0 1.359-.461 1.681 1.681 0 0 0 .432-1.188 1.683 1.683 0 0 0-.432-1.191 1.794 1.794 0 0 0-1.359-.461 1.794 1.794 0 0 0-1.359.463zm21.862 3.823a.648.648 0 0 1-.273-.576v-5.164a.651.651 0 0 1 .273-.576 1.108 1.108 0 0 1 .622-.181 1.12 1.12 0 0 1 .625.181.649.649 0 0 1 .273.576v1.8h1.314a.552.552 0 0 1 .489.226.933.933 0 0 1 .155.545.968.968 0 0 1-.155.554.543.543 0 0 1-.489.231h-1.314v1.8a.646.646 0 0 1-.273.576 1.128 1.128 0 0 1-.625.181 1.116 1.116 0 0 1-.622-.168zm-7.869-.744a1.258 1.258 0 0 1-.258-.908v-3.656a.637.637 0 0 1 .273-.573 1.109 1.109 0 0 1 .622-.181 1.131 1.131 0 0 1 .638.181.644.644 0 0 1 .273.573v2.97a.284.284 0 0 0 .322.322q1.16 0 2.239-.064c.718-.042 1.42-.109 2.1-.2a.563.563 0 0 1 .513.155.814.814 0 0 1 .216.506 1.1 1.1 0 0 1-.084.563.493.493 0 0 1-.422.286c-.286.039-.608.074-.957.106s-.747.064-1.191.091-.94.051-1.5.064-1.173.022-1.853.022a1.337 1.337 0 0 1-.931-.255z" style="stroke:none" transform="translate(-12775.461 11199.938)"/>
            <path d="M12833.127-11147.938c.207 0 .354-.07.448-.21a.86.86 0 0 0 .139-.489.902.902 0 0 0-.139-.5c-.094-.144-.241-.216-.448-.216h-5.878c-.216 0-.326-.105-.326-.32v-.198c0-.216.11-.322.326-.322h4.996c.447 0 .76-.083.93-.251.175-.167.262-.47.262-.911v-1.286c0-.441-.087-.744-.261-.912-.171-.167-.484-.25-.93-.25h-6.512c-.203 0-.354.07-.447.208a.863.863 0 0 0-.141.49c0 .187.047.354.141.497.093.147.244.218.447.218h5.628c.216 0 .323.107.323.323v.196c0 .213-.107.322-.323.322h-4.996c-.448 0-.76.084-.93.251-.175.168-.262.47-.262.912v1.285c0 .442.087.74.262.912.17.168.482.25.93.25h6.761m-15.961-.824c.226 0 .429-.061.61-.183.183-.122.273-.313.273-.574v-10.723c0-.26-.09-.454-.274-.576-.18-.12-.383-.181-.609-.181-.231 0-.441.06-.622.18-.184.123-.273.316-.273.577v10.723c0 .261.09.452.273.574.18.122.39.183.622.183m-13.606 0c.231 0 .441-.061.622-.183.183-.122.273-.313.273-.574v-5.798h1.317c.223 0 .387-.074.49-.229a.991.991 0 0 0 .155-.554.955.955 0 0 0-.155-.545c-.103-.15-.267-.224-.49-.224h-1.317v-3.373c0-.26-.09-.454-.273-.576-.181-.12-.391-.181-.622-.181-.233 0-.442.06-.625.18-.181.123-.27.316-.27.577v10.723c0 .261.089.452.27.574.183.122.392.183.625.183m-12.74 0c.232 0 .44-.061.621-.183.184-.122.274-.313.274-.574v-5.798h1.317c.223 0 .387-.074.49-.229a.974.974 0 0 0 .152-.554.939.939 0 0 0-.152-.545c-.103-.15-.267-.224-.49-.224h-1.317v-3.373c0-.26-.09-.454-.274-.576-.18-.12-.39-.181-.622-.181-.231 0-.441.06-.622.18-.183.123-.273.316-.273.577v10.723c0 .261.09.452.273.574.18.122.39.183.622.183m17.037-2.158c.674 0 1.344-.007 2.017-.02.674-.015 1.324-.032 1.952-.051a56.69 56.69 0 0 0 1.801-.073 39.63 39.63 0 0 0 1.553-.12c.216-.02.364-.11.447-.274a1.02 1.02 0 0 0 .1-.554.914.914 0 0 0-.19-.503c-.093-.114-.226-.17-.401-.17a.794.794 0 0 0-.082.003c-1.186.103-2.38.167-3.592.194-1.208.028-2.41.04-3.605.04-.211 0-.373.079-.476.226a.913.913 0 0 0-.154.533c0 .215.05.395.154.546.103.149.265.223.476.223m-11.886-1.05c.693 0 1.314-.007 1.869-.02a43.881 43.881 0 0 0 2.705-.154c.349-.032.667-.068.957-.106.206-.026.345-.123.422-.287.074-.161.1-.35.084-.566a.816.816 0 0 0-.219-.503.526.526 0 0 0-.397-.163.878.878 0 0 0-.112.008c-.683.093-1.385.161-2.11.202-.722.042-1.481.065-2.274.065-.216 0-.319-.11-.319-.321v-4.398c0-.216.103-.322.319-.322h3.498c.215 0 .374-.074.477-.222a.909.909 0 0 0 .154-.535.914.914 0 0 0-.154-.544c-.103-.151-.262-.226-.477-.226h-4.423c-.448 0-.757.084-.928.251-.174.167-.26.474-.26.912v5.77c0 .438.086.74.26.907.17.168.48.252.928.252m-8.946 0c.449 0 .761-.084.932-.252.174-.167.258-.47.258-.908v-6.3c0-.252-.088-.438-.272-.561a1.07 1.07 0 0 0-.608-.18c-.226 0-.425.058-.608.18-.184.123-.275.31-.275.56v2.171h-2.686v-2.17c0-.252-.093-.438-.274-.561a1.074 1.074 0 0 0-.61-.18c-.225 0-.427.058-.61.18-.181.123-.271.31-.271.56v6.301c0 .439.087.741.257.908.175.168.487.252.931.252h3.836m-3.26-3.792h2.687v1.972c0 .216-.106.322-.322.322h-2.045c-.213 0-.32-.106-.32-.322v-1.972m27.65 1.763c.57 0 1.071-.078 1.51-.232.437-.152.805-.37 1.092-.65.29-.281.508-.61.66-.993a3.46 3.46 0 0 0 .222-1.26c0-.46-.074-.879-.222-1.262a2.806 2.806 0 0 0-.66-.993c-.287-.28-.655-.496-1.092-.65-.439-.155-.94-.232-1.51-.232-.581 0-1.087.077-1.521.232-.432.154-.793.37-1.082.65-.29.28-.51.613-.662.993a3.481 3.481 0 0 0-.221 1.262c0 .457.074.876.221 1.26.152.383.372.712.662.992.289.28.65.5 1.082.65.434.155.94.233 1.52.233m0-4.787c.615 0 1.07.154 1.36.46.286.31.431.706.431 1.192 0 .484-.145.88-.432 1.189-.29.31-.744.46-1.359.46s-1.07-.15-1.36-.46c-.286-.309-.43-.705-.43-1.189 0-.486.144-.883.43-1.191.29-.307.745-.461 1.36-.461m21.125 4.465c.232 0 .441-.062.625-.18.18-.123.274-.313.274-.577v-1.805h1.314c.226 0 .387-.077.49-.231a.968.968 0 0 0 .155-.554.933.933 0 0 0-.156-.545c-.102-.148-.263-.225-.489-.225h-1.314v-1.804c0-.26-.093-.454-.274-.576a1.12 1.12 0 0 0-.625-.181c-.232 0-.438.06-.622.18-.18.123-.273.316-.273.577v5.164c0 .264.093.454.273.576.184.12.39.18.622.18m-7.558-.67c.68 0 1.3-.009 1.853-.022a38.054 38.054 0 0 0 1.498-.064c.444-.026.84-.059 1.191-.09.35-.033.671-.068.957-.107.207-.026.348-.122.422-.287.075-.16.104-.351.084-.563a.814.814 0 0 0-.215-.506.527.527 0 0 0-.402-.163.878.878 0 0 0-.111.008c-.68.094-1.382.161-2.1.203-.719.042-1.466.064-2.239.064-.216 0-.322-.106-.322-.322v-2.97c0-.26-.093-.45-.274-.573-.18-.119-.392-.18-.637-.18a1.11 1.11 0 0 0-.622.18c-.184.122-.274.313-.274.573v3.657c0 .437.087.74.258.908.174.168.483.255.933.255m8.147 8.054h-6.76c-.73 0-1.263-.176-1.63-.537-.38-.37-.563-.902-.563-1.626v-1.285c0-.635.14-1.12.428-1.48a1.509 1.509 0 0 1-.156-.2 1.905 1.905 0 0 1-.3-1.038c0-.34.08-.653.24-.935-.43-.073-.772-.235-1.034-.49l-.002-.001-.002-.002c-.376-.367-.559-.899-.559-1.623v-3.657c0-.597.256-1.097.72-1.406a2.124 2.124 0 0 1 1.176-.347c.44 0 .84.116 1.188.345l.005.003.004.004c.46.31.714.809.714 1.401v2.287c.507-.01 1.01-.029 1.503-.057a26.136 26.136 0 0 0 2.021-.195l.003-.001h.004a1.593 1.593 0 0 1 .516.007v-2.472c0-.594.253-1.092.711-1.403l.007-.005.007-.005a2.1 2.1 0 0 1 1.17-.344c.423 0 .83.12 1.173.344l.006.004.006.005c.46.31.714.81.714 1.404v.804h.314c.554 0 1.02.233 1.312.657.216.31.333.697.333 1.113 0 .416-.11.79-.326 1.111-.288.433-.757.674-1.319.674h-.314v.805c0 .411-.122.777-.35 1.066.235.346.35.8.35 1.372v1.286c0 .553-.107.994-.325 1.334.116.095.217.209.302.34.2.31.3.66.3 1.044 0 .386-.103.736-.305 1.041l-.003.004-.003.005c-.282.418-.736.649-1.276.649zm-15.961-.825c-.428 0-.836-.122-1.179-.352-.462-.31-.716-.808-.716-1.405v-.668c-.54.051-1.06.091-1.588.12a57.66 57.66 0 0 1-1.829.076 112.668 112.668 0 0 1-3.998.071c-.543 0-1.003-.231-1.296-.65l-.003-.004-.002-.004a1.927 1.927 0 0 1-.33-1.111c0-.409.11-.778.33-1.097l.003-.005.004-.005c.29-.414.762-.651 1.294-.651.437 0 .87-.002 1.3-.005a3.787 3.787 0 0 1-1.874-1.904c-.048.125-.11.243-.182.356l-.002.003-.002.002c-.288.437-.758.678-1.324.678h-.317v4.798c0 .597-.255 1.096-.717 1.405-.342.23-.75.352-1.178.352-.432 0-.829-.118-1.18-.35l-.002-.002-.003-.003c-.459-.31-.71-.807-.71-1.402v-1.744a37.015 37.015 0 0 1-2.258.207c-.503.033-1.06.052-1.538.067h-.008c-.573.012-1.21.02-1.891.02-.725 0-1.256-.176-1.624-.535-.38-.367-.565-.9-.565-1.626v-1.354c-.22.109-.473.167-.749.167h-.317v4.798c0 .597-.254 1.095-.716 1.404a2.1 2.1 0 0 1-1.18.353c-.427 0-.836-.122-1.178-.352-.462-.31-.717-.808-.717-1.405v-2.33a1.638 1.638 0 0 1-.272.345c-.368.36-.901.534-1.628.534h-3.836c-.721 0-1.252-.174-1.624-.531l-.004-.004-.004-.004c-.374-.367-.556-.897-.556-1.62v-6.302c0-.584.251-1.076.708-1.386l.004-.004.005-.003c.346-.23.738-.347 1.165-.347.426 0 .816.117 1.163.347l.005.003.004.004c.459.311.71.804.71 1.386v1.171h.687v-1.17c0-.588.255-1.082.718-1.392.35-.232.74-.349 1.165-.349.425 0 .815.117 1.162.347.176.118.32.262.434.427.04-.532.29-.972.714-1.254a2.116 2.116 0 0 1 1.175-.348c.427 0 .833.12 1.176.348.464.308.72.81.72 1.409v2.373h.317c.276 0 .529.057.75.166v-1.196c0-.72.189-1.267.563-1.63.368-.358.9-.532 1.625-.532h4.423c.535 0 .987.222 1.28.628.049-.511.293-.938.702-1.213l.006-.005.006-.004a2.102 2.102 0 0 1 1.173-.344c.426 0 .833.12 1.175.348.464.308.72.81.72 1.409v2.373h.317c.47 0 .874.165 1.163.47.025-.48.119-.935.28-1.356l.003-.006.003-.006c.204-.513.506-.964.894-1.34.388-.376.873-.67 1.44-.873.54-.194 1.166-.291 1.858-.291.68 0 1.302.097 1.845.29.579.204 1.07.499 1.455.876.213.206.398.434.558.683v-.82c0-.6.255-1.1.72-1.41a2.116 2.116 0 0 1 1.175-.347c.425 0 .815.117 1.163.348.464.308.72.81.72 1.409v10.723c0 .597-.255 1.095-.717 1.405-.348.233-.74.352-1.166.352zm-2.453-6.403a3.628 3.628 0 0 1-.76.565c.34-.023.678-.048 1.014-.078a1.898 1.898 0 0 1 .304-.003v-1.167a3.77 3.77 0 0 1-.558.683zm-29.948-.303h.686v-.294h-.686v.294zm12.811-3.067v3.035a38.731 38.731 0 0 0 1.535-.057c.682-.039 1.366-.104 2.034-.195a1.685 1.685 0 0 1 .52.006v-3.402c-.297.396-.746.613-1.272.613h-2.817zm13.206-.106c-.075.083-.16.215-.16.507 0 .294.088.426.164.507.082.089.318.143.627.143.308 0 .542-.054.628-.144.076-.082.163-.216.163-.506 0-.29-.085-.424-.161-.507-.089-.09-.324-.145-.63-.145s-.54.055-.63.145z" style="fill:rgba(8,97,185,.6);stroke:none" transform="translate(-12775.461 11199.938)"/>
        </g>
    </g>
</svg>
