<svg xmlns="http://www.w3.org/2000/svg" xmlns:xlink="http://www.w3.org/1999/xlink" width="66" height="66" viewBox="0 0 66 66">
    <defs>
        <radialGradient id="8ajb47fpea" cx=".5" cy=".5" r=".5" gradientTransform="rotate(-8.934 -11.782 -46.594)" gradientUnits="objectBoundingBox">
            <stop offset="0" stop-color="#ff8599" stop-opacity=".4"/>
            <stop offset="1" stop-color="#ff8599" stop-opacity="0"/>
        </radialGradient>
        <radialGradient id="dl2c5h012b" cx=".5" cy=".5" r=".5" gradientTransform="rotate(-8.88 -11.785 -47.029)" xlink:href="#8ajb47fpea"/>
        <radialGradient id="xzw0q7k2uc" cx=".142" cy=".509" r=".243" gradientTransform="matrix(3.756 -.268 2.399 2.209 -1.611 -.577)" gradientUnits="objectBoundingBox">
            <stop offset="0" stop-color="#d4645f"/>
            <stop offset="1" stop-color="#d4645f" stop-opacity="0"/>
        </radialGradient>
        <radialGradient id="mba8so1ngd" cx=".487" cy=".563" r=".407" gradientTransform="matrix(-1.058 .291 -.229 -.681 -2.734 -9.817)" gradientUnits="objectBoundingBox">
            <stop offset="0" stop-color="#351202"/>
            <stop offset="1" stop-color="#683e31"/>
        </radialGradient>
        <radialGradient id="zi04t4s1be" cx=".5" cy=".5" r=".5" gradientTransform="rotate(-13.59 -9.176 -64.632)" xlink:href="#8ajb47fpea"/>
        <radialGradient id="eoi8xwq5of" cx=".5" cy=".5" r=".5" gradientTransform="rotate(-13.59 -11.149 -78.043)" xlink:href="#8ajb47fpea"/>
    </defs>
    <g data-name="그룹 5019">
        <g data-name="그룹 4962" transform="translate(-270 -315)">
            <circle data-name="타원 555" cx="33" cy="33" r="33" transform="translate(270 315)" style="fill:#f3dfbc"/>
            <g data-name="그룹 4935">
                <circle data-name="타원 544" cx="33" cy="33" r="33" transform="translate(270 315)" style="fill:none"/>
                <g data-name="그룹 4934">
                    <path data-name="빼기 63" d="M12550.658-11513.719h-23.925l1.485-2.52h20.952l1.484 2.517z" transform="translate(-12234.723 11874.406)" style="stroke:transparent;stroke-miterlimit:10;fill:#fff"/>
                    <path data-name="빼기 62" d="M12553.552-11508.809h-29.715l1.876-3.182h25.964l1.872 3.179z" transform="translate(-12234.723 11874.406)" style="stroke:transparent;stroke-miterlimit:10;fill:#fff"/>
                    <path data-name="빼기 61" d="M12556.93-11503.078h-36.47l2.36-4.006h31.749l2.359 4z" transform="translate(-12234.723 11874.406)" style="stroke:transparent;stroke-miterlimit:10;fill:#fff"/>
                    <g data-name="그룹 4925" transform="translate(285.637 337)">
                        <path data-name="사각형 1611" transform="translate(1.832 7.968)" style="fill:#000038" d="M0 0h.601v11.392H0z"/>
                        <ellipse data-name="타원 543" cx="2.119" cy=".582" rx="2.119" ry=".582" transform="translate(.014 18.196)" style="fill:#000038"/>
                        <rect data-name="사각형 1612" width="4.265" height="8.242" rx="2.133" style="fill:#000060"/>
                        <g data-name="그룹 4924" transform="translate(.779 .906)">
                            <rect data-name="사각형 1613" width="2.708" height="2.708" rx="1.354" style="fill:red"/>
                            <rect data-name="사각형 1614" width="2.708" height="2.708" rx="1.354" transform="translate(0 3.301)" style="fill:#9ce3d2"/>
                        </g>
                    </g>
                    <g data-name="그룹 4933">
                        <g data-name="그룹 4930">
                            <path data-name="패스 9729" d="M459.486 667.081c-.085.147-.676 1.191-.381 1.5a.791.791 0 0 0 1.054.151 2.64 2.64 0 0 0 .251-1.585c-.089-.267-.924-.066-.924-.066z" transform="translate(-163.601 -304.468)" style="fill:#a3d6f0"/>
                            <path data-name="패스 9730" d="M495.688 686.1a.99.99 0 0 0-.9.764c0 .2.461.3.946.187.6-.133.829-.48.809-.638-.023-.176-.369-.344-.855-.313z" transform="translate(-196.832 -322.202)" style="fill:#674649"/>
                            <path data-name="패스 9731" d="m499.441 682.163.063 1.431-1.042-.357-.023-1.163z" transform="translate(-200.224 -318.466)" style="fill:#ffdac3"/>
                            <path data-name="패스 9732" d="M498.96 692.813c.345-.064.459.119.459.119l.032.628s-1.1.409-1.068.389c.016-.01.026-.747.026-.747a1.049 1.049 0 0 1 .551-.389z" transform="translate(-200.172 -328.432)" style="fill:#e0ffff"/>
                            <path data-name="패스 9733" d="M476.016 533.951a2.3 2.3 0 0 1 .947.159c.383.1 1.229.252 1.416.339a1.016 1.016 0 0 1 .438.458c.113.253-1 .66-1.476.479a2.916 2.916 0 0 1-1.173-.916c-.187-.309-.247-.487-.152-.519z" transform="translate(-179.349 -180.822)" style="fill:#ff9b41"/>
                            <path data-name="패스 9734" d="M546.574 541.925c.016-.081-.075-.2-.269-.261s-.655-.117-.664.046c-.008.149.127.323.384.431a.463.463 0 0 0 .549-.216z" transform="translate(-244.082 -187.945)" style="fill:#ff8313"/>
                            <path data-name="패스 9735" d="m546.7 525.586-.657-.033-.44 1.911.72.371z" transform="translate(-244.051 -173.035)" style="fill:#ffcab2"/>
                            <path data-name="패스 9736" d="m464.172 595.494-1.893-.341s-.279.011-.285.444c-.018 1.264.219 2.229.17 3.5a15.341 15.341 0 0 1-.257 1.513.607.607 0 0 0 .6.556.883.883 0 0 0 .674-.194 7.02 7.02 0 0 0 .486-1.435c.138-.591.24-1.976.337-2.581a8.865 8.865 0 0 1 .318-1.072z" transform="translate(-166.281 -237.704)" style="fill:#8b7274"/>
                            <path data-name="패스 9737" d="m483.163 603.9-2.652-.233a6.732 6.732 0 0 1 .982 2.6c.021 1.072.029 4 .029 4a1.122 1.122 0 0 1 .769-.577 1.164 1.164 0 0 1 .986.126s-.1-3.4-.076-4.181a12.864 12.864 0 0 0-.038-1.735z" transform="translate(-183.567 -245.615)" style="fill:#8b7274"/>
                            <path data-name="패스 9738" d="m468.334 616.415-.42.483" transform="translate(-171.862 -257.459)" style="stroke-linecap:round;stroke-linejoin:round;stroke-width:.116px;stroke:#6e4e51;fill:none"/>
                            <path data-name="패스 9739" d="M510.947 616.675c.092.142.222.418.375.465" transform="translate(-211.846 -257.701)" style="stroke-linecap:round;stroke-linejoin:round;stroke-width:.116px;stroke:#6e4e51;fill:none"/>
                            <path data-name="패스 9740" d="m485.382 529.847-1.067-.08-.31 1.343 1.222.12z" transform="translate(-186.813 -176.95)" style="fill:#ffcab2"/>
                            <path data-name="패스 9741" d="m474.055 536.816-.628-.163-1.305-.241s.35 1.975 1.305 1.988 2.007-1.126 2.007-1.126z" transform="translate(-175.772 -183.124)" style="fill:#ffcab2"/>
                            <path data-name="패스 9742" d="M444.1 496.185a4.183 4.183 0 0 1-.907-1.779c-.142-.608-.136-.863-.241-1.183a.53.53 0 0 0-.682-.334l-.293.151a.745.745 0 0 0-.563.783 5.089 5.089 0 0 0 .4 1.431 19.757 19.757 0 0 0 1.2 2.368z" transform="translate(-147.243 -142.656)" style="fill:#ffb16b"/>
                            <path data-name="패스 9743" d="m519.019 548.877-.69-.2c-.34-.093-.451-.051-.537.291-.122.487.021.3-.089.226a5.432 5.432 0 0 0-1-.49s-1.139 2.107-.294 2.251a2.764 2.764 0 0 0 2.046-.1 1.294 1.294 0 0 0 .79-1.127c.047-.28.124-.746-.226-.851z" transform="translate(-216.629 -194.48)" style="fill:#ffb16b"/>
                            <g data-name="그룹 4926">
                                <path data-name="패스 9744" d="M475.992 485.241a.884.884 0 0 0-.5-.2 1.793 1.793 0 0 0-1.033.372 1.242 1.242 0 0 0-.724.92 5.837 5.837 0 0 0 .352 1.338c.118.561 1.424.384 2.3.384.354 0 .658-.683.743-1.169a1.216 1.216 0 0 0-.2-.937c-.225-.372-.345-.709-.7-.739a.663.663 0 0 0-.238.031z" transform="translate(-177.262 -135.387)" style="fill:#471404"/>
                                <path data-name="패스 9745" d="M482.837 500.644a1.158 1.158 0 0 1-1.394 1.211c-.737-.13-1.055-.752-.884-1.613s.675-1.219 1.411-1.09.901.614.867 1.492z" transform="translate(-183.569 -148.481)" style="fill:#ffdac9"/>
                                <path data-name="패스 9754" d="M478.964 493.453a1 1 0 0 1-.452.663 1.478 1.478 0 0 1-.92.222c-.289-.03-.176-.061-.044-.318.161-.312.4-1.068 1.176-.886.37.086.24.319.24.319z" transform="translate(-180.686 -142.886)" style="fill:#471404"/>
                                <path data-name="패스 9755" d="M476.164 511.293s-.136-.3-.347-.205a.371.371 0 0 0-.076.569.935.935 0 0 0 .429.251z" transform="translate(-179.045 -159.576)" style="fill:#ffdac9"/>
                                <path data-name="패스 9756" d="M478.618 514.846a.24.24 0 0 1 .2.135" transform="translate(-181.807 -163.086)" style="stroke:#ff9a5b;stroke-linecap:round;stroke-linejoin:round;stroke-width:.116px;fill:none"/>
                                <path data-name="패스 9757" d="m511.275 514.773-.031.662a1.5 1.5 0 0 0 .233-.125c.2-.134.4-.488.186-.655-.186-.142-.388.118-.388.118z" transform="translate(-212.122 -162.869)" style="fill:#ffdac9"/>
                                <path data-name="패스 9758" d="M513.005 518.24a.327.327 0 0 1 .2-.091" transform="translate(-213.758 -166.155)" style="stroke:#ff9a5b;stroke-linecap:round;stroke-linejoin:round;stroke-width:.116px;fill:none"/>
                                <path data-name="패스 9759" d="M504.058 519.288a.379.379 0 1 0-.315.433.379.379 0 0 0 .315-.433z" transform="translate(-204.745 -166.916)" style="fill:url(#8ajb47fpea)"/>
                                <path data-name="패스 9760" d="M479.494 517.31a.379.379 0 1 0-.316.433.379.379 0 0 0 .316-.433z" transform="translate(-181.921 -165.078)" style="fill:url(#dl2c5h012b)"/>
                                <path data-name="패스 9761" d="M491.838 496.337a.98.98 0 0 1-.38.691.681.681 0 0 1-.493.17 1.925 1.925 0 0 0 .476-.768c.105-.296.383-.337.397-.093z" transform="translate(-193.268 -145.741)" style="fill:#471404"/>
                                <path data-name="패스 9762" d="M502.669 496.49c-.094.126.083.625.208.8a1.286 1.286 0 0 0 .477.4c-.135-.36.106-1.011-.1-1.177s-.585-.023-.585-.023z" transform="translate(-204.13 -145.976)" style="fill:#471404"/>
                            </g>
                            <path data-name="패스 9763" d="m462.057 531.173-1.193-.376s-.62.73-1.185.555c-.6-.185-.776-1.084-.776-1.084l-.7-.5-.433 2.149c-.178.886-.889 3.412-.156 3.53a18.131 18.131 0 0 0 1.869.056 5.833 5.833 0 0 0 2.013 0c.688-.156.529-.491.431-1.2a21.2 21.2 0 0 1 .13-3.13z" transform="translate(-161.986 -176.95)" style="fill:#ffb16b"/>
                            <path data-name="패스 9764" d="M474.507 531.851c-.3-.131-.474-.034-.577-.147-.058-.064-.306.108.011.755.306.625 1.108.758 1.067.682a1.462 1.462 0 0 1-.294-.612c-.086-.323-.008-.591-.207-.678z" transform="translate(-177.315 -178.738)" style="fill:#ff9b41"/>
                            <path data-name="패스 9765" d="M491.49 540.792c.289-.171.544-.563.717-.656.294-.158.366.119.556.218.261.136.512.208-.082.538a2.282 2.282 0 0 1-1.625.051c-.022-.05.244-.036.434-.151z" transform="translate(-193.363 -186.541)" style="fill:#ff9b41"/>
                            <path data-name="패스 9766" d="M466.026 607.343a14.76 14.76 0 0 1-1.873.1c-.874-.024-2.316-.133-2.316-.133l-.005.658a15.34 15.34 0 0 0 2.12.147 11.975 11.975 0 0 0 2.029-.163z" transform="translate(-166.21 -248.997)" style="fill:#ff9b41"/>
                            <path data-name="패스 9767" d="m543.71 543.753.137-.607a.653.653 0 0 0 .5.313c.326.03.429-.1.429-.1l-.08.65a.976.976 0 0 1-.56.043.738.738 0 0 1-.426-.299z" transform="translate(-242.288 -189.381)" style="fill:#ffb16b"/>
                            <g data-name="그룹 4928">
                                <path data-name="패스 9768" d="M442.568 484.012c-.026-.078-.192-.126-.393-.086s-.629.218-.556.365.269.219.546.188a.508.508 0 0 0 .403-.467z" transform="translate(-147.422 -134.343)" style="fill:#ff8313"/>
                                <path data-name="패스 9769" d="M446.46 458.906c-.1.317-.044.452-.247.649 0 0-.3-.3-.27-.541.024-.184.289-.177.406-.4.084-.159.1-.327.237-.343.093-.009.007.229-.126.635z" transform="translate(-151.445 -110.521)" style="fill:#ffcab2"/>
                                <g data-name="그룹 4927">
                                    <path data-name="패스 9770" d="M431.326 450.587a4.3 4.3 0 0 0 .173.782 1.6 1.6 0 0 1 .129.81c-.033.2-.368.326-.643.152-.206-.131-.274-.4-.429-.6a2 2 0 0 1-.243-.385c-.079-.159-.1-.321 0-.3s.16.249.346.494c.078.1-.021-.122-.061-.2a1.942 1.942 0 0 1-.161-.542c-.045-.273.112-.228.157-.13a6.057 6.057 0 0 0 .258.7c.085.113.045-.04-.011-.221a5.257 5.257 0 0 1-.136-.659c-.031-.183.171-.226.219.021a2.608 2.608 0 0 0 .3.846c.074.028-.074-.315-.087-.759-.014-.282.163-.227.189-.009z" transform="translate(-136.861 -103.145)" style="fill:#ffcab2"/>
                                    <path data-name="패스 9771" d="m440.44 475.777.669-.392-.356-1.295-.729-.016z" transform="translate(-145.947 -125.204)" style="fill:#ffcab2"/>
                                </g>
                                <path data-name="패스 9772" d="M441.887 486.305a.7.7 0 0 0 .617 0 .628.628 0 0 0 .383-.337l-.21-.641s-.037.213-.366.33a.758.758 0 0 1-.583-.051z" transform="translate(-147.531 -135.658)" style="fill:#ffb16b"/>
                            </g>
                            <g data-name="그룹 4929">
                                <path data-name="패스 9773" d="M499.822 689.214a.777.777 0 0 0-.675-.406c-.424 0-.458.312-.792.422-.164.054-.2.28-.2.28a2.489 2.489 0 0 0-.56.34 1.761 1.761 0 0 0-.284.3.838.838 0 0 0-.029.526.586.586 0 0 0 .143.269z" transform="translate(-199.123 -324.723)" style="fill:#a3d6f0"/>
                                <path data-name="패스 9774" d="M497.977 692.758c.513-.39.89-.734 1.224-.953.5-.328.947-.168 1.014.1.1.42-.345.911-.817 1.186a4.9 4.9 0 0 1-1.312.592c-.306.035-.753-.436-.109-.925z" transform="translate(-199.489 -327.337)" style="fill:#666"/>
                            </g>
                            <path data-name="패스 9775" d="M457.27 522.942a2.437 2.437 0 0 0 .507.078 4.482 4.482 0 0 1-.426.147" transform="translate(-161.972 -170.609)" style="stroke:#ef812e;stroke-linecap:round;stroke-linejoin:round;stroke-width:.116px;fill:none"/>
                            <path data-name="패스 9776" d="M538.971 559.906a1.566 1.566 0 0 0-.023.381" transform="translate(-237.86 -204.954)" style="stroke:#ef812e;stroke-linecap:round;stroke-linejoin:round;stroke-width:.116px;fill:none"/>
                            <path data-name="패스 9777" d="M535.321 559.346a1.816 1.816 0 0 0-.3.606c-.005.018-.008.042.008.052" transform="translate(-234.213 -204.433)" style="stroke:#ef812e;stroke-linecap:round;stroke-linejoin:round;stroke-width:.116px;fill:none"/>
                            <path data-name="패스 9778" d="M485.881 553.044a1.928 1.928 0 0 0-.292.84l-.1.849a.408.408 0 0 0 .023-.293.053.053 0 0 0-.022.067" transform="translate(-188.185 -198.578)" style="stroke:#ef812e;stroke-linecap:round;stroke-linejoin:round;stroke-width:.116px;fill:none"/>
                            <path data-name="패스 9779" d="M490.5 553.044a6.2 6.2 0 0 0 .019 1.655l.016-.052" transform="translate(-192.803 -198.578)" style="stroke:#ef812e;stroke-linecap:round;stroke-linejoin:round;stroke-width:.116px;fill:none"/>
                            <path data-name="패스 9780" d="M490.9 575.358c.008-.024.044 0 .05.026a.439.439 0 0 1 .007.2.243.243 0 0 1-.072-.226.039.039 0 0 0 0 .073" transform="translate(-193.184 -219.302)" style="stroke:#ef812e;stroke-linecap:round;stroke-linejoin:round;stroke-width:.116px;fill:none"/>
                            <path data-name="패스 9781" d="M484.533 571.8a.118.118 0 0 0-.124.079.055.055 0 0 0 0 .039.05.05 0 0 0 .075.01.145.145 0 0 0 .04-.076.042.042 0 0 0-.044.038" transform="translate(-187.185 -216.001)" style="stroke:#ef812e;stroke-linecap:round;stroke-linejoin:round;stroke-width:.116px;fill:none"/>
                            <path data-name="패스 9782" d="M490.228 574.6a.11.11 0 0 0-.055-.009.053.053 0 0 0-.048.032c-.009.029.028.056.058.05a.135.135 0 0 0 .072-.053l-.066.047a.056.056 0 0 0 .075.01" transform="translate(-192.499 -218.595)" style="stroke:#ef812e;stroke-linecap:round;stroke-linejoin:round;stroke-width:.116px;fill:none"/>
                            <path data-name="패스 9783" d="M483.654 544.205a2.462 2.462 0 0 1-.569-.674" transform="translate(-185.958 -189.739)" style="stroke:#ef812e;stroke-linecap:round;stroke-linejoin:round;stroke-width:.116px;fill:none"/>
                            <path data-name="패스 9784" d="M491.59 548.686c.369-.087.465-.189.579-.2.129-.017.156.017.078.041-.273.084-.959.226-1.137.278" transform="translate(-193.415 -194.335)" style="stroke:#ef812e;stroke-linecap:round;stroke-linejoin:round;stroke-width:.116px;fill:none"/>
                            <path data-name="패스 9785" d="m468.032 655.351.305.155c.015.008.031.017.034.034a.056.056 0 0 1-.021.045l-.639.7" transform="translate(-171.673 -293.637)" style="stroke-linecap:round;stroke-linejoin:round;stroke-width:.116px;stroke:#6e4e51;fill:none"/>
                            <path data-name="패스 9786" d="M504.272 664.179q.135.389.282.773c.038.1.1.215.207.213" transform="translate(-205.644 -301.839)" style="stroke-linecap:round;stroke-linejoin:round;stroke-width:.116px;stroke:#6e4e51;fill:none"/>
                        </g>
                        <g data-name="그룹 4932">
                            <path data-name="패스 9787" d="M637.6 664.313c.035-.2.747-.453 1.316-.492a1.676 1.676 0 0 1 1.181.322c.034.109-.591.268-1.139.312s-1.394.051-1.358-.142z" transform="translate(-329.522 -301.503)" style="fill:#bb4943"/>
                            <path data-name="패스 9788" d="M645.33 654.773h-1.048l.43 2.429.915-.191z" transform="translate(-335.734 -293.1)" style="fill:#ffe4d7"/>
                            <path data-name="패스 9789" d="m680.254 421.81.677 4.983-.406.293-.642-4.776z" transform="translate(-368.814 -76.641)" style="fill:#aca3b7"/>
                            <path data-name="패스 9790" d="M640.967 451.546c.263.029 1.193-.614 1.193-.614s1.645 2.536 1.62 4.212-1.213 4.8-1.257 5.4-.448 4.48-.448 4.48l-1.113.076s-.8-7.238-.815-8.187.82-5.367.82-5.367z" transform="translate(-331.893 -103.701)" style="fill:#ff8884"/>
                            <path data-name="패스 9791" d="M640.967 451.546c.263.029 1.193-.614 1.193-.614s1.645 2.536 1.62 4.212-1.213 4.8-1.257 5.4-.448 4.48-.448 4.48l-1.113.076s-.8-7.238-.815-8.187.82-5.367.82-5.367z" transform="translate(-331.893 -103.701)" style="fill:url(#xzw0q7k2uc)"/>
                            <path data-name="패스 9792" d="m614.059 450.932-2.908.566a7.66 7.66 0 0 0-1.247 3.153 59.13 59.13 0 0 0 1.292 6.619c.126.433.671 5.241.671 5.241a5.383 5.383 0 0 1 1.45-.308c.866-.05 1.048.138 1.048.138s-1-6.341-1.091-7.327-.519-4.381-.422-4.716 1.207-3.366 1.207-3.366z" transform="translate(-303.792 -103.701)" style="fill:#ff8884"/>
                            <path data-name="패스 9793" d="M602.8 313.875c.044 1.382-.7 1.439-.763 2.269-.057.78.545 1.01.522 1.38s-.561.835-.226 1.567c.373.814 1.674 1.063 2.994.942s3.016-.937 3.429-2.052c.4-1.093-.38-1.44-.517-1.943-.126-.459.2-1.218-.549-1.8-.348-.27-.763-.3-1.046-.511a2.053 2.053 0 0 1-.828-1.037c-.117-.373-1.524-.107-1.6.052a14.134 14.134 0 0 1-1.416 1.133z" transform="translate(-296.481 24.923)" style="fill:url(#mba8so1ngd)"/>
                            <path data-name="패스 9794" d="M621.023 343.343a1.082 1.082 0 0 1-.187-.283l-.812-1.816-.9 1.187.225.7a.643.643 0 0 1 .034.3c-.051.148-.486.386-.486.386l-1.134.713s.229 2.333 1.472 2.837a3.058 3.058 0 0 0 2.7-.41 7.706 7.706 0 0 0 .486-2.86l-1.055-.537a2.64 2.64 0 0 1-.343-.217z" transform="translate(-311.097 -1.785)" style="fill:#ffe4d7"/>
                            <path data-name="패스 9795" d="m637.875 341.245-.9 1.187.187.58s.046-.19.4-.311a1.243 1.243 0 0 1 1.083.294z" transform="translate(-328.948 -1.785)" style="fill:#ffc7ac"/>
                            <path data-name="패스 9796" d="M618.828 314.964a6.326 6.326 0 0 0 .209 1.39 1.088 1.088 0 0 0 1 .86 1.343 1.343 0 0 0 1.064-.907 3.738 3.738 0 0 0-.1-1.893 1.026 1.026 0 0 0-1.452-.5 1.141 1.141 0 0 0-.721 1.05z" transform="translate(-312.083 23.724)" style="fill:#ffe4d7"/>
                            <path data-name="패스 9797" d="M636.728 338.583a.379.379 0 1 0-.28.457.379.379 0 0 0 .28-.457z" transform="translate(-328.021 .958)" style="fill:url(#zi04t4s1be)"/>
                            <path data-name="패스 9798" d="M619.226 343.817a.316.316 0 1 0-.234.382.316.316 0 0 0 .234-.382z" transform="translate(-311.874 -3.95)" style="fill:url(#eoi8xwq5of)"/>
                            <path data-name="패스 9799" d="M649.408 332.314a.483.483 0 0 1 .338-.218c.241-.02.35.4.158.622a.527.527 0 0 1-.411.119z" transform="translate(-340.497 6.717)" style="fill:#ffe4d7"/>
                            <path data-name="패스 9804" d="M618.492 316.163a.61.61 0 0 0-.774-.173 3.371 3.371 0 0 0-.7 1.134c.141-.258.229-.261.357-.377a1.358 1.358 0 0 1 1.132-.239c.093.024-.015-.345-.015-.345z" transform="translate(-310.378 21.747)" style="fill:#4b2c1e"/>
                            <path data-name="패스 9805" d="M611.222 307.677c-.465.444-.314 1.033-.826 1.332-.159.093-.341.164-.322.105a1.764 1.764 0 0 0-.1-.621c-.109-.526-.076-1.692.877-1.855.494-.085 1.065.176 1.283.085s-.168 1.173-.168 1.173-.507-.445-.744-.219z" transform="translate(-303.817 30.387)" style="fill:#683e31"/>
                            <path data-name="패스 9806" d="M638.361 306.982c-.128-.226-.6-.567-.865-.43-.155.081-.328.186-.328.186l.072.923a1.129 1.129 0 0 0 .492.745.87.87 0 0 1 .372.517l.29-.62a.752.752 0 0 0 .195-.558 1.922 1.922 0 0 0-.228-.763z" transform="translate(-329.124 30.479)" style="fill:#683e31"/>
                            <path data-name="패스 9807" d="M652.39 335.833a.153.153 0 0 1 .148-.078" transform="translate(-343.268 3.317)" style="stroke:#ff9a5b;stroke-linecap:round;stroke-linejoin:round;stroke-width:.116px;fill:none"/>
                            <path data-name="패스 9808" d="M611.129 378.964a2.767 2.767 0 0 0 1.77.442 4.1 4.1 0 0 0 1.923-.66l.96.473a6.208 6.208 0 0 1-.163 2.483 15.2 15.2 0 0 0-.609 2.724 19.813 19.813 0 0 1-2.23.114 16.753 16.753 0 0 1-2.125-.114 16.482 16.482 0 0 1-.68-3.1c0-.8.133-1.921.133-1.921z" transform="translate(-303.858 -36.629)" style="fill:#b1dcf2"/>
                            <path data-name="패스 9809" d="M625.61 384.151a2.826 2.826 0 0 0 3.486 0" transform="translate(-318.385 -41.651)" style="stroke:#6fbee6;stroke-linecap:round;stroke-linejoin:round;stroke-width:.116px;fill:none"/>
                            <path data-name="패스 9810" d="m560.926 489.509-.734-.313-.709 1.388.641.279z" transform="translate(-256.943 -139.253)" style="fill:#ffe4d7"/>
                            <path data-name="패스 9811" d="M565.519 387.7c-.4.268-.928 2.823-1.582 3.815a41.782 41.782 0 0 0-1.951 3.974 2.428 2.428 0 0 0 .568.282 4.54 4.54 0 0 0 .848.152 33.8 33.8 0 0 0 2.117-3.583c.393-.989 1.14-3.123 1.14-3.123s-.743-1.785-1.14-1.517z" transform="translate(-259.269 -44.923)" style="fill:#b1dcf2"/>
                            <path data-name="패스 9812" d="m672.343 375.385-.461-.232s.115 2.909.226 4.617c.088 1.354.477 4.308.477 4.308l.451-.255s-.522-4.854-.553-5.9-.14-2.538-.14-2.538z" transform="translate(-361.379 -33.29)" style="fill:#cbc5d1"/>
                            <path data-name="패스 9813" d="m681.509 485.656-.936.418s.136 5.07.136 5.445c0 .285 1.613-.218 1.674-.352s.06-.436-.25-2.17a185.002 185.002 0 0 0-.624-3.341z" transform="translate(-369.454 -135.964)" style="fill:#cbc5d1"/>
                            <path data-name="패스 9816" d="M551.4 505.256c-.129.227-.756.613-.775.878s-.07.607.019.713a1.951 1.951 0 0 0 .513.409c.008 0 .024-.031.037-.075s-.044-.149-.043-.216a1.911 1.911 0 0 1 .317-.782c.089-.178.469-.493.487-.564s-.555-.363-.555-.363z" transform="translate(-248.685 -154.176)" style="fill:#ffe4d7"/>
                            <path data-name="패스 9817" d="M560.449 510.311a2.906 2.906 0 0 1-.085.893c-.105.142-.463.539-.463.539s-.262-.027.033-.476a.488.488 0 0 0-.037-.532z" transform="translate(-257.233 -158.873)" style="fill:#ffe4d7"/>
                            <path data-name="패스 9818" d="M557.884 513.677c-.078-.307-.187-.317-.265-.224a1.737 1.737 0 0 0-.157.67 1.384 1.384 0 0 0 .1.514s.079-.005.208-.249a1.21 1.21 0 0 0 .114-.711z" transform="translate(-255.064 -161.745)" style="fill:#ffcab2"/>
                            <path data-name="패스 9819" d="M648.914 680.772s-.087-.069-.447-.02a3.552 3.552 0 0 0-.742.205 3.528 3.528 0 0 1 .1.836l-.059.562a1.306 1.306 0 0 0 .065.461.708.708 0 0 0 .923.054c.5-.338 1.083-.081 1.111-.322a.606.606 0 0 0 0-.113c-.059-.521-.576-.643-.706-.871a2.839 2.839 0 0 1-.245-.792z" transform="translate(-338.933 -317.221)" style="fill:#8e8fa7"/>
                            <path data-name="패스 9820" d="M612.915 426.374a9.873 9.873 0 0 0 .532 1.815" transform="translate(-306.59 -80.882)" style="stroke:#6fbee6;stroke-linecap:round;stroke-linejoin:round;stroke-width:.116px;fill:none"/>
                            <path data-name="패스 9821" d="M649.516 464.992c-.015.527.019 1.352 0 1.876" transform="translate(-340.594 -116.764)" style="stroke:#bb4943;stroke-linecap:round;stroke-linejoin:round;stroke-width:.116px;fill:none"/>
                            <path data-name="패스 9822" d="M649.63 465a3.461 3.461 0 0 1-.43 1.882" transform="translate(-340.304 -116.771)" style="stroke:#bb4943;stroke-linecap:round;stroke-linejoin:round;stroke-width:.116px;fill:none"/>
                            <path data-name="패스 9823" d="M629.391 463.43a8.169 8.169 0 0 0 2.582.017" transform="translate(-321.898 -115.313)" style="stroke:#bb4943;stroke-linecap:round;stroke-linejoin:round;stroke-width:.116px;fill:none"/>
                            <path data-name="패스 9824" d="M620.285 471.985a2.349 2.349 0 0 1-.717.933" transform="translate(-312.771 -123.262)" style="stroke:#bb4943;stroke-linecap:round;stroke-linejoin:round;stroke-width:.116px;fill:none"/>
                            <path data-name="패스 9825" d="M670.363 472.034c.213.247.313.595.583.778" transform="translate(-359.967 -123.307)" style="stroke:#bb4943;stroke-linecap:round;stroke-linejoin:round;stroke-width:.116px;fill:none"/>
                            <path data-name="패스 9826" d="M566.808 494.719c.2.1.313.107.46.182a2.486 2.486 0 0 0 .736.131" transform="translate(-263.749 -144.385)" style="stroke:#6fbee6;stroke-linecap:round;stroke-linejoin:round;stroke-width:.116px;fill:none"/>
                            <path data-name="패스 9827" d="M665.848 577.369a.616.616 0 0 0 .229.019.724.724 0 0 1-.142.342.772.772 0 0 0-.089.348" transform="translate(-355.77 -221.18)" style="stroke:#bb4943;stroke-linecap:round;stroke-linejoin:round;stroke-width:.116px;fill:none"/>
                            <path data-name="패스 9828" d="M632.65 603.354a25.158 25.158 0 0 0 1.38 3.083" transform="translate(-324.926 -245.323)" style="stroke:#bb4943;stroke-linecap:round;stroke-linejoin:round;stroke-width:.116px;fill:none"/>
                            <path data-name="패스 9829" d="M651.853 590.733q-.088.759-.2 1.514" transform="translate(-342.579 -233.597)" style="stroke:#bb4943;stroke-linecap:round;stroke-linejoin:round;stroke-width:.116px;fill:none"/>
                            <path data-name="패스 9830" d="M651.24 704.357a.744.744 0 0 0-.726-.086c-.35.141-.5.306-.729.408a.887.887 0 0 1-.579-.046.5.5 0 0 0 .078.144.765.765 0 0 0 .545.1 7.479 7.479 0 0 0 1.315-.324.221.221 0 0 0 .096-.196z" transform="translate(-340.309 -339.039)" style="fill:#4b2b50"/>
                            <g data-name="그룹 4931">
                                <path data-name="패스 9831" d="M698.014 495.789h-.846l-.007 1.559.748.01z" transform="translate(-384.867 -145.379)" style="fill:#ffe4d7"/>
                                <path data-name="패스 9832" d="M683.166 385.239c.564.208 1.377 3.051 1.592 4.567a22.285 22.285 0 0 1-.008 3.988 3.266 3.266 0 0 1-.675.1 4.984 4.984 0 0 1-.695-.056s-.095-2.863-.157-3.382a25.385 25.385 0 0 1-.727-2.524c.004-.754.104-2.902.67-2.693z" transform="translate(-371.242 -42.649)" style="fill:#b1dcf2"/>
                                <path data-name="패스 9833" d="M683.371 385.425c-.448.159-.5 2.043-.5 2.578" transform="translate(-371.592 -42.835)" style="stroke:#6fbee6;stroke-linecap:round;stroke-linejoin:round;stroke-width:.116px;fill:none"/>
                                <path data-name="패스 9834" d="M686.658 510.9c.014-.443-.241-.365-.538-.183a1.642 1.642 0 0 0-.639.57c-.328.466-.5.551-.409.637s.292-.008.453-.183.355-.333.323.012c-.046.508-.233.513-.41.88-.084.173-.061.334.014.319a.351.351 0 0 0 .087-.03.305.305 0 0 0-.048.148c0 .072.045.149.109.115a.923.923 0 0 0 .165-.141c.007.1.214-.028.333-.172a2.391 2.391 0 0 0 .5-.824c.036-.209.044-.613.06-1.148z" transform="translate(-373.613 -159.119)" style="fill:#ffe4d7"/>
                                <path data-name="패스 9835" d="M692.481 533.193c-.174.248-.359.529-.5.748" transform="translate(-380.056 -180.134)" style="stroke:#ff9a5b;stroke-linecap:round;stroke-linejoin:round;stroke-width:.116px;fill:none"/>
                                <path data-name="패스 9836" d="M695.925 535.437a4.031 4.031 0 0 1-.432.662" transform="translate(-383.317 -182.219)" style="stroke:#ff9a5b;stroke-linecap:round;stroke-linejoin:round;stroke-width:.116px;fill:none"/>
                            </g>
                            <path data-name="패스 9837" d="M696.414 501.06a4.129 4.129 0 0 0 1.212-.1" transform="translate(-384.173 -150.184)" style="stroke:#6fbee6;stroke-linecap:round;stroke-linejoin:round;stroke-width:.116px;fill:none"/>
                        </g>
                    </g>
                    <path data-name="교차 64" d="M12801.456-11097.9a32.866 32.866 0 0 1-5.75-3.326l1.013-1.717h38.506l.411.7a32.973 32.973 0 0 1-7.091 4.347z" transform="translate(-12512 11476)" style="fill:#fff"/>
                </g>
            </g>
        </g>
        <g data-name="합치기 55" style="fill:#fff">
            <path d="M12804.162-11131.082a1.324 1.324 0 0 1-.931-.251 1.259 1.259 0 0 1-.261-.911v-1.288a1.246 1.246 0 0 1 .261-.908 1.309 1.309 0 0 1 .931-.254h5a.285.285 0 0 0 .322-.322v-.193a.287.287 0 0 0-.322-.325h-5.629a.49.49 0 0 1-.447-.216.891.891 0 0 1-.142-.5.872.872 0 0 1 .142-.492.5.5 0 0 1 .447-.21h6.512a1.336 1.336 0 0 1 .931.252 1.275 1.275 0 0 1 .257.911v1.288a1.267 1.267 0 0 1-.257.911 1.341 1.341 0 0 1-.931.251h-5a.283.283 0 0 0-.319.322v.2a.284.284 0 0 0 .319.322h5.883a.5.5 0 0 1 .447.216.9.9 0 0 1 .139.5.87.87 0 0 1-.139.492.505.505 0 0 1-.447.209zm5.549-6.565a.644.644 0 0 1-.271-.576v-5.166a.643.643 0 0 1 .271-.573 1.121 1.121 0 0 1 .625-.184 1.111 1.111 0 0 1 .621.184.638.638 0 0 1 .273.573v1.807h1.317a.549.549 0 0 1 .489.226.932.932 0 0 1 .155.544.974.974 0 0 1-.155.555.546.546 0 0 1-.489.231h-1.317v1.8a.639.639 0 0 1-.273.576 1.108 1.108 0 0 1-.621.18 1.118 1.118 0 0 1-.625-.177zm-7.867-.744a1.257 1.257 0 0 1-.258-.908v-3.654a.643.643 0 0 1 .271-.573 1.091 1.091 0 0 1 .625-.184 1.118 1.118 0 0 1 .638.184.643.643 0 0 1 .273.573v2.969a.285.285 0 0 0 .319.322c.775 0 1.522-.023 2.241-.064s1.417-.109 2.1-.2a.579.579 0 0 1 .512.154.8.8 0 0 1 .216.506 1.111 1.111 0 0 1-.084.566.5.5 0 0 1-.418.287 28.29 28.29 0 0 1-2.151.193c-.444.026-.94.051-1.5.064s-1.173.022-1.855.022a1.333 1.333 0 0 1-.929-.258zm-2.154-9.464a4.453 4.453 0 0 1-1.365-.438 2.29 2.29 0 0 1-.859-.767 1.92 1.92 0 0 1-.3-1.088 1.927 1.927 0 0 1 .3-1.092 2.266 2.266 0 0 1 .859-.763 4.425 4.425 0 0 1 1.365-.441 10.567 10.567 0 0 1 1.813-.142 7.115 7.115 0 0 1 3.185.589 1.941 1.941 0 0 1 1.152 1.849 1.949 1.949 0 0 1-.3 1.088 2.324 2.324 0 0 1-.86.767 4.47 4.47 0 0 1-1.365.438 10.713 10.713 0 0 1-1.812.142 10.666 10.666 0 0 1-1.814-.142zm-.154-3.043c-.4.184-.6.431-.6.75s.2.566.6.747a5.067 5.067 0 0 0 1.968.273 5.074 5.074 0 0 0 1.967-.273.835.835 0 0 0 .593-.747c0-.319-.2-.566-.593-.75a5.07 5.07 0 0 0-1.967-.274 5.063 5.063 0 0 0-1.969.272zm30.154 2.009a.642.642 0 0 1-.271-.573v-10.727a.643.643 0 0 1 .271-.573 1.094 1.094 0 0 1 .624-.18 1.074 1.074 0 0 1 .609.18.64.64 0 0 1 .273.573v10.727a.639.639 0 0 1-.273.573 1.067 1.067 0 0 1-.609.181 1.088 1.088 0 0 1-.625-.182zm-13.609 0a.644.644 0 0 1-.271-.573v-10.727a.645.645 0 0 1 .271-.573 1.1 1.1 0 0 1 .625-.18 1.086 1.086 0 0 1 .622.18.64.64 0 0 1 .273.573v3.375h1.316a.548.548 0 0 1 .49.226.939.939 0 0 1 .154.544.975.975 0 0 1-.154.554.544.544 0 0 1-.49.232h-1.316v5.8a.639.639 0 0 1-.273.573 1.079 1.079 0 0 1-.622.181 1.089 1.089 0 0 1-.626-.186zm-33.451-.966a.538.538 0 0 1-.477-.226.9.9 0 0 1-.151-.531.909.909 0 0 1 .151-.531.545.545 0 0 1 .477-.226h4.4v-2.225h-2.321a1.326 1.326 0 0 1-.931-.252 1.251 1.251 0 0 1-.261-.911v-4.843a.64.64 0 0 1 .279-.567 1.091 1.091 0 0 1 .615-.189 1.089 1.089 0 0 1 .618.189.639.639 0 0 1 .28.567v1.358h5.233v-1.358a.647.647 0 0 1 .28-.567 1.1 1.1 0 0 1 .618-.189 1.091 1.091 0 0 1 .615.189.64.64 0 0 1 .279.567v4.843a1.27 1.27 0 0 1-.257.911 1.334 1.334 0 0 1-.931.252h-2.325v2.225h4.4a.541.541 0 0 1 .477.226.917.917 0 0 1 .154.531.909.909 0 0 1-.154.531.535.535 0 0 1-.477.226zm2.676-5.558a.284.284 0 0 0 .322.321h4.592a.283.283 0 0 0 .319-.321v-1.33h-5.233zm35.223 4.324a.939.939 0 0 1-.154-.544.93.93 0 0 1 .154-.535.541.541 0 0 1 .477-.222q1.793 0 3.6-.042t3.591-.2a.523.523 0 0 1 .482.167.9.9 0 0 1 .19.506.984.984 0 0 1-.1.554.522.522 0 0 1-.451.271c-.463.049-.981.087-1.552.119s-1.169.059-1.8.077-1.282.036-1.952.049-1.343.022-2.016.022a.535.535 0 0 1-.471-.222zm-12.285-.68a.984.984 0 0 1-.28-.109.972.972 0 0 1-.231-.189.886.886 0 0 1-.223-.561.686.686 0 0 1 .252-.561 25.613 25.613 0 0 0 1.651-1.568 4.007 4.007 0 0 0 .489-.579 3.154 3.154 0 0 0 .316-.6 2.885 2.885 0 0 0 .167-.674 6.159 6.159 0 0 0 .049-.811v-1.037h-2.071a.539.539 0 0 1-.477-.223.909.909 0 0 1-.154-.531.946.946 0 0 1 .154-.547.541.541 0 0 1 .477-.226h5.852a.541.541 0 0 1 .477.226.946.946 0 0 1 .154.547.909.909 0 0 1-.154.531.539.539 0 0 1-.477.223h-1.958v1.037a6.169 6.169 0 0 0 .048.811 2.837 2.837 0 0 0 .168.674 2.94 2.94 0 0 0 .315.6 4.07 4.07 0 0 0 .489.579q.406.406.783.773c.254.241.485.454.7.641a.6.6 0 0 1 .216.561 1.013 1.013 0 0 1-.257.547 1.025 1.025 0 0 1-.519.273.623.623 0 0 1-.561-.16c-.187-.161-.393-.349-.615-.567s-.464-.457-.715-.708a5.439 5.439 0 0 1-.728-.834 1.561 1.561 0 0 1-.226-.483h-.013a1.557 1.557 0 0 1-.077.245 1.588 1.588 0 0 1-.155.28 3.145 3.145 0 0 1-.286.367c-.122.132-.271.289-.447.467-.252.251-.506.5-.757.743s-.513.477-.783.712a.7.7 0 0 1-.3.142.907.907 0 0 1-.134.012.646.646 0 0 1-.161-.023zm-3.758-.943a.6.6 0 0 1-.254-.531v-2.911h-1.118v2.338a.577.577 0 0 1-.254.516.985.985 0 0 1-.558.17 1 1 0 0 1-.563-.17.574.574 0 0 1-.251-.516v-6.373a.585.585 0 0 1 .251-.519 1.024 1.024 0 0 1 .563-.167 1 1 0 0 1 .558.167.587.587 0 0 1 .254.519v2.534h1.118v-2.589a.6.6 0 0 1 .254-.531.982.982 0 0 1 .558-.167 1.012 1.012 0 0 1 .576.167.6.6 0 0 1 .251.531v7a.6.6 0 0 1-.251.531 1.006 1.006 0 0 1-.576.168.975.975 0 0 1-.56-.167zm-8.521-.882a2.085 2.085 0 0 1-.722-1.665 2.085 2.085 0 0 1 .722-1.668 2.99 2.99 0 0 1 2-.615 2.983 2.983 0 0 1 1.994.615 2.076 2.076 0 0 1 .721 1.668 2.075 2.075 0 0 1-.721 1.665 2.988 2.988 0 0 1-1.994.614 3 3 0 0 1-2.001-.614zm1.134-2.352a.817.817 0 0 0-.329.687.814.814 0 0 0 .329.686 1.375 1.375 0 0 0 .862.251 1.375 1.375 0 0 0 .86-.251.816.816 0 0 0 .328-.686.819.819 0 0 0-.328-.687 1.381 1.381 0 0 0-.86-.251 1.381 1.381 0 0 0-.861.252zm25.941 1.771a2.985 2.985 0 0 1-1.085-.653 2.786 2.786 0 0 1-.657-.992 3.478 3.478 0 0 1-.226-1.263 3.487 3.487 0 0 1 .226-1.259 2.786 2.786 0 0 1 .657-.992 2.953 2.953 0 0 1 1.085-.65 4.465 4.465 0 0 1 1.521-.231 4.494 4.494 0 0 1 1.514.231 2.923 2.923 0 0 1 1.091.65 2.773 2.773 0 0 1 .657.992 3.467 3.467 0 0 1 .226 1.259 3.458 3.458 0 0 1-.226 1.263 2.773 2.773 0 0 1-.657.992 2.954 2.954 0 0 1-1.091.653 4.646 4.646 0 0 1-1.514.231 4.613 4.613 0 0 1-1.522-.23zm.161-4.1a1.663 1.663 0 0 0-.432 1.188 1.665 1.665 0 0 0 .432 1.192 1.787 1.787 0 0 0 1.359.463 1.786 1.786 0 0 0 1.358-.463 1.68 1.68 0 0 0 .435-1.192 1.678 1.678 0 0 0-.435-1.187 1.783 1.783 0 0 0-1.358-.464 1.784 1.784 0 0 0-1.36.468zm-27.983.209a.538.538 0 0 1-.477-.223.9.9 0 0 1-.154-.518.907.907 0 0 1 .154-.532.535.535 0 0 1 .477-.225h1.861v-.7a.619.619 0 0 1 .273-.561 1.063 1.063 0 0 1 .608-.184 1.078 1.078 0 0 1 .609.184.628.628 0 0 1 .273.561v.7h1.652a.544.544 0 0 1 .477.225.934.934 0 0 1 .151.532.925.925 0 0 1-.151.518.547.547 0 0 1-.477.223z" style="stroke:none" transform="translate(-12773.598 11185.758)"/>
            <path d="M12810.925-11131.082c.203 0 .351-.07.447-.209a.87.87 0 0 0 .139-.492.896.896 0 0 0-.139-.496c-.096-.146-.244-.216-.447-.216h-5.883c-.213 0-.32-.11-.32-.322v-.197c0-.215.107-.322.32-.322h5.001c.447 0 .756-.084.93-.25.17-.169.257-.47.257-.912v-1.288c0-.439-.086-.741-.256-.911-.175-.168-.484-.252-.931-.252h-6.512c-.206 0-.354.071-.447.21a.872.872 0 0 0-.142.492c0 .186.048.351.142.496.093.145.241.216.447.216h5.63c.212 0 .321.11.321.325v.193c0 .216-.109.323-.322.323h-4.998c-.45 0-.76.083-.93.254-.174.168-.261.47-.261.908v1.288c0 .437.087.74.26.911.171.168.48.251.931.251h6.763m-.59-6.386c.232 0 .441-.06.622-.18.184-.122.273-.312.273-.576v-1.803h1.318c.223 0 .387-.077.49-.232a.974.974 0 0 0 .154-.554.932.932 0 0 0-.155-.544c-.102-.152-.266-.226-.49-.226h-1.317v-1.807c0-.26-.09-.45-.273-.573a1.11 1.11 0 0 0-.621-.183c-.235 0-.441.064-.625.183-.18.123-.27.313-.27.573v5.166c0 .264.09.454.27.577.184.119.39.18.625.18m-7.562-.67c.683 0 1.301-.007 1.856-.022a38.082 38.082 0 0 0 1.497-.065 40.8 40.8 0 0 0 1.191-.087c.35-.036.67-.07.96-.106.206-.03.344-.123.418-.287a1.11 1.11 0 0 0 .084-.567.8.8 0 0 0-.216-.505.544.544 0 0 0-.408-.16.96.96 0 0 0-.103.005c-.683.094-1.382.161-2.1.203-.719.041-1.466.065-2.241.065-.213 0-.32-.11-.32-.322v-2.97c0-.26-.092-.45-.273-.572a1.118 1.118 0 0 0-.638-.184c-.235 0-.441.06-.625.184-.18.122-.27.311-.27.573v3.654c0 .439.087.741.258.908.174.168.483.255.93.255m-1.271-9.577c.67 0 1.274-.049 1.812-.141.536-.091.993-.239 1.366-.439.37-.202.66-.457.86-.767.2-.305.299-.668.299-1.087 0-.841-.383-1.46-1.153-1.85-.773-.392-1.832-.588-3.184-.588-.674 0-1.278.048-1.814.142-.538.092-.99.238-1.365.441-.373.2-.66.454-.86.763-.202.305-.302.67-.302 1.092 0 .419.1.782.303 1.087.2.31.486.565.86.767.373.2.826.348 1.364.439.536.092 1.14.141 1.814.141m0-3.459c.914 0 1.568.091 1.967.275.396.183.593.43.593.75 0 .315-.197.566-.593.747-.399.183-1.053.273-1.967.273-.915 0-1.572-.09-1.968-.273-.396-.181-.596-.432-.596-.747 0-.32.2-.567.596-.75.396-.184 1.053-.275 1.968-.275m28.81 2.464c.223 0 .426-.058.61-.18.182-.123.273-.313.273-.574v-10.726c0-.261-.09-.45-.273-.574a1.074 1.074 0 0 0-.61-.18c-.234 0-.44.058-.624.18-.18.123-.27.313-.27.574v10.726c0 .26.09.451.27.573.184.123.39.181.624.181m-13.608 0c.233 0 .441-.058.622-.18.183-.123.274-.313.274-.574v-5.796h1.316c.226 0 .387-.077.49-.232a.975.975 0 0 0 .155-.554.939.939 0 0 0-.155-.544c-.103-.151-.264-.225-.49-.225h-1.316v-3.375c0-.261-.091-.45-.274-.574-.18-.122-.39-.18-.622-.18-.235 0-.441.058-.625.18-.18.123-.27.313-.27.574v10.726c0 .26.09.451.27.573.184.123.39.181.625.181m-23.491-1.146c.216 0 .373-.075.476-.226a.909.909 0 0 0 .155-.531.917.917 0 0 0-.155-.532c-.103-.148-.26-.225-.476-.225h-4.396v-2.225h2.326c.447 0 .756-.084.93-.252.17-.17.257-.47.257-.91v-4.844c0-.25-.093-.441-.28-.567a1.095 1.095 0 0 0-1.233 0c-.183.126-.28.316-.28.567v1.359h-5.233v-1.359c0-.25-.093-.441-.28-.567a1.089 1.089 0 0 0-.619-.19 1.09 1.09 0 0 0-.615.19c-.187.126-.28.316-.28.567v4.843c0 .442.088.741.261.911.17.168.483.252.931.252h2.321v2.225h-4.395c-.213 0-.373.077-.477.225a.909.909 0 0 0-.151.532.9.9 0 0 0 .151.53c.104.152.264.227.477.227h10.585m-7.91-6.888h5.234v1.33c0 .215-.106.321-.32.321h-4.591c-.216 0-.322-.106-.322-.321v-1.33m35.699 5.88c.673 0 1.343-.007 2.016-.023.67-.012 1.324-.029 1.952-.049.63-.018 1.23-.044 1.8-.077.57-.032 1.088-.07 1.551-.119.216-.02.367-.11.451-.27a.984.984 0 0 0 .097-.554.898.898 0 0 0-.19-.506.492.492 0 0 0-.403-.17.745.745 0 0 0-.08.003 57.986 57.986 0 0 1-3.59.196c-1.208.03-2.409.042-3.604.042-.216 0-.373.075-.477.222a.93.93 0 0 0-.154.535c0 .212.052.396.154.544.104.151.261.226.477.226m-12.596-.884a.907.907 0 0 0 .134-.012.7.7 0 0 0 .296-.141c.27-.236.531-.47.783-.712.251-.244.505-.492.757-.743.177-.178.325-.335.447-.467.122-.139.216-.258.286-.367.072-.107.123-.2.156-.28.032-.078.057-.162.077-.246h.012c.03.132.103.293.226.484.12.193.363.47.728.834.25.25.489.486.714.708.223.218.43.406.616.567a.636.636 0 0 0 .56.16c.202-.04.376-.135.519-.273.137-.152.224-.331.257-.547a.597.597 0 0 0-.216-.56c-.216-.187-.448-.4-.701-.641a80.28 80.28 0 0 1-.784-.774 4.07 4.07 0 0 1-.489-.579 2.837 2.837 0 0 1-.483-1.27 6.17 6.17 0 0 1-.048-.81v-1.037h1.958c.216 0 .373-.074.476-.223a.909.909 0 0 0 .155-.531.946.946 0 0 0-.155-.547c-.103-.148-.26-.225-.476-.225h-5.852c-.215 0-.373.077-.476.225a.946.946 0 0 0-.155.547c0 .206.052.384.155.531.103.149.26.223.476.223h2.072v1.037c0 .299-.017.57-.05.81a2.885 2.885 0 0 1-.166.674 3.154 3.154 0 0 1-.317.596c-.128.19-.293.383-.489.58a25.701 25.701 0 0 1-1.651 1.568.686.686 0 0 0-.252.56c.01.216.084.402.222.56a.972.972 0 0 0 .678.32m-3.366-.796c.216 0 .408-.055.576-.168.167-.112.251-.29.251-.531v-7.001c0-.241-.084-.418-.25-.531a1.012 1.012 0 0 0-.577-.167.982.982 0 0 0-.558.167c-.167.113-.254.29-.254.53v2.59h-1.118v-2.534c0-.232-.087-.406-.254-.519a1.024 1.024 0 0 0-1.121 0c-.167.113-.25.287-.25.519v6.373c0 .232.083.406.25.515a1.003 1.003 0 0 0 1.121 0c.167-.11.254-.283.254-.515v-2.338h1.118v2.91c0 .242.087.42.254.532a.975.975 0 0 0 .558.168m-7.082-.435c.848 0 1.514-.207 1.994-.615.483-.412.72-.967.72-1.665 0-.702-.237-1.256-.72-1.668-.48-.409-1.146-.615-1.994-.615-.85 0-1.513.206-1.996.615-.48.412-.722.966-.722 1.668 0 .698.242 1.253.722 1.665.483.408 1.146.615 1.996.615m0-3.217c.354 0 .642.084.86.25a.819.819 0 0 1 .328.687c0 .29-.109.519-.328.686-.218.168-.506.25-.86.25-.357 0-.644-.082-.862-.25a.814.814 0 0 1-.33-.686c0-.29.11-.518.33-.686.218-.167.505-.251.862-.251m26.6 2.254c.569 0 1.072-.08 1.513-.232a2.954 2.954 0 0 0 1.091-.653c.287-.28.509-.61.657-.992.149-.383.226-.802.226-1.263 0-.454-.077-.875-.226-1.259a2.773 2.773 0 0 0-.657-.992 2.923 2.923 0 0 0-1.09-.65c-.442-.158-.945-.232-1.514-.232-.58 0-1.086.074-1.52.232a2.953 2.953 0 0 0-1.086.65c-.286.28-.509.61-.657.992a3.487 3.487 0 0 0-.226 1.259c0 .46.078.88.226 1.263.148.382.371.712.657.992.29.28.653.499 1.085.653.435.152.94.232 1.52.232m0-4.791c.615 0 1.069.154 1.359.463.287.31.435.706.435 1.188 0 .486-.148.886-.435 1.192-.29.309-.744.463-1.358.463-.616 0-1.07-.154-1.36-.463-.29-.306-.431-.706-.431-1.192 0-.482.141-.879.431-1.188.29-.31.744-.463 1.36-.463m-24.065.672c.212 0 .37-.074.477-.222a.925.925 0 0 0 .151-.518.934.934 0 0 0-.151-.532c-.107-.15-.265-.225-.477-.225h-1.652v-.699c0-.254-.094-.441-.274-.56a1.078 1.078 0 0 0-.609-.184c-.225 0-.428.062-.608.184-.184.119-.274.306-.274.56v.7h-1.861c-.216 0-.374.074-.477.224a.907.907 0 0 0-.154.532c0 .193.05.366.154.518.103.148.261.222.477.222h5.278m10.43 27.979h-6.763c-.73 0-1.264-.176-1.632-.538-.377-.37-.56-.901-.56-1.624v-1.288c0-.633.141-1.118.428-1.477a1.464 1.464 0 0 1-.156-.202 1.874 1.874 0 0 1-.3-1.036c0-.34.081-.654.242-.936-.431-.074-.773-.236-1.036-.49l-.002-.002-.001-.002c-.376-.367-.56-.898-.56-1.623v-3.654c0-.593.253-1.09.71-1.4l.002-.002.003-.002a2.09 2.09 0 0 1 1.181-.353c.444 0 .845.12 1.195.353.464.313.717.811.717 1.404v2.285c.499-.01 1.002-.028 1.503-.057.69-.04 1.37-.106 2.021-.195l.01-.002h.009a1.906 1.906 0 0 1 .504.009v-2.476c0-.591.251-1.089.708-1.4l.01-.006.009-.006a2.113 2.113 0 0 1 1.169-.344c.42 0 .825.12 1.172.348l.003.002.003.002c.462.31.716.809.716 1.404v.807h.318c.556 0 1.022.233 1.312.658.218.314.332.697.332 1.112 0 .414-.108.788-.323 1.109-.29.435-.759.677-1.321.677h-.318v.803a1.7 1.7 0 0 1-.346 1.066c.232.347.346.8.346 1.372v1.288c0 .553-.106.994-.322 1.335.113.094.214.205.3.334l.001.003.002.003c.196.302.3.662.3 1.04 0 .387-.103.738-.305 1.044l-.006.009-.005.007c-.285.413-.736.641-1.27.641zm-9.422-16.632c-.719 0-1.386-.053-1.984-.156-.632-.107-1.195-.29-1.666-.542l-.003-.001-.002-.002a3.278 3.278 0 0 1-1.22-1.099c-.31-.467-.466-1.017-.466-1.634 0-.62.156-1.171.466-1.64.068-.106.144-.207.226-.305a3.513 3.513 0 0 1-1.536-.737l-.003-.003-.003-.002c-.7-.602-1.07-1.44-1.07-2.424 0-.703.189-1.33.55-1.852a1.484 1.484 0 0 1-.875-.604 1.91 1.91 0 0 1-.331-1.086c0-.413.111-.784.332-1.1.291-.423.752-.657 1.299-.657h.885c.072-.46.313-.84.697-1.093.347-.232.737-.35 1.161-.35.422 0 .812.118 1.163.35.383.255.624.636.696 1.093H12800.523c.083-.404.308-.744.653-.977l.01-.008.012-.007a2.022 2.022 0 0 1 2.206.004l.008.005.008.006c.079.054.152.113.219.178.083-.091.177-.174.284-.246l.003-.001.003-.002a1.97 1.97 0 0 1 1.113-.336 2 2 0 0 1 1.132.336l.003.002.003.001c.444.301.69.785.69 1.359v.283c.049-.124.111-.242.187-.353l.004-.006.003-.006c.294-.421.755-.653 1.297-.653h5.852c.257 0 .495.051.707.15.114-.308.316-.567.595-.759l.006-.004.005-.004c.347-.23.744-.346 1.18-.346.439 0 .836.118 1.18.351.46.31.715.808.715 1.402v2.375h.316c.467 0 .871.165 1.161.47.026-.474.121-.93.285-1.355.198-.51.497-.962.89-1.349l.005-.003.003-.003c.395-.38.88-.674 1.442-.872.541-.194 1.148-.289 1.857-.289.696 0 1.3.094 1.844.288.57.198 1.059.491 1.455.875l.001.001.002.002c.214.21.4.438.557.684v-.824c0-.592.25-1.09.708-1.4l.004-.004.005-.003c.346-.23.742-.346 1.177-.346.426 0 .817.117 1.164.346l.002.002.002.002c.461.31.715.809.715 1.403v10.726c0 .597-.255 1.096-.717 1.404-.346.232-.738.35-1.166.35-.436 0-.834-.118-1.18-.35-.462-.312-.714-.81-.714-1.404v-.673c-.446.047-.967.087-1.59.122a69.91 69.91 0 0 1-1.828.08c-.648.019-1.31.036-1.963.048-.653.015-1.32.023-2.034.023-.548 0-1.01-.235-1.302-.661a1.934 1.934 0 0 1-.329-1.109c0-.407.11-.776.326-1.096l.005-.006.005-.007c.293-.418.753-.648 1.295-.648.438 0 .873-.002 1.303-.005-.4-.187-.75-.425-1.048-.713l-.002-.002-.003-.002a3.818 3.818 0 0 1-.825-1.19c-.05.127-.113.25-.189.364-.292.439-.761.68-1.323.68h-.316v4.795c0 .595-.254 1.093-.715 1.402a2.062 2.062 0 0 1-1.18.352 2.09 2.09 0 0 1-1.183-.35l-.002-.002-.002-.002c-.457-.31-.71-.807-.71-1.4v-1.648c-.13.057-.268.1-.41.13a1.632 1.632 0 0 1-1.417-.387 13.652 13.652 0 0 1-.659-.609c-.271-.266-.5-.494-.72-.713a13.346 13.346 0 0 1-.24-.245 15.3 15.3 0 0 1-.276.285c-.27.268-.54.532-.769.754l-.002.002-.002.002c-.24.232-.5.468-.82.746l-.023.02-.024.019a1.69 1.69 0 0 1-.718.33l-.02.005-.02.002a1.61 1.61 0 0 1-.686-.028 1.957 1.957 0 0 1-1.009-.593l-.008-.008-.007-.01a1.889 1.889 0 0 1-.424-.831c-.08.106-.174.203-.282.287.372.502.567 1.115.567 1.805 0 .615-.155 1.164-.461 1.633-.286.443-.697.814-1.219 1.099l-.003.001-.004.002c-.47.252-1.03.435-1.67.544-.598.102-1.265.155-1.98.155zm-.691-3.436c.189.013.417.022.69.022.272 0 .5-.009.69-.022a9.607 9.607 0 0 0-.69-.023c-.273 0-.501.009-.69.023zm27.607-4.645a3.706 3.706 0 0 1-1.314 1.248c.338-.022.674-.049 1.007-.077a1.837 1.837 0 0 1 .307-.002v-1.169zm-21.55-3.672v4.77c.067-.084.142-.164.226-.239l.005-.003.004-.004c.55-.479 1.084-.986 1.586-1.507l.007-.007.007-.007c.154-.155.277-.299.366-.43a2.16 2.16 0 0 0 .216-.404c.049-.126.084-.27.107-.437.026-.202.04-.43.04-.681v-.037h-1.072c-.544 0-1.004-.232-1.297-.65a1.834 1.834 0 0 1-.195-.364zm7.883 3.763.058.055v-2.909c-.183.07-.383.105-.597.105h-.958v.037c0 .256.013.484.039.678a1.865 1.865 0 0 0 .318.839c.093.135.217.282.37.435.28.28.532.528.77.76zm9.808-3.03c-.308 0-.543.055-.63.148-.076.081-.161.21-.161.504 0 .303.09.434.158.505.089.095.325.15.633.15.307 0 .543-.055.63-.147.069-.074.163-.21.163-.508 0-.29-.09-.423-.167-.506-.084-.09-.32-.145-.626-.145zm-31.346 8.879h-10.585c-.546 0-1.007-.233-1.299-.657a1.89 1.89 0 0 1-.329-1.1c0-.417.111-.788.331-1.104.294-.42.755-.653 1.297-.653h3.395v-.225h-1.32c-.731 0-1.265-.177-1.633-.539-.377-.369-.56-.9-.56-1.624v-4.843c0-.587.257-1.083.72-1.396l.002-.001.003-.002a2.106 2.106 0 0 1 2.345.001c.467.314.724.81.724 1.398v.359h3.233v-.359c0-.58.254-1.076.715-1.391l.007-.006.008-.005a2.106 2.106 0 0 1 2.339.003l.002.002h.002c.464.314.72.81.72 1.397v4.843c0 .719-.18 1.248-.55 1.618l-.006.006-.005.006c-.372.36-.904.533-1.626.533h-1.326v.225h3.396c.542 0 1.003.232 1.297.653.22.318.334.698.334 1.104 0 .406-.115.786-.331 1.1-.292.423-.753.657-1.3.657z" style="fill:rgba(171,109,0,.6);stroke:none" transform="translate(-12773.598 11185.758)"/>
        </g>
    </g>
</svg>
