<svg xmlns="http://www.w3.org/2000/svg" width="30" height="52" viewBox="0 0 30 52">
    <defs>
        <linearGradient id="5sttrrsnba" x1=".5" x2=".5" y2="1" gradientUnits="objectBoundingBox">
            <stop offset="0" stop-color="#009965"/>
            <stop offset=".243" stop-color="#009965"/>
            <stop offset=".251" stop-color="#007e54"/>
            <stop offset=".477" stop-color="#009965"/>
            <stop offset=".498" stop-color="#007e54"/>
            <stop offset=".72" stop-color="#009965"/>
            <stop offset=".749" stop-color="#007d53"/>
            <stop offset="1" stop-color="#009965"/>
        </linearGradient>
    </defs>
    <g data-name="그룹 4606">
        <g data-name="그룹 4478">
            <path data-name="패스 7542" d="m1242.9 263.249-7.346 8.524a12.008 12.008 0 0 1 5.255-.161c-2.709 4.6-4.812 6.867-9.216 11.1a17.5 17.5 0 0 0 7.462-2.162q-4.336 5.146-9.008 10.007c9.689-1.813 20.147-.243 30-.69-3.549-1.895-6.773-5.69-8.637-8.535 2.046.345 4.181.407 6.227.752a50.67 50.67 0 0 1-8.421-10.074 12.558 12.558 0 0 0 5.6 1.087c-1.312-1.805-3.162-3.87-3.912-5.047-1.174-1.843-1.846-2.052-2.6-4.16a18.553 18.553 0 0 0 3.109.328s-1.359-2.372-1.664-3.039c-.864-1.893-3.577-6.2-3.577-6.2s-4.529 6.292-6.134 8.7c.528-.033 2.5-.014 2.862-.43z" transform="translate(-1230.043 -252.308)" style="fill:#009965"/>
            <path data-name="패스 7543" d="m1274.045 369.5-1.215 17.2h3.644l-.81-17.208z" transform="translate(-1260.585 -334.703)" style="fill:#4d3237"/>
            <path data-name="패스 9607" d="m1242.9 263.249-7.346 8.524a12.008 12.008 0 0 1 5.255-.161c-2.709 4.6-4.812 6.867-9.216 11.1a17.5 17.5 0 0 0 7.462-2.162q-4.336 5.146-9.008 10.007c9.689-1.813 20.147-.243 30-.69-3.549-1.895-6.773-5.69-8.637-8.535 2.046.345 4.181.407 6.227.752a50.67 50.67 0 0 1-8.421-10.074 12.558 12.558 0 0 0 5.6 1.087c-1.312-1.805-3.162-3.87-3.912-5.047-1.174-1.843-1.846-2.052-2.6-4.16a18.553 18.553 0 0 0 3.109.328s-1.359-2.372-1.664-3.039c-.864-1.893-3.577-6.2-3.577-6.2s-4.529 6.292-6.134 8.7c.528-.033 2.5-.014 2.862-.43z" transform="translate(-1230.043 -252.307)" style="fill:url(#5sttrrsnba)"/>
        </g>
        <g data-name="그룹 4605">
            <g data-name="그룹 4486">
                <path data-name="패스 9449" d="M378.712 329.273a1.632 1.632 0 1 0-1.632 1.632 1.632 1.632 0 0 0 1.632-1.632z" transform="translate(-368.597 -299.566)" style="fill:#ed5632"/>
                <path data-name="패스 9450" d="M379.776 331.541a.333.333 0 1 0-.333.333.333.333 0 0 0 .333-.333z" transform="translate(-371.626 -302.517)" style="fill:#fff"/>
            </g>
            <path data-name="패스 9451" d="M411.575 344.148a.778.778 0 1 0-.778.778.778.778 0 0 0 .778-.778z" transform="translate(-405.065 -317.75)" style="fill:#8fbcff"/>
            <path data-name="패스 9452" d="M480.817 358.469a.778.778 0 1 0-.778.779.778.778 0 0 0 .778-.779z" transform="translate(-456.758 -325.788)" style="fill:#8fbcff"/>
            <g data-name="그룹 4487">
                <path data-name="패스 9453" d="M450.916 336.789a.6.6 0 1 0-.442.731.6.6 0 0 0 .442-.731z" transform="translate(-438.964 -309.879)" style="fill:#fff"/>
                <path data-name="패스 9454" d="M447.423 332.773a.533.533 0 1 0-.39.646.533.533 0 0 0 .39-.646z" transform="translate(-436.07 -306.46)" style="fill:#fff"/>
                <path data-name="패스 9455" d="M509.034 352.818a.533.533 0 1 0-.389.645.533.533 0 0 0 .389-.645z" transform="translate(-489.246 -323.76)" style="fill:#fff"/>
                <path data-name="패스 9456" d="M451.208 329.965a.533.533 0 1 0-.389.645.533.533 0 0 0 .389-.645z" transform="translate(-439.337 -304.036)" style="fill:#fff"/>
                <path data-name="패스 9457" d="M454.536 332.129a.663.663 0 1 0-.485.8.663.663 0 0 0 .485-.8z" transform="translate(-441.988 -305.818)" style="fill:#fff"/>
                <path data-name="패스 9458" d="M457.139 339.331a.663.663 0 1 0-.485.8.663.663 0 0 0 .485-.8z" transform="translate(-444.234 -312.034)" style="fill:#fff"/>
                <path data-name="패스 9459" d="M519.27 359.851a.663.663 0 1 0-.484.8.663.663 0 0 0 .484-.8z" transform="translate(-497.86 -329.745)" style="fill:#fff"/>
                <path data-name="패스 9460" d="M519.1 354.19a.663.663 0 1 0-.484.8.664.664 0 0 0 .484-.8z" transform="translate(-497.712 -324.859)" style="fill:#fff"/>
                <path data-name="패스 9461" d="M462.018 335.27a.663.663 0 1 0-.485.8.663.663 0 0 0 .485-.8z" transform="translate(-448.445 -308.53)" style="fill:#fff"/>
                <path data-name="패스 9462" d="M464.82 340.284a.663.663 0 1 0-.484.8.663.663 0 0 0 .484-.8z" transform="translate(-450.864 -312.856)" style="fill:#fff"/>
                <path data-name="패스 9463" d="M469.525 339.121a.663.663 0 1 0-.485.8.663.663 0 0 0 .485-.8z" transform="translate(-454.924 -311.853)" style="fill:#fff"/>
                <path data-name="패스 9464" d="M471.915 343.52a.663.663 0 1 0-.485.8.663.663 0 0 0 .485-.8z" transform="translate(-456.987 -315.65)" style="fill:#fff"/>
                <path data-name="패스 9465" d="M426.893 325.515a.6.6 0 1 0-.442.731.6.6 0 0 0 .442-.731z" transform="translate(-418.229 -300.148)" style="fill:#fff"/>
                <path data-name="패스 9466" d="M423.4 321.5a.533.533 0 1 0-.39.645.533.533 0 0 0 .39-.645z" transform="translate(-415.334 -296.729)" style="fill:#fff"/>
                <path data-name="패스 9467" d="M427.183 318.691a.533.533 0 1 0-.389.645.533.533 0 0 0 .389-.645z" transform="translate(-418.6 -294.306)" style="fill:#fff"/>
                <path data-name="패스 9468" d="M430.511 320.854a.663.663 0 1 0-.485.8.663.663 0 0 0 .485-.8z" transform="translate(-421.251 -296.087)" style="fill:#fff"/>
                <path data-name="패스 9469" d="M433.113 328.056a.663.663 0 1 0-.484.8.663.663 0 0 0 .484-.8z" transform="translate(-423.497 -302.303)" style="fill:#fff"/>
                <path data-name="패스 9470" d="M437.993 324a.663.663 0 1 0-.485.8.663.663 0 0 0 .485-.8z" transform="translate(-427.709 -298.798)" style="fill:#fff"/>
                <path data-name="패스 9471" d="M411.846 318.454a.6.6 0 1 0-.442.731.6.6 0 0 0 .442-.731z" transform="translate(-405.242 -294.054)" style="fill:#fff"/>
                <path data-name="패스 9472" d="M408.351 314.44a.533.533 0 1 0-.39.645.533.533 0 0 0 .39-.645z" transform="translate(-402.346 -290.637)" style="fill:#fff"/>
                <path data-name="패스 9473" d="M412.136 311.631a.533.533 0 1 0-.389.645.533.533 0 0 0 .389-.645z" transform="translate(-405.613 -288.212)" style="fill:#fff"/>
                <path data-name="패스 9474" d="M415.464 313.794a.663.663 0 1 0-.485.8.663.663 0 0 0 .485-.8z" transform="translate(-408.264 -289.993)" style="fill:#fff"/>
                <path data-name="패스 9475" d="M418.066 321a.664.664 0 1 0-.485.8.663.663 0 0 0 .485-.8z" transform="translate(-410.51 -296.21)" style="fill:#fff"/>
                <path data-name="패스 9476" d="M422.947 316.936a.663.663 0 1 0-.485.8.663.663 0 0 0 .485-.8z" transform="translate(-414.723 -292.705)" style="fill:#fff"/>
                <path data-name="패스 9477" d="M439.78 330.071a.663.663 0 1 0-.485.8.663.663 0 0 0 .485-.8z" transform="translate(-429.251 -304.042)" style="fill:#fff"/>
                <path data-name="패스 9478" d="M445.5 327.846a.663.663 0 1 0-.485.8.663.663 0 0 0 .485-.8z" transform="translate(-434.188 -302.121)" style="fill:#fff"/>
                <path data-name="패스 9479" d="M445.625 333.336a.663.663 0 1 0-.485.8.663.663 0 0 0 .485-.8z" transform="translate(-434.296 -306.861)" style="fill:#fff"/>
                <path data-name="패스 9480" d="M477.513 340.918a.663.663 0 1 0-.485.8.663.663 0 0 0 .485-.8z" transform="translate(-461.819 -313.404)" style="fill:#fff"/>
                <path data-name="패스 9481" d="M527.684 356.1a.663.663 0 1 0-.485.8.664.664 0 0 0 .485-.8z" transform="translate(-505.122 -326.511)" style="fill:#fff"/>
                <path data-name="패스 9482" d="M479.577 346.976a.663.663 0 1 0-.485.8.663.663 0 0 0 .485-.8z" transform="translate(-463.6 -318.633)" style="fill:#fff"/>
                <path data-name="패스 9483" d="M485.831 343.891a.55.55 0 1 0-.4.666.55.55 0 0 0 .4-.666z" transform="translate(-469.192 -316.044)" style="fill:#fff"/>
                <path data-name="패스 9484" d="M525.9 363.243a.55.55 0 1 0-.4.666.55.55 0 0 0 .4-.666z" transform="translate(-503.772 -332.747)" style="fill:#fff"/>
                <path data-name="패스 9485" d="M531.306 364.394a.55.55 0 1 0-.4.666.55.55 0 0 0 .4-.666z" transform="translate(-508.441 -333.74)" style="fill:#fff"/>
                <path data-name="패스 9486" d="M536.21 357.713a.55.55 0 1 0-.4.666.55.55 0 0 0 .4-.666z" transform="translate(-512.673 -327.974)" style="fill:#fff"/>
                <path data-name="패스 9487" d="M540.942 361.359a.633.633 0 1 0-.462.766.633.633 0 0 0 .462-.766z" transform="translate(-516.617 -331.067)" style="fill:#fff"/>
                <path data-name="패스 9488" d="M537.17 361.6a.55.55 0 1 0-.38.679.55.55 0 0 0 .38-.679z" transform="translate(-513.506 -331.342)" style="fill:#fff"/>
                <path data-name="패스 9489" d="M537.869 364.422a.55.55 0 1 0-.4.666.55.55 0 0 0 .4-.666z" transform="translate(-514.106 -333.764)" style="fill:#fff"/>
                <path data-name="패스 9490" d="M531.694 360.159a.55.55 0 1 0-.4.666.55.55 0 0 0 .4-.666z" transform="translate(-508.776 -330.086)" style="fill:#fff"/>
                <path data-name="패스 9491" d="M486.956 350.144a.663.663 0 1 0-.485.8.663.663 0 0 0 .485-.8z" transform="translate(-469.969 -321.367)" style="fill:#fff"/>
                <path data-name="패스 9492" d="M494.329 353.243a.536.536 0 1 0-.392.649.537.537 0 0 0 .392-.649z" transform="translate(-476.549 -324.125)" style="fill:#fff"/>
                <path data-name="패스 9493" d="M499 348.814a.536.536 0 1 0-.392.649.536.536 0 0 0 .392-.649z" transform="translate(-480.583 -320.303)" style="fill:#fff"/>
                <path data-name="패스 9494" d="M505.251 357.763a.536.536 0 1 0-.392.649.536.536 0 0 0 .392-.649z" transform="translate(-485.976 -328.026)" style="fill:#fff"/>
                <path data-name="패스 9495" d="M514.231 352.359a.536.536 0 1 0-.392.649.537.537 0 0 0 .392-.649z" transform="translate(-493.727 -323.362)" style="fill:#fff"/>
                <path data-name="패스 9496" d="M512.111 360.1a.536.536 0 1 0-.392.649.536.536 0 0 0 .392-.649z" transform="translate(-491.897 -330.045)" style="fill:#fff"/>
                <path data-name="패스 9497" d="M512.532 356.814a.536.536 0 1 0-.392.649.537.537 0 0 0 .392-.649z" transform="translate(-492.26 -327.207)" style="fill:#fff"/>
                <path data-name="패스 9498" d="M500.507 354.9a.536.536 0 1 0-.392.649.536.536 0 0 0 .392-.649z" transform="translate(-481.881 -325.556)" style="fill:#fff"/>
                <path data-name="패스 9499" d="M504.473 350.736a.536.536 0 1 0-.392.649.537.537 0 0 0 .392-.649z" transform="translate(-485.305 -321.961)" style="fill:#fff"/>
                <path data-name="패스 9500" d="M492.876 346.293a.536.536 0 1 0-.392.649.536.536 0 0 0 .392-.649z" transform="translate(-475.295 -318.127)" style="fill:#fff"/>
            </g>
            <g data-name="그룹 4489">
                <path data-name="패스 9503" d="M466.795 285.484a1.632 1.632 0 1 0-1.632 1.632 1.632 1.632 0 0 0 1.632-1.632z" transform="translate(-450.514 -261.497)" style="fill:#ed5632"/>
                <path data-name="패스 9504" d="M467.858 287.753a.333.333 0 1 0-.333.333.333.333 0 0 0 .333-.333z" transform="translate(-453.542 -264.449)" style="fill:#fff"/>
            </g>
            <g data-name="그룹 4490">
                <path data-name="패스 9505" d="M499.083 267.263a1.379 1.379 0 1 0-1.379 1.379 1.379 1.379 0 0 0 1.379-1.379z" transform="translate(-475.431 -238.707)" style="fill:#ed5632"/>
                <path data-name="패스 9506" d="M499.247 268.465a.282.282 0 1 0-.281.282.281.281 0 0 0 .281-.282z" transform="translate(-477.255 -240.486)" style="fill:#fff"/>
            </g>
            <g data-name="그룹 4491">
                <path data-name="패스 9507" d="M468.918 218.722a1.379 1.379 0 1 0-1.379 1.379 1.379 1.379 0 0 0 1.379-1.379z" transform="translate(-448.584 -203.825)" style="fill:#ed5632"/>
                <path data-name="패스 9508" d="M469.082 219.924a.282.282 0 1 0-.282.282.282.282 0 0 0 .282-.282z" transform="translate(-450.408 -205.603)" style="fill:#fff"/>
            </g>
            <g data-name="그룹 4492">
                <path data-name="패스 9509" d="M438.509 367a1.051 1.051 0 1 0-1.052 1.051 1.052 1.052 0 0 0 1.052-1.051z" transform="translate(-419.768 -332.489)" style="fill:#ed5632"/>
                <path data-name="패스 9510" d="M439.194 368.463a.215.215 0 1 0-.215.214.215.215 0 0 0 .215-.214z" transform="translate(-421.719 -334.39)" style="fill:#fff"/>
            </g>
            <path data-name="패스 9511" d="M494.182 297.178a.778.778 0 1 0-.778.778.778.778 0 0 0 .778-.778z" transform="translate(-473.286 -275.295)" style="fill:#f7cc4d"/>
            <path data-name="패스 9606" d="M495.232 297.7a1.3 1.3 0 1 0-1.3 1.3 1.3 1.3 0 0 0 1.3-1.3z" transform="translate(-483.041 -264.243)" style="fill:#f7cc4d"/>
            <path data-name="패스 9512" d="M430.181 289.565a.779.779 0 1 0-.778.778.778.778 0 0 0 .778-.778z" transform="translate(-413.197 -276.047)" style="fill:#8fbcff"/>
            <path data-name="패스 9513" d="M480.131 262.684a.436.436 0 1 0-.436.435.436.436 0 0 0 .436-.435z" transform="translate(-457.405 -242.564)" style="fill:#f7cc4d"/>
            <path data-name="패스 9514" d="M373.824 299.106a.778.778 0 1 0-.779.778.778.778 0 0 0 .779-.778z" transform="translate(-362.683 -280.495)" style="fill:#f7cc4d"/>
            <g data-name="그룹 4493">
                <path data-name="패스 9515" d="M449.423 266.378a.6.6 0 1 1 .389.76.6.6 0 0 1-.389-.76z" transform="translate(-432.748 -247.505)" style="fill:#fff"/>
                <path data-name="패스 9516" d="M454.116 262.65a.533.533 0 1 1 .344.671.533.533 0 0 1-.344-.671z" transform="translate(-436.801 -244.33)" style="fill:#fff"/>
                <path data-name="패스 9518" d="M450.535 259.583a.533.533 0 1 1 .343.671.533.533 0 0 1-.343-.671z" transform="translate(-433.711 -241.683)" style="fill:#fff"/>
                <path data-name="패스 9519" d="M445.366 261.449a.663.663 0 1 1 .427.835.663.663 0 0 1-.427-.835z" transform="translate(-429.244 -243.216)" style="fill:#fff"/>
                <path data-name="패스 9520" d="M442.266 268.453a.663.663 0 1 1 .428.835.663.663 0 0 1-.428-.835z" transform="translate(-426.568 -249.26)" style="fill:#fff"/>
                <path data-name="패스 9523" d="M437.682 264.061a.663.663 0 1 1 .428.835.663.663 0 0 1-.428-.835z" transform="translate(-422.612 -245.469)" style="fill:#fff"/>
                <path data-name="패스 9524" d="M434.536 268.867a.663.663 0 1 1 .427.835.663.663 0 0 1-.427-.835z" transform="translate(-419.897 -249.618)" style="fill:#fff"/>
                <path data-name="패스 9525" d="M429.924 267.378a.663.663 0 1 1 .428.835.664.664 0 0 1-.428-.835z" transform="translate(-415.916 -248.333)" style="fill:#fff"/>
                <path data-name="패스 9526" d="M427.233 271.6a.663.663 0 1 1 .428.835.663.663 0 0 1-.428-.835z" transform="translate(-413.593 -251.978)" style="fill:#fff"/>
                <path data-name="패스 9527" d="M474.176 256.808a.6.6 0 1 1 .389.761.6.6 0 0 1-.389-.761z" transform="translate(-454.112 -239.245)" style="fill:#fff"/>
                <path data-name="패스 9528" d="M478.868 253.078a.533.533 0 1 1 .344.671.533.533 0 0 1-.344-.671z" transform="translate(-458.165 -236.068)" style="fill:#fff"/>
                <path data-name="패스 9529" d="M475.288 250.014a.533.533 0 1 1 .343.671.533.533 0 0 1-.343-.671z" transform="translate(-455.076 -233.423)" style="fill:#fff"/>
                <path data-name="패스 9530" d="M470.119 251.879a.663.663 0 1 1 .428.835.663.663 0 0 1-.428-.835z" transform="translate(-450.608 -234.955)" style="fill:#fff"/>
                <path data-name="패스 9531" d="M467.02 258.882a.663.663 0 1 1 .427.835.663.663 0 0 1-.427-.835z" transform="translate(-447.934 -241)" style="fill:#fff"/>
                <path data-name="패스 9532" d="M462.436 254.491a.663.663 0 1 1 .427.835.663.663 0 0 1-.427-.835z" transform="translate(-443.977 -237.21)" style="fill:#fff"/>
                <path data-name="패스 9537" d="M482.522 252.89a.663.663 0 1 1 .428.835.663.663 0 0 1-.428-.835z" transform="translate(-461.314 -235.828)" style="fill:#fff"/>
                <path data-name="패스 9538" d="M477.937 248.5a.663.663 0 1 1 .427.835.663.663 0 0 1-.427-.835z" transform="translate(-457.356 -232.037)" style="fill:#fff"/>
                <path data-name="패스 9539" d="M460.228 260.427a.663.663 0 1 1 .427.835.663.663 0 0 1-.427-.835z" transform="translate(-442.071 -242.333)" style="fill:#fff"/>
                <path data-name="패스 9540" d="M454.677 257.808a.663.663 0 1 1 .428.835.663.663 0 0 1-.428-.835z" transform="translate(-437.28 -240.073)" style="fill:#fff"/>
                <path data-name="패스 9541" d="M454.17 263.277a.663.663 0 1 1 .428.835.663.663 0 0 1-.428-.835z" transform="translate(-436.842 -244.793)" style="fill:#fff"/>
                <path data-name="패스 9542" d="M421.83 268.614a.663.663 0 1 1 .427.835.663.663 0 0 1-.427-.835z" transform="translate(-408.93 -249.4)" style="fill:#fff"/>
                <path data-name="패스 9544" d="M419.35 274.514a.663.663 0 1 1 .428.835.663.663 0 0 1-.428-.835z" transform="translate(-406.789 -254.492)" style="fill:#fff"/>
                <path data-name="패스 9545" d="M414.8 271.051a.55.55 0 1 1 .354.692.55.55 0 0 1-.354-.692z" transform="translate(-402.87 -251.571)" style="fill:#fff"/>
                <path data-name="패스 9553" d="M411.766 277.159a.663.663 0 1 1 .428.835.663.663 0 0 1-.428-.835z" transform="translate(-400.244 -256.774)" style="fill:#fff"/>
                <path data-name="패스 9554" d="M405.851 279.794a.536.536 0 1 1 .346.675.536.536 0 0 1-.346-.675z" transform="translate(-395.144 -259.125)" style="fill:#fff"/>
                <path data-name="패스 9555" d="M401.5 275.049a.536.536 0 1 1 .346.675.536.536 0 0 1-.346-.675z" transform="translate(-391.388 -255.03)" style="fill:#fff"/>
                <path data-name="패스 9556" d="M394.643 283.54a.536.536 0 1 1 .346.675.537.537 0 0 1-.346-.675z" transform="translate(-385.47 -262.358)" style="fill:#fff"/>
                <path data-name="패스 9560" d="M399.575 281.016a.536.536 0 1 1 .345.675.536.536 0 0 1-.345-.675z" transform="translate(-389.727 -260.18)" style="fill:#fff"/>
                <path data-name="패스 9561" d="M395.909 276.586a.536.536 0 1 1 .346.675.537.537 0 0 1-.346-.675z" transform="translate(-386.562 -256.355)" style="fill:#fff"/>
                <path data-name="패스 9562" d="M407.787 272.963a.536.536 0 1 1 .346.675.536.536 0 0 1-.346-.675z" transform="translate(-396.815 -253.229)" style="fill:#fff"/>
            </g>
            <path data-name="패스 9564" d="m430.925 115.9.652-1.363.685 1.346 1.5.2-1.069 1.067.273 1.486-1.345-.687-1.329.719.237-1.492-1.094-1.041z" transform="translate(-415.634 -114.541)" style="fill:#ffcd27"/>
            <g data-name="그룹 4495">
                <path data-name="패스 9565" d="M404.832 188.211a2.326 2.326 0 1 0-2.326 2.326 2.326 2.326 0 0 0 2.326-2.326z" transform="translate(-391.034 -177.173)" style="fill:#ed5632"/>
                <path data-name="패스 9566" d="M405.393 190.515a.475.475 0 1 0-.475.475.475.475 0 0 0 .475-.475z" transform="translate(-394.396 -180.45)" style="fill:#fff"/>
            </g>
            <path data-name="패스 9568" d="M417.007 218.8a.436.436 0 1 0-.435.436.436.436 0 0 0 .435-.436z" transform="translate(-404.317 -203.613)" style="fill:#f7cc4d"/>
            <path data-name="패스 9571" d="M454.234 157.3a.988.988 0 1 0-.988.988.988.988 0 0 0 .988-.988z" transform="translate(-435.003 -150.057)" style="fill:#f7cc4d"/>
            <g data-name="그룹 4496">
                <path data-name="패스 9572" d="M418.2 164.853a.6.6 0 1 0-.6.6.6.6 0 0 0 .6-.6z" transform="translate(-405.057 -156.909)" style="fill:#fff"/>
                <path data-name="패스 9573" d="M415.893 160.024a.533.533 0 1 0-.533.533.533.533 0 0 0 .533-.533z" transform="translate(-403.187 -152.802)" style="fill:#fff"/>
                <path data-name="패스 9574" d="M470.894 194.268a.533.533 0 1 0-.533.533.533.533 0 0 0 .533-.533z" transform="translate(-450.659 -182.358)" style="fill:#fff"/>
                <path data-name="패스 9575" d="M420.243 158.206a.533.533 0 1 0-.533.533.533.533 0 0 0 .533-.533z" transform="translate(-406.941 -151.233)" style="fill:#fff"/>
                <path data-name="패스 9576" d="M422.733 161.277a.663.663 0 1 0-.664.663.663.663 0 0 0 .664-.663z" transform="translate(-408.865 -153.771)" style="fill:#fff"/>
                <path data-name="패스 9577" d="M423.531 168.893a.663.663 0 1 0-.663.663.663.663 0 0 0 .663-.663z" transform="translate(-409.554 -160.345)" style="fill:#fff"/>
                <path data-name="패스 9579" d="M480.114 198.191a.663.663 0 1 0-.663.663.663.663 0 0 0 .663-.663z" transform="translate(-458.391 -185.632)" style="fill:#fff"/>
                <path data-name="패스 9580" d="M429.243 166.123a.663.663 0 1 0-.663.663.663.663 0 0 0 .663-.663z" transform="translate(-414.484 -157.954)" style="fill:#fff"/>
                <path data-name="패스 9581" d="M430.76 171.663a.663.663 0 1 0-.663.663.663.663 0 0 0 .663-.663z" transform="translate(-415.794 -162.735)" style="fill:#fff"/>
                <path data-name="패스 9582" d="M435.606 171.663a.663.663 0 1 0-.663.663.663.663 0 0 0 .663-.663z" transform="translate(-419.976 -162.735)" style="fill:#fff"/>
                <path data-name="패스 9583" d="M436.87 176.509a.663.663 0 1 0-.663.663.663.663 0 0 0 .663-.663z" transform="translate(-421.067 -166.918)" style="fill:#fff"/>
                <path data-name="패스 9584" d="M442.93 175.325a.663.663 0 1 0-.663.663.663.663 0 0 0 .663-.663z" transform="translate(-426.298 -165.896)" style="fill:#fff"/>
                <path data-name="패스 9586" d="M443.478 181.7a.663.663 0 1 0-.663.663.663.663 0 0 0 .663-.663z" transform="translate(-426.771 -171.4)" style="fill:#fff"/>
                <path data-name="패스 9587" d="M450.482 180.057a.55.55 0 1 0-.55.55.55.55 0 0 0 .55-.55z" transform="translate(-433.012 -170.078)" style="fill:#fff"/>
                <path data-name="패스 9595" d="M449.882 186.548a.663.663 0 1 0-.664.663.663.663 0 0 0 .664-.663z" transform="translate(-432.298 -175.583)" style="fill:#fff"/>
                <path data-name="패스 9596" d="M456.512 191.157a.536.536 0 1 0-.536.536.536.536 0 0 0 .536-.536z" transform="translate(-438.239 -179.671)" style="fill:#fff"/>
                <path data-name="패스 9597" d="M462.111 187.978a.536.536 0 1 0-.536.536.536.536 0 0 0 .536-.536z" transform="translate(-443.072 -176.927)" style="fill:#fff"/>
                <path data-name="패스 9598" d="M466.028 198.165a.536.536 0 1 0-.536.536.536.536 0 0 0 .536-.536z" transform="translate(-446.454 -185.719)" style="fill:#fff"/>
                <path data-name="패스 9599" d="M476.044 195.075a.536.536 0 1 0-.536.536.536.536 0 0 0 .536-.536z" transform="translate(-455.098 -183.052)" style="fill:#fff"/>
                <path data-name="패스 9600" d="M472.126 202.082a.536.536 0 1 0-.536.536.536.536 0 0 0 .536-.536z" transform="translate(-451.717 -189.1)" style="fill:#fff"/>
                <path data-name="패스 9601" d="M473.323 198.992a.536.536 0 1 0-.536.536.536.536 0 0 0 .536-.536z" transform="translate(-452.749 -186.433)" style="fill:#fff"/>
                <path data-name="패스 9602" d="M462.111 194.249a.536.536 0 1 0-.536.536.536.536 0 0 0 .536-.536z" transform="translate(-443.072 -182.339)" style="fill:#fff"/>
                <path data-name="패스 9603" d="M466.959 191.158a.536.536 0 1 0-.536.536.536.536 0 0 0 .536-.536z" transform="translate(-447.257 -179.671)" style="fill:#fff"/>
                <path data-name="패스 9604" d="M456.769 184.061a.536.536 0 1 0-.536.536.536.536 0 0 0 .536-.536z" transform="translate(-438.461 -173.546)" style="fill:#fff"/>
            </g>
        </g>
    </g>
</svg>
