<svg xmlns="http://www.w3.org/2000/svg" width="36" height="40.169" viewBox="0 0 36 40.169">
    <defs>
        <style>
            .cls-1{fill:none;stroke:#6e4729;stroke-linecap:round;stroke-linejoin:round;stroke-width:2.5px}.cls-2{fill:#7db100}.cls-3{fill:#690}
        </style>
    </defs>
    <g id="그룹_4468" data-name="그룹 4468" transform="translate(-658.442 -556.997)">
        <path id="패스_8279" data-name="패스 8279" class="cls-1" d="M684.9 588.326c13.885 5.648 10.473 31.065 10.473 31.065" transform="translate(-19.957 -23.631)"/>
        <path id="패스_8280" data-name="패스 8280" class="cls-1" d="M728.632 603.085s-.556-17.886 6.112-23.22" transform="translate(-52.935 -17.249)"/>
        <path id="패스_8281" data-name="패스 8281" class="cls-1" d="M731.087 611.741s2.694-6.429 9.754-7.292" transform="translate(-54.795 -35.793)"/>
        <path id="패스_8282" data-name="패스 8282" class="cls-2" d="M755.782 557.578a5.429 5.429 0 0 0-7.534 6.27 7.4 7.4 0 0 0 7.534-6.27z" transform="translate(-67.549)"/>
        <path id="패스_8283" data-name="패스 8283" class="cls-3" d="M756.546 614.47a5.429 5.429 0 0 0-8.551-4.791 7.4 7.4 0 0 0 8.551 4.791z" transform="translate(-67.549 -38.941)"/>
        <path id="패스_8284" data-name="패스 8284" class="cls-3" d="M775.967 588.84a5.429 5.429 0 0 0-9.443 2.626 7.4 7.4 0 0 0 9.443-2.626z" transform="translate(-81.525 -22.594)"/>
        <path id="패스_8285" data-name="패스 8285" class="cls-3" d="M667.144 576.608a5.429 5.429 0 0 0-8.7-4.51 7.4 7.4 0 0 0 8.7 4.51z" transform="translate(0 -10.519)"/>
        <path id="패스_8286" data-name="패스 8286" class="cls-2" d="M687.742 614.514a5.429 5.429 0 0 0-9.419 2.71 7.4 7.4 0 0 0 9.419-2.71z" transform="translate(-14.996 -41.986)"/>
        <path id="패스_8287" data-name="패스 8287" class="cls-3" d="M705.957 568.964a5.429 5.429 0 0 0-2.355 9.515 7.4 7.4 0 0 0 2.355-9.515z" transform="translate(-32.552 -9.027)"/>
    </g>
</svg>
