<svg id="그룹_4248" data-name="그룹 4248" xmlns="http://www.w3.org/2000/svg" width="31.353" height="46" viewBox="0 0 31.353 46">
  <path id="패스_8288" data-name="패스 8288" d="M63.388,80.744c-.015.017-.014.018,0,0a4.54,4.54,0,0,0,.522-.988,2.586,2.586,0,0,0-1.479-3.326,3.93,3.93,0,0,0-1.5-.358c-.152,0-1.241.029-1.256.265.038-.576.282-1.04-.1-1.547a2.046,2.046,0,0,0-1.1-.683,3.028,3.028,0,0,0-1.479-.029c-.212.05-1.081.323-1.083.624a2.8,2.8,0,0,0-1.577-2.241,3.58,3.58,0,0,0-2.047-.274c-1.507.2-3.633,1.821-3.188,3.541a2.762,2.762,0,0,0-2.677-.347,3.355,3.355,0,0,0-2.067,2.131,2.482,2.482,0,0,0,0,1.343c.1.3.535,1.008.892,1.038-2.084-.174-4.819.746-5.813,2.491a2.979,2.979,0,0,0,1.668,4.5c-1.437.7-3.808,2.907-1.406,3.919-1.5.7-3.184,2.285-2.706,4.236.465,1.9,2.7,2.324,4.111,2.116-.992.763-2.394,1.729-2.115,3.223.235,1.255,1.335,1.6,2.474,1.557a2.883,2.883,0,0,0-1.449,2.8,2.109,2.109,0,0,0,2.363,1.511,1.525,1.525,0,0,0,.4,2.226,3.775,3.775,0,0,0,4.18-.4c-.109,1.586.339,2.771,2.065,3.213a3.2,3.2,0,0,0,3.594-1.6c.337,1.221,2.355,2.081,3.481,1.8a2.587,2.587,0,0,0,2.169-3.1c1.917.8,6.494-.048,4.808-3.522,1.359-.091,3.576-.14,3.913-1.785.368-1.8-.67-2.525-2.248-3.223a3.922,3.922,0,0,0,3.373-2.071c.639-1.572-.907-2.425-2.251-2.7,1.086-.316,2.454-1.127,1.915-2.494a2.2,2.2,0,0,0-1.3-1.158,2.257,2.257,0,0,0,.909-2.371,3.606,3.606,0,0,0-2.337-2.6c1.157-.831,2.176-1.843,1.681-3.356a3.483,3.483,0,0,0-1.461-1.694C65.008,81.251,63.693,80.411,63.388,80.744Z" transform="translate(-36.904 -72.152)" fill="#7db100"/>
  <g id="그룹_4104" data-name="그룹 4104" transform="translate(7.089 10.539)">
    <path id="패스_8289" data-name="패스 8289" d="M133.491,326.525a18.785,18.785,0,0,1-5.052-5.052l-.415.208a16.267,16.267,0,0,0,5.675,5.813Z" transform="translate(-128.024 -312.615)" fill="#6e4729"/>
    <path id="패스_8290" data-name="패스 8290" d="M215.491,222.05a20.237,20.237,0,0,1-1.661-5.536l-.415.069a17.3,17.3,0,0,0,1.938,6.3Z" transform="translate(-206.772 -215.822)" fill="#6e4729"/>
    <path id="패스_8291" data-name="패스 8291" d="M238.459,242.8s.036-.043.1-.126a21.4,21.4,0,0,0,3.636-7.486h.484s-1.592,6.782-4.36,9" transform="translate(-229.74 -233.047)" fill="#6e4729"/>
    <path id="패스_8292" data-name="패스 8292" d="M153.663,243.079s.557-1.094.6-5.974c0,0-.384-14.885-5.782-23.812l.554-.277a34.984,34.984,0,0,1,4.844,12.526s1.73-14.325,2.63-17.923h.554s-1.8,12.941-1.938,18.2c0,0,.623,3.668.83,4.5,0,0,5.571-10.934,6.055-21.245l.557.008a38.676,38.676,0,0,1-.937,8.642,33.945,33.945,0,0,1,5.052-4.014l.277.484s-4.152,2.907-5.605,5.4c0,0-3.114,9.135-3.875,11.764,0,0-.069,4.221,0,5.605a31.143,31.143,0,0,0,.36,6.119Z" transform="translate(-146.891 -207.618)" fill="#6e4729"/>
  </g>
</svg>
