<svg xmlns="http://www.w3.org/2000/svg" width="75.574" height="72.369" viewBox="0 0 75.574 72.369">
    <g data-name="그룹 17817" transform="translate(-436.426 -412.816)">
        <circle data-name="타원 728" cx="11" cy="11" r="11" transform="translate(490 418)" style="fill:#ff5d5d;opacity:.35"/>
        <path data-name="합치기 55" d="m22.594 71.562-5.613-13.681a13.225 13.225 0 0 1-3.568.5 13.371 13.371 0 0 1-12.4-8.344A13.526 13.526 0 0 1 8.3 32.431l13.132-5.448L30.275 15.4c.014-.018.032-.029.047-.047l1.251-1.64a3.916 3.916 0 0 1 3.555-1.759 3.916 3.916 0 0 1 2.976 2.63l3.858 9.4a9.128 9.128 0 0 1 8.138 5.694 9.235 9.235 0 0 1-1.779 9.8l3.857 9.4a3.953 3.953 0 0 1-.264 3.975 3.658 3.658 0 0 1-3 1.326 5.743 5.743 0 0 1-.754-.051l-1.983-.269a1.172 1.172 0 0 1-.118-.008l-14.4-1.941-5.929 2.458 5.57 13.58a1.306 1.306 0 0 1-.7 1.7l-6.313 2.622a1.268 1.268 0 0 1-.494.1 1.3 1.3 0 0 1-1.199-.808zm-3.175-14.575L24.5 69.361l3.9-1.62-5.071-12.376zm3.854-28.138a1.282 1.282 0 0 1-.534.411L9.284 34.842a10.913 10.913 0 0 0-5.874 14.2 10.777 10.777 0 0 0 14.123 5.905l13.455-5.58a1.3 1.3 0 0 1 .667-.088l12.514 1.688L30.964 18.78zM33.63 15.3l-.838 1.1 14.344 34.961 1.365.185a1.5 1.5 0 0 0 1.356-.28 1.53 1.53 0 0 0-.078-1.389l-14.072-34.3c-.25-.607-.593-1-.919-1.04a.516.516 0 0 0-.057 0 1.638 1.638 0 0 0-1.101.763zm13.553 21.412a6.611 6.611 0 0 0-4.083-9.957zm4.012-9.544a3.127 3.127 0 0 1-.411-2.84l.724-2.443a13.457 13.457 0 0 1 .39-17.43A13.2 13.2 0 0 1 61.093.02c.248-.013.495-.02.74-.02a13.415 13.415 0 0 1 9.914 22.344 13.2 13.2 0 0 1-9.194 4.436c-.249.013-.5.02-.742.02a13.121 13.121 0 0 1-4.226-.691l-2.229 1.548a3.3 3.3 0 0 1-1.9.643 2.78 2.78 0 0 1-2.261-1.132zm10.04-24.543a10.805 10.805 0 0 0-6.82 18.582l-1.144 3.865c-.117.4-.037.619.18.619a.816.816 0 0 0 .427-.178l3.376-2.346a10.616 10.616 0 0 0 4.557 1.024c.2 0 .4-.006.6-.017a10.793 10.793 0 0 0-.576-21.566c-.201 0-.399.006-.6.017zm-.945 16.9a1.531 1.531 0 1 1 1.528 1.547 1.483 1.483 0 0 1-1.527-1.544zm.554-3.151c-.071 0-.093-.022-.093-.045a.629.629 0 0 1-.07-.375l-.326-9.347c-.022-.62 0-.643.442-.643h2.063c.439 0 .439.023.416.643l-.326 9.347v.266c-.021.066-.021.086-.046.109a.742.742 0 0 1-.347.045z" transform="translate(436.426 412.816)" style="fill:#272733"/>
    </g>
</svg>
