<svg xmlns="http://www.w3.org/2000/svg" width="44" height="44" viewBox="0 0 44 44">
    <g data-name="그룹 15603">
        <g data-name="그룹 6219">
            <path data-name="패스 15654" d="m280.146 37.466 17.012-17.2a2.954 2.954 0 1 0-4.178-4.178l-12.3 12.5a.683.683 0 0 1-.483.2.7.7 0 0 1-.493-.2l-3.028-3.1a2.954 2.954 0 0 0-4.223 4.132zM263.2 29.9a16.06 16.06 0 0 1 16.043-16.04 15.8 15.8 0 0 1 6.905 1.56.681.681 0 1 1-.584 1.231 14.741 14.741 0 1 0 7.817 9.368l-12.752 12.907a.683.683 0 0 1-.483.2.676.676 0 0 1-.493-.21l-8.173-8.346a4.322 4.322 0 1 1 6.175-6.048l2.545 2.6 11.812-11.995a4.318 4.318 0 1 1 6.111 6.1l-3.639 3.685c0 .009.018.018.018.036A16.043 16.043 0 1 1 263.2 29.9z" transform="translate(-257.238 -8.246)" style="fill:#fff"/>
            <path data-name="패스 15655" d="M278.847 10.718A18.781 18.781 0 1 0 297.628 29.5a19.485 19.485 0 0 0-.128-2.2.678.678 0 0 1 .593-.757.687.687 0 0 1 .766.6A22.473 22.473 0 0 1 299 29.5a20.145 20.145 0 1 1-11.475-18.188.678.678 0 0 1 .319.912.692.692 0 0 1-.912.328 18.581 18.581 0 0 0-8.085-1.834z" transform="translate(-256.842 -7.85)" style="fill:#fff"/>
        </g>
        <path data-name="사각형 6839" style="fill:none" d="M0 0h44v44H0z"/>
    </g>
</svg>
