<svg xmlns="http://www.w3.org/2000/svg" width="46.003" height="23.993" viewBox="0 0 46.003 23.993">
    <defs>
        <linearGradient id="dq8yxo3owa" x1="1" y1=".528" x2="0" y2=".528" gradientUnits="objectBoundingBox">
            <stop offset="0" stop-color="#3c66db"/>
            <stop offset="1" stop-color="#3c66db" stop-opacity=".11"/>
        </linearGradient>
    </defs>
    <path data-name="합치기 247" d="M-6549.838 14451.065v-2.952H-6577a2 2 0 0 1-2-2v-10.084a2 2 0 0 1 2-2h27.162v-2.948a2 2 0 0 1 3.229-1.578l12.844 9.989a2.006 2.006 0 0 1 0 3.16l-12.844 9.993a1.968 1.968 0 0 1-1.218.425 2 2 0 0 1-2.011-2.005z" transform="translate(6578.999 -14429.075)" style="fill:url(#dq8yxo3owa)"/>
</svg>
